2022-07-03 23:30:50 INFO input: my_data/10000/mildew.csv
2022-07-03 23:30:50 INFO variables: 35
2022-07-03 23:30:50 INFO instances: 10000
2022-07-03 23:30:50 INFO function: 
2022-07-03 23:30:50 INFO limit: 6
2022-07-03 23:30:50 INFO priors: 
2022-07-03 23:30:50 INFO output: tmp.mps
2022-07-03 23:30:50 INFO searching parent sets
2022-07-03 23:30:50 DEBUG processing with N = 1
2022-07-03 23:30:50 DEBUG building CTCounter engine
2022-07-03 23:30:50 DEBUG engine ready in 744ms
2022-07-03 23:30:50 DEBUG building MDLEngine...
2022-07-03 23:30:50 DEBUG MDLEngine getting entropies...
