2022-07-07 12:10:20 INFO input: my_data/100000/insurance.csv
2022-07-07 12:10:20 INFO variables: 27
2022-07-07 12:10:20 INFO instances: 100000
2022-07-07 12:10:20 INFO function: 
2022-07-07 12:10:20 INFO limit: 6
2022-07-07 12:10:20 INFO priors: 
2022-07-07 12:10:20 INFO output: tmp.mps
2022-07-07 12:10:20 INFO searching parent sets
2022-07-07 12:10:20 DEBUG processing with N = 1
2022-07-07 12:10:20 DEBUG building CTCounter engine
2022-07-07 12:10:20 DEBUG engine ready in 4343ms
2022-07-07 12:10:20 DEBUG building MDLEngine...
2022-07-07 12:10:20 DEBUG MDLEngine getting entropies...
