2022-07-08 11:40:21 INFO input: my_data/1000/alarm.csv
2022-07-08 11:40:21 INFO variables: 37
2022-07-08 11:40:21 INFO instances: 1000
2022-07-08 11:40:21 INFO function: 
2022-07-08 11:40:21 INFO limit: 6
2022-07-08 11:40:21 INFO priors: 
2022-07-08 11:40:21 INFO output: tmp.mps
2022-07-08 11:40:21 INFO searching parent sets
2022-07-08 11:40:21 DEBUG processing with N = 1
2022-07-08 11:40:21 DEBUG building Hasher engine
2022-07-08 11:40:21 DEBUG engine ready in 174ms
2022-07-08 11:40:21 DEBUG building MDLEngine...
2022-07-08 11:40:21 DEBUG MDLEngine getting entropies...
2022-07-08 11:40:21 INFO maximal number of parents limited to 6
2022-07-08 11:40:21 DEBUG MDLEngine ready!
2022-07-08 11:40:21 DEBUG updating MPS...
2022-07-08 11:40:21 DEBUG sort done, MPS update size is 37
2022-07-08 11:40:21 DEBUG MPS updated
2022-07-08 11:40:21 INFO processed layer 0, size of next layer 37, time: 4.5845e-05s (0h0m0s)
2022-07-08 11:40:21 DEBUG memory required: 592B
2022-07-08 11:40:21 DEBUG updating MPS...
2022-07-08 11:40:21 DEBUG sort done, MPS update size is 1332
2022-07-08 11:40:21 DEBUG MPS updated
2022-07-08 11:40:21 INFO processed layer 1, size of next layer 666, time: 0.0551383s (0h0m0s)
2022-07-08 11:40:21 DEBUG memory required: 10.41KB
2022-07-08 11:40:23 DEBUG updating MPS...
2022-07-08 11:40:23 DEBUG sort done, MPS update size is 23310
2022-07-08 11:40:23 DEBUG MPS updated
2022-07-08 11:40:23 INFO processed layer 2, size of next layer 7770, time: 1.49494s (0h0m1s)
2022-07-08 11:40:23 DEBUG memory required: 121.4KB
2022-07-08 11:40:45 DEBUG updating MPS...
2022-07-08 11:40:45 DEBUG sort done, MPS update size is 264172
2022-07-08 11:40:45 DEBUG MPS updated
2022-07-08 11:40:45 INFO processed layer 3, size of next layer 66045, time: 22.4057s (0h0m22s)
2022-07-08 11:40:45 DEBUG memory required: 1.008MB
2022-07-08 11:44:47 DEBUG updating MPS...
2022-07-08 11:44:47 DEBUG sort done, MPS update size is 2178755
2022-07-08 11:44:56 DEBUG MPS updated
2022-07-08 11:44:56 INFO processed layer 4, size of next layer 435897, time: 250.924s (0h4m10s)
2022-07-08 11:44:56 DEBUG memory required: 6.651MB
2022-07-08 12:19:50 DEBUG updating MPS...
2022-07-08 12:19:50 DEBUG sort done, MPS update size is 13926301
2022-07-08 12:34:44 DEBUG MPS updated
2022-07-08 12:34:44 INFO processed layer 5, size of next layer 2324784, time: 2987.47s (0h49m47s)
2022-07-08 12:34:44 DEBUG memory required: 35.47MB
2022-07-08 20:41:13 DEBUG updating MPS...
2022-07-08 20:41:16 DEBUG sort done, MPS update size is 71676534
