112225919344
146727089809
122527582063
158132105788
153591833845
110079165569
2021140
117887310793
105883633318
136722678639
116081559488
135108857961
158981323771
2058128
105892922918
108137893325
149469049998
134045484023
127616213836
134256569103
137784437360
129716033042
149415535241
128722553209
118213978486
129411902288
537547735
146350625089
5347054463
158094131131
600256
157498367486
183667021
8658574168
120589455732
125156154798
201269625406
109962068733
56132243569
5653426465
109250055134
153526410620
157544466738
766687022
155790542178
103415704794
99214833676
129125822182
116117562712
137756830350
128680793217
122987624788
157529538664
106186522714
29464855
6925496
105279757845
124399683984
137977790467
114298127022
80516399
119398889790
138829466958
124285628304
140493553611
118009497861
105330031032
103289484340
107264303332
10640374763
124898980206
129828997341
154475012348
163000136543
19418538
74047665560
5602229
132280206392
148699647116
137843554358
26616153
143092583316
1792391509
111621414740
141732492042
6571576
465915
134756586155
119720321497
11339992
117538314220
125460573
134400956538
106739338072
3432968
120023309259
113057211826
2597
120009744039
248889322
103722488129
154277139726
123388189800
148038352497
102392158381
2104
158968147140
149095731848
137305894070
144415205504
132338623471
112078958881
144733173979
155899312351
119663234767
132994144605
22231762688
118857188753
136839493877
86416193
6380690483
105956283027
152688946263
127859206139
110549345290
110601653235
127556804741
140022413434
114720713843
132243311623
119072502292
159752918490
123200552088
105971934312
114887804907
129048791437
60358641482
151379724194
126442918288
121949185513
144900311444
106290075303
116032086731
487398
1486054063
115613127167
119790493091
29836642585
109780797799
125025742864
131452689261
106863278872
130098950714
119472425362
113411094904
122561323018
3459781218
149881322795
2724
782
124916001683
1380892987
152805932924
106300596255
78179274234
151045150768
4154359467
122066003611
86138090
114581595290
28636494
106982544899
161276675830
160027459320
122762623048
110593096652
110042410891
126389612573
112022690925
658165
113812926267
7106889751
125465422957
134573647
3123101032
124616871209
114573836591
2028
129209908857
128075296657
110297630740
71058608040
111213254251
108500819243
130287563699
157578175656
112337210847
142761106154
125592469599
152115118631
108147831788
116926872642
113072567631
123747992048
114185023721
147234602863
127480350050
105260968735
131187600978
113672564858
117947474896
108992945440
11259509
147465983721
103254498150
176029203
134572683341
146018601708
59567993
154025617946
112846183598
155689692951
110951176029
130760340359
123307256040
121191557881
105650656690
124204387807
153139576171
60678342764
123353657931
155483600953
112466897998
122253091237
106497357673
108212134060
132812014171
1342683149
114501156227
4007261
158837350992
1005178
145573085525
108416175452
109645224167
87129009
3390488295
107927538980
135758229255
111225262831
111420753535
141464363065
117651339017
105882690725
137093519131
4474251188
642470
108254125110
158963662793
126202218443
723487730
137365061545
107749264229
116451195033
118524211016
134528341304
112527412519
15742485
150800722843
150852858
128813616763
119172084941
124781619314
133927231347
150230610001
112708271840
164589264435
154436161607
123600198617
6747249158
126740359106
113562416546
107585318456
3303
6566454
53607111438
114564806544
112734895687
113090765192
125816156505
112304271680
120565737534
110302358026
55494734
143684315
127647569606
1639533593
157302253483
7995256
112741503558
123985695035
137432779975
129197403394
106495677602
126406907704
117819403120
121828409159
130413850180
77194067
134791966704
108975873555
118044210593
114972015352
104066430047
104514733170
159626715511
137139622469
114085048206
125993782152
140867017535
158238139147
108070268743
124752131057
142253322221
141560666
104836769359
1107655
103492494279
171545976777
102283264110
134622843439
116746646843
113469412572
124449673808
117599640439
128068670958
68122882
120675034847
124147375968
152646228836
111448447497
108923739836
122894560206
125210044175
123712468197
14142854880
125267471585
2488711424
117844217103
119919980194
145259813592
152722674
17797863
105218672401
119965153898
108569072780
105313459235
127599489320
150868413220
40730109
139240963178
52332209336
23630428
108591054125
1096338626
158835860260
112492972993
155320307026
142455665324
129339309006
123621740300
106866491525
12233064212
148797603350
117374957450
702801
131642519241
144807529171
1857256
109517378662
156099134474
70188634117
123698447345
117562338878
103296286148
119604187595
107440858306
120843157048
6825482067
132066834531
3792124
55020081603
123630995190
134690614336
119662497874
140267553835
133353459808
114713431328
445987800
121163885707
11323097
112581599330
159683005342
113813313806
134259637261
162462463205
108987519839
152000458322
131532849033
67817101228
159641431972
63330290603
4158188
118831591720
121670638026
2486431004
125259630645
135454606558
121440530928
125893635953
14944187829
106851439311
113358476656
2013022
144157473425
108711015754
141429329540
2735104919
121190444723
52411616
1538
1455888
3969544
116458199101
136977658350
112499986827
113278951215
117578569008
135669880445
131364861254
114482431913
108518962856
114056351520
141473299750
113909008627
152197567512
131617082522
116976639683
2337
90306516
3718
144804958376
104566445695
122228272582
105428051932
55365920
7263826
104161395138
130945389020
122206706454
136030734070
110622489628
110956637545
74781724888
116246578948
158993360575
128398092163
116197392236
130480521601
109916322891
134970561584
107574530427
149898537827
123323434518
27185193981
118106588496
1537695
106023667220
122652816495
134895088234
141003804231
113193344906
86528256
429718193
128719615923
106581823840
18736812236
133928329002
110693855620
120984452530
130070433232
121584747000
115970677917
4173785451
151631007912
19710315
5011668349
147987201174
123554030635
125014365929
105586765735
124531508125
140457604260
155634377302
159620022552
121210109371
2603
122462288381
171206771623
113393151128
133736120311
154006845469
122046911871
128349197214
118744179932
135660699408
122496510656
118703412989
145156729474
43675578066
116191536722
2403548
122495218523
104595020286
133966130566
33734252
9996520
118454125715
117888204203
102676325251
106154745705
141744496644
14449458
2525869
102972945208
118585509425
125561709134
140586195836
113008893588
130962221306
2971
124986543367
151050919311
153494388401
109077536
123616045225
150979463411
114538012012
117238205681
150546089646
127567325904
116547376374
123789810902
124039972308
116840576271
13539890
52995542634
41404225817
136893833171
111144171544
128268133564
126396202636
123116422878
2588
110562892925
106926330436
148016492880
122278438536
2103090793
159624912541
120775847453
110111112551
109239218481
132762593324
45320464837
137570596888
145927068205
58075570
109096638937
87325789338
115994533233
112048213768
109967608225
144027643679
147299774390
112005578184
111063961038
122069248168
119588436593
106007065549
110703111647
117186926239
2628
157869066935
125717035231
132820642631
128001963717
125621189614
119259082886
130223174699
121736544439
119067396143
122500608060
103651452376
129389027944
132441134026
9468482710
120656065329
113946220924
137701975927
110163558895
1827076
108958864498
117331980270
120915487009
1751578837
80307057509
122089843133
148426277808
125637001109
126173178346
2425510668
4037084058
125162105782
133138395486
1920074
129889030076
110529681472
126907494842
132621288153
114704178494
121854520795
104135102961
106705756098
114605418605
111881329119
153857288580
115234585106
129105098417
491354636
729595
113502357345
9647059
104052140751
52405819374
122529025099
116099369953
122998578797
160194885996
121355163048
9689154
118598095611
96453319847
127756753496
154876778167
1261154
147851442394
113322333287
69766890
122349785236
616933733
153743967576
150212882892
112749837346
109373029695
115187421557
341739104
132176804017
117113381159
104387433825
107558590210
2690
117660128461
144018440441
126494568120
159481556101
121943650857
119748169330
134737357394
120481528222
106081268641
155623384920
136040091035
104113754099
62155220
3591231110
97085150692
7199381
120983423959
767592
579707646
191253967
494088946
122469117942
120420870562
56571066446
129069713638
120950266405
122089236459
87977731840
94316163021
73825649
449020
28675945
127288157990
139976910065
153822227077
86642368
7225492
131706940608
132981270813
128722191456
105766650807
107591198831
117421723262
116510668512
183249908
131970710631
33983645517
124433538785
26766424152
109610395943
16256660051
129508124078
117189579570
77575345162
116939598768
125763612591
120232308101
109304383156
131102977357
434724
99393903501
2201
117583841303
142216622926
108613415973
127256808217
116146163346
145464405205
137452107576
112297391111
92432703
123116998579
140847241780
118426683694
125808412732
332154
135632927765
551662
120104245217
7811232680
142032816771
129640988559
152627847880
102973690937
119794070346
132941516730
154468143052
127608665933
139256402177
106023203002
11919368
158293827381
257110752
1728
137597153975
106066907452
101707161580
134096716492
109109185764
112815811596
150731179333
155112883509
156877856915
115035488419
156765195585
118195525406
127398096447
120283286785
76793260
121145081688
146056582145
99565309662
109335228228
28772859
120272929687
119671737023
136297212226
146960099023
125787073229
129632993274
144983654552
123159329455
124528914950
116016921481
153144976813
1230571600
2923064
4553458
135167500947
111160719323
152205517918
1889544
2164738
101400999487
9181694225
2140579460
4521412
135008407407
133531660985
136768932914
129386430206
81193163713
86619500331
114579878424
105298501137
2163
108580633685
146421447061
56316829186
106414916321
122346651212
206827222
153664670438
29232546889
120459239795
70044628
107709256295
930135409
159568616631
141286944665
113685095317
144326124823
134527703125
106155697188
128339164958
131541929127
117647722845
130026534
127562464099
2538965935
45805352311
105590807522
106184046049
135430354363
129947925866
122927816114
115844725214
81160129400
132154557809
111813507465
129975578947
125612654468
99885985285
132329547054
140670390829
109453730194
2106
109174733258
125021540764
2430515
139289928892
135372500387
142921018185
144921143016
2659574
10407183526
111507828852
106272544769
154389642717
147751578781
115150909467
132198376582
117815842510
130298105986
72546169520
5881423
44066121421
124230180754
118182994808
77671338410
132388285555
50859860580
122808946191
159602445558
125509751488
116896152982
129121070903
113204611878
105651651275
115715755397
16371884435
2404795
130439029184
130881893779
3570278027
159177336632
124062581243
114799374515
124687192298
115515213081
121764003909
135174637149
159610414222
110482318729
136996298969
145482398
114158549163
4868354166
119943863154
116369362171
263750183
171568640065
131149250940
124208940912
155157129330
108979267111
115690386611
76848627
41105690525
102966425851
129308328656
130342692604
122882246282
107094666342
128672966697
124788915560
125996758898
135953010507
110140357841
105609376532
704105
1474
537729949
4860900
122154099195
141737634745
31024547
126549777847
28095101783
131170562537
118401345612
138053257474
104786405434
107626966328
124315946711
127601185076
131603926616
118643095940
116956701024
137981478779
146610860363
118046536931
160755389977
69301214483
108299397613
107497090121
64587471
117132403637
117064354782
144234622884
114234606165
126584912900
141007799371
67945371589
109314312605
121668387821
113297466754
112051075345
123913430191
114396864163
1553624
130952900501
136030248907
107389943490
114266932867
143407468210
134178077605
158629242201
146726182402
156595081386
117945714577
88368533731
82707748202
2152
129390691484
130094055103
107351825612
3528614
129855383674
163560221819
434205
110499564515
754411690
122438547489
157152422168
152536630750
625017
146351527507
132903921424
142883101262
133555117489
107449123507
130870939806
122778280836
102333229117
123778526598
131226511072
124674713393
140200737160
115932161937
123844119211
126280480283
126253290847
120632092286
158594926348
9141339911
123136667645
126975860123
28718848
1077
135351447880
7861955
106915904338
105016781217
159495955130
105889724083
155170354928
121214788684
108173373236
104552804341
129053349481
11125173
1016969
6819735430
5904419
10199836183
121757206197
121513300603
158993775384
140956728452
119034852392
116731652840
2047025
129616832714
111450016640
139815102424
9849200
119884229554
113386957578
113502668964
107477781556
154324575194
129465085558
107026194374
43464895
102023064283
118710638302
104686098561
122399565335
139308699369
211151078
129844728114
16567674
120992713063
142355031789
153552288178
158466519287
2928924780
128087409440
110493015847
146982177975
147944493172
104676440133
144753789903
3664
107154764855
146602576022
120273314383
149234892251
139471549242
153789998795
124948939727
119674656096
1292247850
1851
134820766703
105361391943
108642453141
147071620869
131829581136
106516871139
133108427353
117697476781
108446898035
13786268
18977754157
121322991671
115257738843
118510057651
236868682
140433270669
136985211489
106536436767
118376223347
152275431953
122485894884
132804579781
130950864
125399146490
142327831554
110622001142
1042430
117112155286
38410430
17946671512
111685019263
150573099283
114441449701
128141568946
418433
21760183
123638065095
140920439812
157710586634
121981083600
125698898305
120221737745
109805158117
115690411574
106011013611
154988414108
112593423977
113297142258
156301855429
126097423368
921503322
142311431759
124682870302
40841687292
108224045341
107393701027
123512567505
126357710292
123095082328
137542331498
111419126917
136791898302
123844025072
116245887940
17165800594
93581628
134617650077
123744345596
140896800089
2465364
136112040038
149373686433
12025485459
119119881160
141643897522
128921466575
129056266671
119504569613
128885331101
127023276328
133094316364
120571192030
118165107438
151146441633
113271862705
157022079159
5122
120417918773
116198633302
340821175
127093640651
126154132809
145236976816
193126813
154373381131
155098407421
119199503772
6668973619
122225945021
151659906442
114344854242
114223069611
131733593193
145061172579
28714545051
5442729757
119995497654
111070917379
127233786682
129323204161
130699082409
159640573031
128385857611
111440164729
153005925932
131000109514
159606162807
126539173399
3410713519
129028007288
158871873343
131684312853
9855332433
123875742100
158482476238
8648623324
86331133
26447238
124123656536
139442094574
157307222030
128523759857
113960101100
113158303005
140965007336
129889507947
123155278435
1417697
149887960061
129630066922
114944839892
146269414500
115872134204
127234377864
122538160027
152277439280
113402485966
114956346604
122142443594
2028313
117558672093
159222637231
150929542280
47476339263
119694351222
114739853363
128075730700
122350122216
116238415407
133405548015
498068644
104920524653
102048142765
3172
121197782402
117225078311
122887589344
385962241
148797752917
140504770885
117720279601
4678713412
2286
143507316907
150361494964
89202431517
1541
111512629927
110040680783
113239492694
133966727615
110897691379
111523474772
90425345
116883556626
125465883657
137509124357
12173773998
117041287485
117311142510
2571
109280929424
102658524031
119748808357
117279047671
123773034587
105193453636
2385
93322990826
112370660753
141826474498
59756208991
119842718368
119873133609
111306323971
124023320932
135544214329
123973014565
2442603600
130304043222
146364535777
138896550278
121959833767
2761
60143172175
152547916569
107712432073
152999051331
62932557802
123403688848
117387012752
111049999153
110873399734
154302388500
109601247091
56680037343
136203080301
124428812395
118163524262
136093685088
106772617276
124018013997
115356689737
151649067445
2660287
113958701183
116842901511
23346312
80564358015
158829526094
601862
111225098135
108302487081
4078600238
112883086089
119817692111
141061178654
498615034
121731648014
115597484176
15550005822
109280588942
159567442528
145292244814
120539199855
109820665546
114106552428
131540575765
110850592128
2506
1896005
137280916921
120086323719
159006511176
142649169624
609835
142254163017
125732279848
115754443663
154868158219
95765695137
55742796611
608744340
117690276610
2329315129
121605692954
128607204168
144518866267
107268398543
140390691092
154864586912
107037323984
110780454368
2619
105990029277
126923507267
1020041701
1704
112908963887
131732245645
114176987962
1072143789
112224709096
119217454419
1782794565
136248826230
108246642667
104147194798
2341580342
111678226374
135430611494
115633965827
5844440
139574899272
106369402602
128817853613
103263819256
156650884745
123726425372
151790857835
115696232923
128613782187
126816058831
118914475946
158837664585
117258370574
128220316118
130321322991
62616797948
129156824109
139192619085
2163596270
4165398794
119316627949
116623767
158588991440
152840441273
129600715200
157229759361
117762172094
106698756872
125928498193
127127936251
149730295523
1384032
117958434683
144747625567
105226653201
98182151677
113232795611
131559983187
154741520447
119866127860
106291878020
140340631649
117913950460
110901582801
128621521759
107294327274
113731730915
108170497158
156417427159
153889974504
109301226424
116971835
129799452412
116488268756
123947665366
340752046
113137369797
126595977426
157899132942
112681045079
155338910934
141219869720
117121370459
120113301204
108818721185
123191251211
3084652
133688230799
140336855089
8450996891
131113418850
113485398587
26368503361
108292593681
107429169555
149519038200
6777673283
155230989366
119554572306
106775932424
23518498
16315494
1444
119783099557
113043194126
115341446846
154127615222
112426838117
118919751371
2954
124887621066
152249803619
111828678106
103259598054
106046839247
118001465061
154687429341
155805125573
156404363632
120679979805
120069902416
130323077114
106681143087
15989900503
53037388288
115032855054
88815493
115041419061
132598380636
123312816323
2088
108962177572
156265764246
142004083884
122211312301
159736712392
103810224589
3084671725
118402806579
117053180753
123364082716
154300300642
128149563629
158805246712
144435347241
130271580952
140029999571
1013150
158858986820
149502030167
128724810854
127928132827
128315986109
127153554789
114839881200
2845
136716815906
112718822798
33939616
2171635864
47843837633
128326387094
827978
9765698807
131568724583
148170908229
123854572251
6535908252
301111812
47391729872
1025757
115040405182
157357930362
130649239819
120528449625
29037125107
129107845565
127489222002
133000643681
870623296
136129999792
159362801128
159677400519
137462223129
105645744077
159745702721
144716123297
133260760516
108319640281
134745879278
115457468256
110502320761
131339933406
2244533937
118992145723
1868270573
1705
117609186024
89258940578
115889883213
122214641601
109147397401
599874
643173
130849724839
107850468085
156081938571
130767314282
111884065438
124751910061
120385747357
137774749935
116491135290
126514543310
8690742170
112295317455
106930178304
60427235767
105978512618
103118301397
106253336930
152823759198
143695560187
138271021008
662584002
133573254836
7363982
14371215949
116978705083
156032674371
104762932112
124401034239
206883482
105246813876
134483917783
2578724
117794912655
5169833698
133612867595
142683900830
133648687261
297311980
132605063995
115361408918
117851984637
2965284
399612050
109773511
131631397450
159635783226
111606457621
106626343122
153040389848
226691331
130922561628
121584692133
152292826576
124583552511
135428431323
33728077194
159921457451
152936844022
159619246506
103978413296
151008466524
126799214419
114121864209
128222718964
2569547
136129151069
105813310708
110559070879
110344669474
132710321058
135685262606
126142183049
119100075695
116002697932
159406969766
144252831885
21206348
115518835375
126705286509
109595345676
157055304022
141171312563
116944929418
117993393439
135092630738
12937090
128265337541
104226604886
134956957883
123901748586
144405060021
134578291212
