119100848124
115372593325
151278357045
484758434117
279250134352
156955604804
362489826051
118368924517
276941448066
390035817227
122461635262
419162883177
247187060862
116890605757
362179744109
22857315
123605818829
128408680668
309094796936
407122185736
115459616359
169455061
160215657744
188272988589
127644787816
363336404023
115058798989
98383091584
128855592013
137192613535
114724739264
117238000642
159703773118
122719270578
781595130
187997236181
24868490984
110637875827
206389390135
123917009718
242631542785
39108647952
137312118126
179570755753
6765
127118155109
2104331042
212441146746
113783115430
122768700225
253312849529
2834860601
305007874741
149460834153
131950885636
129674037817
831073827056
1231819
510222992
149224410858
128020486818
20583197
184200378231
199176267453
121854470144
265863077
111474189551
154691066707
29485645
177530424734
207081051085
177151488173
147472595453
257126861358
119235850183
111689482930
399544532027
157442500988
154529098490
119584454839
5259882656
5760167349
147477114685
6779306383
2332362434
118374412106
248663697341
139149348329
263072010425
3393
122295527634
283875445057
260209065128
120179492874
309695646102
117049502297
122574947752
47217048275
57096090385
109161797570
123522345213
310014000231
150590327876
19730846
3432
134568460765
111172714167
109252601845
175543672951
600800939
224066255992
64963799661
10066887340
160233945320
131492238200
62751445
120729776071
1506552
26033038537
123925498750
172278751890
64041912315
126378998625
138239928483
164509765649
180600617358
52705011120
15611291
123420296001
218243847401
112893952915
213410583785
120697628506
19414410533
156097962718
2519190
8573583009
350724041055
118633401713
200879717174
273585853139
253390760
145217410120
29596282760
110099563113
123969174254
188809513022
288882610777
308239015940
372949882014
131525602168
149933926913
143529012117
3710469
116113611879
3970136353
116147786380
149237598573
112313908327
123486437574
10542790
124993415186
191046230242
117271586006
1878590600
434997500910
185178569196
342439451566
155281439380
291282736587
3494
171459979766
118843066904
181183376278
258919014668
347816502
136293066670
12187877
108647940696
179320318963
159602411218
310963782901
269089778806
241549113279
330322861929
17036623
3389605
42885570000
37295197702
146254444299
135695214353
134581599889
212251740903
364779277996
118708232358
130825861180
122814736168
180149616361
7662519468
148196659982
144963216265
167357984211
122920692383
158676428220
172022974265
115257478122
124471771257
117928221913
123331754185
111026111526
112587538958
434080069067
76672914178
119863626332
481747319935
2638621
119845372731
239127961778
447009303153
8349393008
26433131
49308524692
125492432653
594138425
969122
350983798401
10432609906
2903
41419683827
120407233464
117303505077
285768289746
117990218094
156182799216
481721068904
5356
16201860
395800295
676797405055
192704676775
150820001694
116968371939
522107043741
120913189033
119976673487
405913674708
123618840971
116974325270
231519105430
47781417276
117960835551
147707019358
121017121334
483949497427
169551798598
114521340227
121706008951
833284127297
122776352665
825541806106
1501952
363516524181
124367580272
123987125916
57096862005
318579669778
2968306276
7512626530
79874444489
26551570659
111538309582
246898359541
1380146
3287435
112512188167
135632612093
122237215418
250940813183
127066165232
427334693969
122702741622
134544878675
239140837646
119283161519
124239742781
121114913193
118244942447
170308534432
1744100119
349845164902
115267535793
64674096388
389977755965
3768
198376236152
123987557986
6456708657
160031586042
115053994642
443759995538
176109701022
55337136244
414267878407
8869716750
2824
129761216004
208303473066
118613940480
438628933911
109534670220
191450964616
40848099836
115781656160
243830588769
153172700001
304706355618
4925032274
119750120723
120423024681
162413621930
16397016074
120655329405
132117922673
5326395
211671811663
89582472354
123851767225
188259412672
147618789042
6804059
241515004
492612134
6532529
133829746854
36062802624
2901994756
20922702
119336079409
116723163564
118572510016
350968387491
216736129
11863723541
118883290836
62285134
157085792680
396185968827
130369943737
17220676444
174535565
351606657867
128967215217
123807954049
289369488120
122652864261
379063308791
3948408
149116069328
298542192808
422899370778
383946288335
21814517895
280653136524
3991
16734171479
240536286354
177351768966
114513790278
123026130458
127765284875
138933645985
132587016958
261710483060
772878969777
368393258
156048696049
62213491
116804892606
337248416832
438496411729
372299699064
117875744419
130372111760
372968808418
375814528577
98187510
115576602078
418183532975
107616207224
567689253873
116907034385
423672491099
211293101899
470999807357
3845479
191918349935
22920073209
882524
167556145903
113208853330
3472
5503287
11369721217
150792591044
452900458635
292101225815
902541
113298146949
122646292704
3608
206481426058
133908145160
157656140077
733978258
165268194841
592615234296
40484320
116497129462
348220121786
171551779225
117754402701
173615333769
69468975091
170573936
124034922290
180355611013
124142930977
126347578337
3107
253237283835
119061233740
4753223459
165704927950
122926143381
650493
118020780500
178061311582
163869187663
3226331771
402762820005
3604
27920636
119391008897
117627381028
150536970364
58151627
275506470090
114909690000
925737108828
123490382678
117856767367
155788665945
266951694527
86989412
149086037977
119541863886
357730202403
117462023236
117384467728
172368747506
365564813124
249260417996
118379489522
208838932464
119632680707
67071900945
215137334450
107012565616
125941594443
198495220471
354912433104
7265306
71394169252
258996066049
1511382
1412
150761432648
122347105129
199341458490
193518392408
188977704089
31084481807
159914934044
118295233852
886941449
486211043160
192766503909
394781521066
124177077900
116047143784
121519430828
351494582620
81277246716
130098227524
272672762179
153610508171
110327935638
124621743161
17746663637
20976630
190097249047
113133032473
205606355820
150806540104
117461358468
158850288679
124143939028
152822942027
164894574971
218698562479
121359524640
210446373659
312516056885
115836766619
100818187786
152463925968
115343457910
108572673120
172309832311
156428204983
258436293347
307279654197
117202934769
163351070489
323682862254
389641569171
116661892186
249069830323
3083
114174716005
123655547264
195186949716
123816870934
112125142005
249102351865
183191840570
112707593375
3333519
209152037914
117190808195
150803898929
214796047879
419815877316
139853587688
180626666693
215892501850
116292748642
49339365794
262666596683
294938321747
191802863975
157991886879
170071175691
274952149015
118844790321
190207242590
148721376043
183667505400
134653434994
114123150905
498627568
114254628960
198868722062
328068487460
300770127309
389676361
116405073686
6915047296
149020865024
252858856535
114804327647
167707114186
328360832078
43231625
132013812221
10444036
165727969238
251833723
129434432548
149595136738
3029
293098854757
116830158554
251686315317
458854344785
122390336636
2710
158749465599
204857635225
281107828247
12086515378
2677994
117625328220
153489100469
268902677926
362988539216
82504260181
7442076545
709203691421
66826735
180459592098
2395800764
215273914281
123201481008
162112044473
202746464794
132159057860
8161368637
153500096697
120291265913
201734847283
156215716546
222413541196
187448717289
247308454629
317647801891
146387763588
77979901527
171929946433
117682856264
122083167917
851739831211
32562504
6180884444
122144689776
117934551866
3381
132895349433
125776003603
539884667607
142200191821
210132102844
316533310038
154463547488
84767367535
43646880081
181824634619
115239573416
136759130189
121479073600
120469339240
147726968133
445806943
146735562414
154831272415
123695469875
480277981741
182700868875
157970689
227233836235
137573063439
176334766220
264775653507
3983155
105746836859
311451818351
15237238362
252637437140
119426233128
393116573183
1469270736
3444573
134960963562
1785149829
281005168369
135871410000
333101289253
116009389932
176482223925
117228484851
24351440
117428728903
118111439626
11970238
30415338
115186810592
276472030081
19682326114
144848454328
12606280659
203204224081
173978238259
111996781206
68662010
123412645382
122275724610
41872441411
4472391
8689858113
322458408370
161948094418
121835594774
118462654488
217894543275
119267336261
205356359867
244453579720
114923268824
21405226
3939476961
118714404636
123624384271
117622261129
117524912813
224632996026
142521674813
170995091922
9587405823
23916804069
116907323486
112433368861
124278211840
55786512982
120053227529
10845633889
171628706595
141662794175
3454145
116320138838
334223226808
119798150174
153994897778
1396798968
136620014849
196694084172
783075
112288835498
115680511767
126822920917
379905459182
147248063602
165783829175
123625739343
167721756674
525407885920
187595269841
115791389977
123043687357
124739210886
120715552657
414173118711
400771324840
120480384170
205887581809
266134013034
126176696
318121347929
122957746331
151186379731
122626558702
121595759742
120853550584
110320622495
34869218
120480617156
1369055092
124026318671
62128872757
203438400667
112455854222
4162
27489820
376211192073
417362152177
122849022896
401600284517
4421
2087630804
76335856887
329648347455
376502147546
119834319815
127863795615
154487723
114150438493
116887861237
190679855543
29386233346
123762733168
148646480649
465258876938
36760698780
310141351180
126343610100
116352537503
346107350416
131381176235
124050931916
153479967857
153847240801
181565593799
141303158548
153600340549
62213672767
2630
187396656773
153659709576
6625778969
1352132917
331388600716
12801537
1595
124057037628
121154668788
145690880888
113372507063
124316069018
119866246005
118377372695
157748538317
27592486
118964861356
152331437512
169517198175
208681101539
128998796234
68655585231
172092516426
176961679008
122865928241
173773347270
256873682357
352270239035
113407141284
28714159
1801
118959604918
134697756555
120171031870
240072003701
119072153801
120761456412
199642817247
62313580285
106880826831
116248225652
1126201
209638858164
185554975170
164541010160
123657090391
406916275686
119692832986
149948631307
119699757777
207898771925
169124058609
121430942238
122326806912
117368845209
188491449530
149788426162
3445033
123412313476
2766
245418627398
41620023
179207839843
280465258577
4071
283218438271
497261456004
3185
122467119744
133315943415
124347391751
142644182286
121720311924
121625092877
115688029443
152578796166
1646546080
84485661933
2693
233657131448
333070872387
128180907712
225796694280
152974443461
122173946161
83592968433
514963638
120453984355
12944150781
4521955955
111827919263
77188627691
117667321196
445820042858
115870160661
198993805495
116271183212
111560805810
9335183784
118123520703
161760131056
119075009610
433170743887
15145917
411668611307
116157258067
278685065548
187483578314
209633755577
128118462643
227962398209
491650898
731646527
122014792731
425121373588
122038212349
3819487771
29853939
3221701335
114502732893
2996
123590966198
3134
151864695239
7538013218
121639506998
161196832027
151222227539
245070986682
183902278932
135329453617
120825898915
162936430379
122322564587
122593349684
236000988520
86570860
326423554128
108659638315
117773477031
134528215624
117726874957
470077561847
122999692566
116460877001
2430645509
2634
140298690191
204189311258
9602685
44393752
129452948645
152762318243
121288082120
233531439853
122704882421
3537183
3941000390
291746549945
217202901839
141134812381
160972871237
123021190270
118253144303
251265404594
113409623267
55892942385
207846035068
124447379910
582993007227
144737596246
357680385319
32985398
278126977603
119302219743
386584855157
337575169930
152899184607
173228218127
266705325279
30795542888
262847398
194605101930
128654313951
123998013547
796236633
143149526228
389638848861
129847361
98273253548
3737072562
290120472899
194940075885
124859936245
380534796778
114780110081
4471384
124048632502
116475676702
151820175638
136042693884
119596911279
208596494651
3813
124035066491
117771787410
122844778967
122530487810
76720182449
209436405095
162732405087
116569377773
133384574235
11354182
122650798079
117492949182
10240205
120521980983
113199661020
114528198666
213752763204
6950059537
4032600032
272011316025
446951371902
144246910467
59572524
118798485075
65715328
93388541766
112297662673
116588034234
168582479414
124344035241
313208945812
151141060640
229381851852
312928814866
10781157
23701572688
200391659593
196075311320
96695293291
121852890962
137748021742
111818857535
183915683244
173342929727
114647218873
434159755001
483713779043
299817465546
63584842013
152878611464
4255828829
58390218572
218313249200
341323853525
944123041
225645346138
220306922006
165309578036
393483309415
497905043726
116577088116
215404154111
2593796930
254198620859
169036943495
121352326204
352219387465
638622146821
114825357679
461192461080
238757925285
129165115118
384048662895
129331426140
9358445907
187203177187
124055213879
113184610678
120652775382
125616609837
121382106629
384292713156
127025053821
344971490711
111270750297
3578699622
219844350177
140428556604
146971065440
123073811108
59090424
303372539048
10306833917
158813029250
122470227145
1764231711
115772025289
