763406.000000us| 12 20 22 28 35 36 37 39 |6 |
697758.000000us| 0 5 7 9 16 22 23 31 36 37 40 44 |15 |
519441.000000us| 0 1 2 3 4 5 6 10 11 13 14 15 16 17 18 20 21 23 24 25 26 28 29 32 33 35 36 39 40 42 44 45 |37 |
481369.000000us| 1 2 3 5 8 12 15 18 19 23 24 25 27 29 31 35 41 42 44 45 |32 |
521931.000000us| 0 1 2 3 4 5 7 9 10 13 15 17 19 20 21 24 27 28 30 33 35 36 40 41 44 45 |31 |
0.000000us| |45 |
711658.000000us| 6 7 20 24 26 28 31 32 33 34 38 42 43 |21 |
550833.000000us| 1 2 5 6 7 8 9 11 12 14 18 19 20 22 23 24 25 26 27 30 32 35 36 37 38 40 42 43 44 |31 |
755283.000000us| 3 6 8 11 13 16 17 19 21 23 27 28 32 33 34 35 38 40 41 42 43 |15 |
648210.000000us| 2 3 10 14 19 26 27 28 30 39 |13 |
519216.000000us| 0 1 3 5 6 7 8 10 14 15 16 19 25 26 30 33 35 41 43 44 45 |9 |
588156.000000us| 0 2 4 8 9 11 12 15 17 18 21 23 25 26 29 30 32 35 37 39 40 42 43 44 45 |28 |
717424.000000us| 0 2 9 10 14 16 18 19 22 23 24 27 28 32 33 35 36 38 40 44 |20 |
736193.000000us| 0 1 2 3 4 5 6 7 8 9 10 12 13 15 16 17 18 19 20 21 22 23 24 25 26 27 28 29 30 32 33 34 35 36 38 39 40 41 42 43 44 45 |14 |
599421.000000us| 1 2 3 8 24 25 26 28 30 31 32 34 36 37 39 42 45 |11 |
119.000000us| 36 |24 |
721552.000000us| 0 1 3 5 6 7 8 9 11 12 13 14 15 16 17 18 19 20 21 22 23 24 25 26 27 28 29 30 31 32 33 35 37 39 40 41 42 43 45 |36 |
765187.000000us| 0 1 2 3 4 6 7 8 9 10 11 12 13 14 15 16 17 18 19 20 21 22 23 24 25 26 27 28 29 30 31 32 33 34 35 36 37 38 39 40 41 42 43 44 45 |5 |
717348.000000us| 0 1 2 5 6 7 8 9 10 11 12 13 14 15 16 17 18 19 20 21 22 23 24 25 26 27 29 30 31 32 33 34 35 36 37 38 39 40 41 42 43 44 45 |4 |
721415.000000us| 0 1 2 3 4 5 6 7 8 9 10 11 12 13 14 15 16 18 19 21 22 23 24 25 26 27 28 29 30 31 32 33 34 35 36 37 38 39 40 41 42 43 44 45 |17 |
986952.000000us| 2 5 7 9 15 19 26 29 |30 |
707149.000000us| 2 3 6 7 8 12 18 19 20 22 24 29 34 35 37 38 39 42 44 45 |4 |
104.000000us| 40 |43 |
4028453.000000us| 8 16 19 26 27 30 35 |18 |
705693.000000us| 0 1 2 3 4 5 6 7 8 9 10 11 12 14 15 16 17 19 20 22 23 24 25 26 28 30 31 32 33 34 35 36 37 38 39 40 41 43 44 45 |29 |
615871.000000us| 0 2 3 7 9 10 11 12 15 16 18 20 21 22 25 27 28 30 31 33 34 35 36 38 39 44 45 |17 |
29124.000000us| 21 23 35 37 |33 |
548655.000000us| 0 1 3 4 5 6 7 10 11 12 15 16 17 18 19 20 21 23 26 28 29 31 32 33 34 35 36 38 39 42 43 45 |37 |
762737.000000us| 0 1 2 3 4 6 7 8 9 10 11 12 13 14 15 16 17 18 19 20 21 22 23 25 26 27 28 29 30 31 32 33 34 35 37 38 39 40 41 42 43 44 45 |36 |
76.000000us| 6 |9 |
567895.000000us| 0 1 3 4 5 6 7 8 9 10 12 13 14 15 16 17 18 20 22 23 24 25 26 27 28 29 30 31 35 36 37 38 40 41 42 43 45 |39 |
734415.000000us| 0 1 3 4 5 7 8 9 10 11 12 13 14 15 16 17 18 19 20 21 22 23 24 25 26 27 28 29 30 31 32 34 36 37 38 39 40 41 42 43 44 45 |2 |
682674.000000us| 0 1 2 4 5 6 7 8 10 11 12 13 14 15 17 18 19 21 22 23 24 25 26 28 29 30 33 35 36 38 39 40 41 44 45 |27 |
858572.000000us| 12 17 19 25 34 37 42 45 |33 |
352565.000000us| 1 3 7 29 39 45 |14 |
571156.000000us| 0 6 11 14 16 18 19 20 21 24 28 30 31 33 35 38 39 40 41 42 43 |15 |
609343.000000us| 0 1 8 11 12 13 15 16 18 20 21 23 27 28 29 30 31 32 35 36 37 39 40 41 42 45 |43 |
706326.000000us| 0 1 11 12 13 17 18 21 22 26 27 28 29 35 36 37 38 40 45 |25 |
654481.000000us| 0 1 2 3 7 10 12 13 14 15 17 20 21 22 23 24 26 27 28 29 30 31 33 34 35 36 37 38 39 45 |8 |
600187.000000us| 0 1 2 4 5 6 7 8 9 10 12 13 14 15 16 17 18 19 20 22 23 24 25 26 27 28 29 31 32 33 34 35 36 37 38 39 40 42 43 44 45 |21 |
764894.000000us| 0 1 2 3 4 5 6 7 8 9 10 11 12 14 15 16 17 18 19 20 21 22 23 24 25 26 27 28 29 30 31 32 34 35 36 37 38 39 40 41 42 43 44 45 |33 |
642986.000000us| 0 1 2 3 5 6 8 9 10 11 12 13 14 15 16 17 18 20 22 23 24 25 27 30 31 32 33 34 35 37 39 40 41 42 43 44 |19 |
544700.000000us| 0 1 6 8 9 15 17 19 22 23 24 25 29 30 31 32 33 34 37 39 42 44 |4 |
633147.000000us| 1 2 4 5 6 10 11 12 13 14 17 18 20 21 22 23 24 26 28 29 30 31 33 35 36 37 38 39 41 43 45 |19 |
683594.000000us| 1 4 8 9 10 19 20 23 25 26 28 29 32 33 34 37 39 41 42 |16 |
694030.000000us| 4 5 7 8 10 13 14 15 16 18 21 22 25 26 28 29 30 31 33 34 37 38 40 41 |9 |
578391.000000us| 1 4 8 11 16 17 20 22 25 26 28 30 31 34 |29 |
561290.000000us| 0 1 4 5 7 8 9 10 11 12 13 17 20 22 23 25 26 27 28 31 33 34 35 36 37 38 39 40 41 42 43 44 45 |18 |
3539.000000us| 9 13 41 |40 |
747451.000000us| 0 1 4 5 6 7 10 11 13 16 17 18 19 22 25 26 27 28 30 31 32 33 34 35 36 37 40 44 |42 |
609594.000000us| 2 4 8 14 15 22 25 26 29 30 32 34 39 |23 |
751155.000000us| 0 1 2 3 4 5 6 7 8 10 11 12 13 14 16 17 18 19 20 21 22 23 25 27 28 29 31 33 34 35 36 37 39 40 41 42 43 44 45 |9 |
613125.000000us| 0 1 2 4 5 6 7 9 10 12 13 15 17 18 20 21 22 23 24 25 26 27 29 30 33 34 36 38 41 42 43 44 45 |11 |
718094.000000us| 0 1 2 3 4 6 7 8 10 11 12 13 14 15 16 17 19 21 22 23 24 25 26 28 29 30 31 32 33 34 36 38 39 40 41 42 44 45 |27 |
3004547.000000us| 1 2 13 29 36 38 41 |18 |
644.000000us| 20 40 |0 |
694568.000000us| 0 1 2 3 4 5 6 7 8 10 11 15 16 17 18 20 21 22 23 25 26 27 28 29 30 31 32 34 37 38 39 40 41 42 43 45 |19 |
346098.000000us| 4 7 11 16 20 21 |27 |
682152.000000us| 4 6 9 12 13 14 22 23 25 33 |43 |
703099.000000us| 0 4 7 13 14 17 19 26 34 37 39 40 |25 |
558528.000000us| 0 1 3 4 6 18 20 21 22 23 24 26 29 30 31 34 35 36 38 41 42 |44 |
675530.000000us| 2 4 9 10 11 19 24 31 32 35 41 43 44 |15 |
580022.000000us| 0 1 6 9 11 21 23 26 28 30 34 37 38 39 41 |35 |
0.000000us| |8 |
719608.000000us| 0 1 2 3 4 5 7 8 9 12 13 14 15 16 17 18 19 20 21 22 23 24 25 26 27 28 29 30 31 32 34 35 36 37 38 39 40 41 43 44 45 |33 |
596641.000000us| 0 1 3 4 5 6 7 8 9 12 15 16 17 20 21 22 23 24 25 26 28 30 31 32 33 35 36 37 38 39 40 41 42 44 45 |11 |
683664.000000us| 0 1 3 4 5 6 7 8 9 11 14 16 17 18 20 21 22 23 25 26 27 28 29 30 33 34 36 38 39 40 41 42 44 |24 |
791235.000000us| 0 2 3 4 5 6 7 8 9 10 11 12 13 15 16 17 18 19 20 22 23 24 26 27 28 29 30 31 32 33 34 35 36 37 38 41 42 43 44 45 |1 |
465130.000000us| 0 1 2 4 5 7 8 9 12 14 15 16 18 21 24 26 28 29 32 34 35 36 37 38 39 40 41 42 45 |43 |
1032.000000us| 18 |6 |
661820.000000us| 0 3 4 6 7 8 9 12 14 15 16 17 18 19 20 21 23 24 25 26 27 28 29 31 34 35 36 37 38 42 |30 |
737401.000000us| 0 1 2 3 4 5 6 8 10 11 12 13 14 15 16 17 18 19 20 21 22 24 25 26 27 28 29 30 31 35 36 38 39 41 43 44 45 |7 |
603521.000000us| 1 2 3 4 5 6 7 9 10 11 12 13 16 17 18 20 22 25 26 27 29 31 32 33 34 35 37 39 42 44 |15 |
0.000000us| |12 |
1257977.000000us| 1 7 9 10 11 12 13 17 21 24 30 42 |0 |
833077.000000us| 13 19 21 22 23 24 25 44 |34 |
27960.000000us| 4 15 17 36 |33 |
604048.000000us| 0 1 2 3 4 5 7 9 10 11 12 16 17 18 19 21 22 23 25 26 28 30 32 33 34 36 37 38 39 40 41 |44 |
755599.000000us| 0 2 3 4 5 6 8 9 10 12 13 19 27 28 30 31 33 34 35 38 39 40 42 43 44 45 |17 |
737227.000000us| 1 2 3 4 5 6 7 8 9 11 12 13 14 15 16 17 18 19 20 21 22 23 26 27 28 29 30 32 33 35 37 38 39 41 43 44 45 |42 |
622998.000000us| 1 2 3 4 6 7 10 12 13 15 16 17 18 19 23 24 26 27 29 30 32 33 34 35 37 38 39 40 41 42 |5 |
668900.000000us| 0 1 2 3 4 5 6 7 10 11 13 14 16 17 18 19 20 22 23 24 25 26 27 28 29 30 31 32 33 34 35 36 37 39 40 41 42 43 45 |44 |
783413.000000us| 1 2 3 5 6 7 8 9 11 12 14 15 17 19 20 21 22 24 25 26 27 30 31 32 33 34 35 36 37 38 40 41 42 43 44 |39 |
756692.000000us| 0 1 2 3 4 5 6 7 8 9 11 13 15 16 17 18 19 20 21 22 23 24 26 27 28 29 30 31 32 33 34 35 36 37 38 39 40 42 43 44 45 |14 |
626946.000000us| 0 4 7 8 9 10 11 14 15 16 18 21 22 25 27 28 32 33 34 35 38 39 42 43 44 45 |19 |
1731134.000000us| 6 10 13 22 25 27 29 32 33 35 |18 |
649374.000000us| 0 3 4 5 7 8 10 12 13 14 17 18 20 25 28 29 30 31 34 35 36 37 38 41 45 |40 |
2968.000000us| 15 21 39 |16 |
662081.000000us| 3 6 10 14 15 17 19 21 28 29 30 32 35 36 40 41 43 44 45 |39 |
754291.000000us| 3 9 10 11 14 15 18 24 25 27 28 36 40 42 |38 |
765371.000000us| 0 2 3 4 5 6 7 8 9 11 12 13 14 15 16 17 18 19 20 21 22 23 24 25 27 28 29 30 31 32 33 34 35 37 38 39 40 41 42 43 44 45 |10 |
809461.000000us| 16 22 23 25 26 27 36 |45 |
424.000000us| 15 32 |1 |
676765.000000us| 2 9 10 12 13 15 16 21 23 24 25 26 28 30 32 33 34 36 37 38 39 40 43 44 45 |41 |
1861.000000us| 21 36 42 |17 |
697001.000000us| 0 1 2 3 4 5 6 7 8 9 12 13 14 16 17 18 19 20 21 22 23 24 27 29 30 33 36 38 39 41 42 45 |28 |
246665.000000us| 4 12 14 21 28 33 |43 |
383462.000000us| 5 11 16 30 32 39 |21 |
870958.000000us| 1 6 9 10 13 16 17 27 28 38 42 43 |34 |
731685.000000us| 0 1 2 3 4 5 6 8 9 10 12 13 14 15 16 17 18 19 20 21 22 23 24 26 27 29 30 31 32 33 34 35 36 37 38 39 40 41 42 43 44 45 |28 |
1261578.000000us| 10 14 15 20 29 31 34 |44 |
675564.000000us| 0 2 3 5 7 10 13 15 16 17 19 21 22 24 25 28 30 31 32 33 34 36 38 40 42 44 45 |23 |
1150070.000000us| 4 14 19 21 24 37 43 45 |23 |
676634.000000us| 1 4 6 7 12 15 17 18 20 21 25 27 28 31 34 35 36 39 42 43 44 |45 |
646111.000000us| 2 3 4 5 6 7 8 9 13 14 17 28 32 37 40 45 |24 |
464338.000000us| 0 1 2 4 5 6 9 10 11 12 13 14 15 19 20 23 24 25 26 27 28 29 30 31 32 33 34 35 36 37 38 39 40 41 43 45 |17 |
775782.000000us| 2 8 12 19 31 33 35 38 |37 |
672805.000000us| 0 1 2 3 4 6 7 8 9 10 11 12 13 14 15 17 18 19 20 21 23 24 25 26 27 28 29 30 31 32 33 34 35 36 37 38 39 40 41 43 44 45 |5 |
2238396.000000us| 1 12 15 18 22 23 27 40 43 |28 |
748218.000000us| 0 1 2 3 4 6 7 8 9 10 11 12 13 15 16 17 18 20 21 22 23 24 25 26 27 28 29 30 31 32 33 34 35 36 38 40 41 42 43 44 45 |37 |
628449.000000us| 0 2 4 5 6 7 8 10 13 15 17 19 20 25 29 38 40 43 44 |35 |
940613.000000us| 0 3 5 7 13 15 28 31 34 35 36 43 44 |18 |
579788.000000us| 1 2 3 4 5 7 11 12 19 20 22 26 28 29 32 33 34 35 41 43 45 |27 |
576155.000000us| 1 5 6 8 10 12 14 16 18 20 21 22 23 25 28 29 30 32 35 36 37 38 40 41 42 |27 |
783548.000000us| 0 1 2 3 4 5 6 7 8 9 10 11 12 13 14 15 16 18 19 20 21 22 23 24 25 26 27 28 29 30 31 32 33 34 35 36 37 38 40 41 42 43 44 45 |17 |
1227903.000000us| 4 7 13 18 19 20 22 26 27 32 |3 |
290.000000us| 17 43 |36 |
586627.000000us| 0 1 4 5 6 7 8 9 11 14 17 18 19 20 21 27 29 30 31 32 35 37 38 39 40 41 44 |26 |
592466.000000us| 0 2 5 6 9 15 17 18 20 21 23 26 28 30 32 37 38 39 43 44 |36 |
735541.000000us| 3 7 8 9 13 15 17 18 20 21 22 25 29 34 37 42 43 |39 |
567146.000000us| 1 2 3 4 5 7 8 9 10 12 13 14 15 16 17 18 21 22 23 25 29 31 32 35 36 37 38 39 40 42 45 |33 |
686356.000000us| 6 9 12 14 17 24 26 28 29 30 32 34 35 42 43 |39 |
662770.000000us| 0 4 10 15 16 22 23 32 33 40 41 45 |7 |
574148.000000us| 1 4 8 9 18 23 24 27 29 35 37 39 |28 |
4669.000000us| 16 19 30 |38 |
695127.000000us| 2 7 10 17 18 19 20 25 29 36 38 39 43 |28 |
826024.000000us| 2 3 4 15 17 18 27 33 39 45 |29 |
689680.000000us| 1 13 16 23 28 31 33 38 44 45 |10 |
718635.000000us| 1 2 3 4 5 6 7 8 10 11 12 13 14 15 16 17 19 21 22 24 25 26 27 28 29 30 31 32 33 34 35 38 39 40 41 42 44 45 |37 |
683166.000000us| 0 1 2 3 4 5 6 7 8 9 10 11 12 13 14 15 16 17 18 20 21 22 23 25 26 27 28 29 30 31 32 33 34 35 36 37 38 39 40 41 42 43 45 |44 |
660362.000000us| 0 1 2 3 9 11 12 13 16 18 19 21 22 23 24 25 26 27 28 32 33 36 37 38 41 42 43 44 45 |34 |
850561.000000us| 3 4 5 13 14 18 19 21 22 23 36 39 40 45 |28 |
1363267.000000us| 2 5 7 11 18 20 37 40 41 45 |17 |
700240.000000us| 0 1 2 5 6 7 10 11 14 15 17 18 19 20 21 22 23 24 25 26 28 29 30 31 32 33 34 35 36 37 40 41 42 43 44 45 |13 |
672098.000000us| 0 1 2 4 6 7 11 14 15 17 18 19 21 22 23 25 26 28 29 30 31 32 33 35 36 37 38 41 43 44 45 |8 |
449027.000000us| 1 2 3 5 6 9 14 15 18 20 21 23 25 27 28 30 31 33 36 38 40 41 42 43 45 |16 |
644182.000000us| 1 2 9 15 26 29 30 31 32 34 37 42 44 |38 |
544729.000000us| 1 2 3 4 5 6 7 13 15 16 19 20 24 25 26 28 29 30 31 32 34 35 37 38 39 43 |33 |
806078.000000us| 2 4 9 11 13 15 17 21 22 24 40 44 |6 |
676702.000000us| 1 2 3 5 6 7 9 10 12 14 15 19 20 21 22 23 25 26 27 28 29 32 33 36 38 40 41 42 44 |43 |
751707.000000us| 1 3 4 5 6 8 10 12 14 15 16 18 21 22 26 34 36 37 39 40 |7 |
979671.000000us| 2 3 14 15 16 18 19 25 33 36 42 |17 |
769909.000000us| 0 3 8 16 20 21 22 25 41 |34 |
834508.000000us| 5 7 9 10 23 34 38 40 42 |29 |
691740.000000us| 2 3 4 7 8 9 11 12 14 15 16 17 18 19 20 24 27 28 29 31 32 33 34 36 37 38 40 42 43 44 |26 |
653101.000000us| 0 1 3 4 5 6 9 11 12 13 14 17 18 20 21 22 23 24 25 27 28 29 31 32 33 34 35 37 40 41 42 43 44 |8 |
625616.000000us| 0 1 3 4 5 6 9 10 11 13 14 16 18 21 23 24 25 26 28 29 31 32 33 34 35 38 39 41 |2 |
628280.000000us| 0 2 3 4 6 7 8 9 12 14 15 16 17 23 24 26 27 28 29 30 31 32 34 36 37 39 40 42 44 45 |33 |
895480.000000us| 4 12 21 22 28 33 36 42 43 44 |26 |
890431.000000us| 10 13 17 20 24 25 29 30 41 |39 |
692286.000000us| 0 3 5 6 8 9 10 11 14 15 16 17 20 21 22 24 25 26 27 28 29 30 31 32 33 34 35 36 37 39 40 41 42 43 44 45 |23 |
613561.000000us| 3 4 5 9 11 12 14 15 16 17 18 19 21 22 24 25 26 27 28 30 32 33 35 37 38 40 41 42 43 |20 |
630687.000000us| 0 5 6 7 8 9 10 11 16 17 19 20 22 23 24 26 28 31 32 35 40 44 45 |1 |
700781.000000us| 0 1 2 3 5 6 7 8 9 10 11 12 14 15 16 17 18 19 20 21 22 24 25 26 27 28 30 31 34 35 36 41 42 43 45 |32 |
708160.000000us| 1 3 4 6 7 8 9 10 11 12 13 16 17 18 19 20 21 22 24 26 27 28 29 31 33 34 36 37 38 39 43 44 |30 |
395333.000000us| 10 13 26 38 40 41 42 |28 |
572239.000000us| 0 1 2 3 4 7 9 11 12 13 14 15 16 18 19 21 24 25 26 29 30 31 32 33 35 39 41 42 43 44 45 |20 |
626804.000000us| 1 3 4 6 7 9 11 12 15 25 26 27 28 29 31 32 33 34 38 40 41 42 44 |0 |
569510.000000us| 1 4 8 9 10 11 20 21 24 26 27 29 32 34 36 37 39 40 41 43 44 45 |35 |
727790.000000us| 0 1 2 3 4 5 6 7 8 9 10 11 12 13 14 15 16 17 18 19 21 22 23 24 25 26 28 29 30 31 32 33 34 35 36 37 38 39 40 41 42 43 44 45 |20 |
748590.000000us| 0 3 4 8 10 11 12 13 15 18 20 21 22 23 24 25 26 27 28 29 30 31 32 33 36 37 38 39 40 41 44 45 |6 |
609064.000000us| 5 13 15 16 19 22 26 29 30 43 45 |2 |
947.000000us| 11 17 20 |26 |
203375.000000us| 2 10 11 12 13 23 37 |40 |
161.000000us| 44 |8 |
746445.000000us| 0 1 2 3 4 5 6 7 8 9 10 11 12 13 14 15 16 17 18 20 21 22 23 24 25 26 27 28 29 30 31 33 34 35 36 37 38 39 40 41 42 43 44 45 |19 |
673022.000000us| 0 1 2 3 4 5 6 7 10 11 12 13 14 15 16 17 19 21 22 23 25 27 28 29 30 32 33 34 36 37 38 40 41 45 |31 |
588207.000000us| 5 7 12 19 20 24 27 28 29 31 39 40 45 |14 |
710786.000000us| 1 2 3 4 6 7 8 9 13 14 16 17 18 19 20 21 22 24 26 27 28 32 33 34 38 41 42 43 45 |35 |
643512.000000us| 1 5 7 8 10 12 13 17 19 20 21 22 23 24 25 26 30 31 34 37 38 40 45 |4 |
662279.000000us| 1 2 3 4 5 6 7 8 9 10 15 16 17 18 20 21 22 23 24 26 27 28 32 34 35 37 38 39 41 42 44 |19 |
963360.000000us| 4 6 7 9 17 19 21 30 |39 |
755874.000000us| 0 1 2 3 4 5 6 7 8 9 10 11 12 13 14 15 16 17 19 20 21 22 23 24 25 27 28 29 30 31 32 33 34 35 36 37 38 39 40 42 43 44 45 |26 |
625066.000000us| 1 2 3 4 6 7 8 10 14 15 17 19 21 24 25 26 27 28 29 30 31 32 33 34 35 36 37 39 41 42 44 |18 |
683692.000000us| 6 15 17 18 23 25 28 29 33 34 37 41 |19 |
665140.000000us| 0 1 2 7 8 9 13 14 17 18 19 24 25 26 31 33 35 36 38 42 45 |32 |
184.000000us| 21 |44 |
510651.000000us| 1 2 3 5 8 11 12 14 15 16 17 18 21 23 24 25 26 27 30 34 35 36 38 39 40 41 42 43 45 |28 |
176838.000000us| 2 5 15 24 25 31 |1 |
684048.000000us| 0 1 12 14 15 17 18 22 24 25 27 29 30 32 33 41 44 45 |20 |
764018.000000us| 0 1 2 3 4 5 6 8 9 10 11 12 13 14 15 16 17 18 19 20 21 22 23 24 25 26 27 28 29 30 31 32 33 34 35 36 37 38 39 40 41 42 43 44 45 |7 |
633439.000000us| 0 1 2 3 4 5 6 7 8 9 10 11 12 13 14 15 16 17 18 19 20 21 23 24 25 26 27 28 29 30 31 33 34 35 36 37 38 39 40 41 43 45 |22 |
581834.000000us| 0 1 3 4 5 6 9 10 11 14 15 16 17 19 21 22 23 24 27 30 31 32 35 37 38 39 41 42 43 45 |12 |
623329.000000us| 1 4 9 12 17 18 19 20 21 22 23 24 26 29 31 32 33 34 35 39 40 41 42 43 |10 |
764541.000000us| 0 1 2 3 4 6 7 8 9 10 11 12 13 14 15 16 17 18 19 20 21 22 23 24 25 26 27 29 30 31 32 34 35 36 37 38 39 40 41 42 43 44 45 |28 |
688022.000000us| 0 3 4 6 9 10 11 12 13 15 18 19 20 22 26 27 28 29 31 32 33 34 36 37 38 40 41 43 |45 |
691321.000000us| 0 3 5 6 8 10 12 13 14 17 18 19 21 24 25 26 29 30 32 34 35 42 43 44 45 |39 |
766716.000000us| 0 3 5 6 7 8 10 13 15 16 18 19 28 30 31 32 33 34 36 38 39 42 43 44 |20 |
712730.000000us| 3 6 8 14 15 16 31 35 42 44 |37 |
764016.000000us| 0 1 2 3 4 5 6 8 9 10 11 12 13 14 15 16 17 18 19 20 21 22 23 24 25 26 27 28 29 30 31 32 33 34 35 36 37 38 39 40 41 42 43 44 45 |7 |
668877.000000us| 0 2 3 4 5 6 9 10 14 15 19 20 21 22 24 25 26 27 29 32 33 36 37 41 42 43 44 |38 |
587584.000000us| 1 3 6 7 15 29 30 39 40 42 43 44 45 |23 |
492200.000000us| 1 5 7 8 9 11 12 14 15 18 21 22 23 24 25 26 27 28 32 35 36 37 38 39 41 43 45 |2 |
620413.000000us| 0 1 2 4 5 6 7 8 9 11 12 13 14 16 17 18 19 20 23 24 25 26 27 28 29 30 31 32 33 34 37 38 39 40 41 42 43 44 45 |35 |
679068.000000us| 1 2 3 5 7 10 11 12 13 15 16 17 18 19 20 22 23 24 26 27 28 29 32 33 40 41 43 44 45 |36 |
924232.000000us| 2 8 10 12 13 14 19 20 23 25 26 28 33 35 41 42 |34 |
0.000000us| |45 |
765145.000000us| 9 13 20 26 32 35 39 43 44 |16 |
728614.000000us| 0 1 2 5 7 11 13 23 33 34 38 39 41 43 |32 |
805439.000000us| 0 5 12 13 18 20 23 27 28 31 34 35 37 38 41 45 |17 |
762.000000us| 19 45 |30 |
1103323.000000us| 2 3 9 12 22 23 27 40 42 45 |24 |
755936.000000us| 1 3 4 6 7 8 10 11 13 16 17 21 22 23 27 28 29 31 35 36 38 40 43 44 |19 |
706340.000000us| 0 1 2 3 4 6 7 8 9 11 12 13 14 15 16 17 18 19 20 21 22 23 24 27 28 29 30 31 32 33 34 35 36 37 39 40 41 42 43 |5 |
237410.000000us| 2 8 10 27 30 38 43 |0 |
747604.000000us| 3 4 7 9 11 12 15 24 27 38 40 43 45 |0 |
675538.000000us| 1 3 4 7 8 9 10 11 12 13 14 15 16 17 18 19 21 22 23 24 25 26 27 28 30 31 32 33 35 36 37 38 39 40 41 42 43 44 45 |0 |
712599.000000us| 0 1 2 3 4 5 6 7 8 9 10 11 12 13 14 15 16 17 18 19 20 21 22 23 24 25 26 27 28 29 30 31 32 33 34 35 37 38 39 40 41 42 43 45 |44 |
561852.000000us| 0 1 2 3 4 6 7 8 9 10 11 12 13 14 15 16 17 18 20 23 24 25 26 27 28 29 30 31 32 34 36 37 38 39 40 41 42 45 |5 |
68.000000us| 38 |24 |
806105.000000us| 0 1 4 9 12 13 16 17 18 19 27 29 31 40 41 |3 |
1523.000000us| 7 14 37 |43 |
680281.000000us| 0 1 3 4 5 6 7 8 9 10 11 12 13 14 15 16 18 19 20 21 22 23 24 25 26 27 29 31 32 34 35 36 37 38 39 40 42 43 44 45 |2 |
584151.000000us| 0 1 3 4 5 6 7 8 9 10 11 12 13 14 15 18 19 20 22 24 25 26 27 28 29 30 31 32 33 34 35 37 38 39 40 41 42 45 |44 |
1315662.000000us| 5 17 18 22 24 28 29 38 40 42 44 |14 |
620882.000000us| 1 3 4 5 7 9 10 11 12 13 15 16 25 26 27 28 29 32 33 35 37 38 40 42 43 44 45 |17 |
16425.000000us| 21 27 34 38 |45 |
739029.000000us| 0 2 3 4 5 7 8 10 11 12 15 17 18 19 20 21 22 25 26 27 28 29 30 32 34 35 36 37 38 39 41 43 44 |42 |
648397.000000us| 0 2 4 5 6 7 8 9 10 11 12 15 16 17 18 20 21 22 23 24 25 26 27 28 29 31 33 34 35 36 38 40 41 |37 |
549444.000000us| 0 2 4 9 11 14 15 16 19 22 23 24 25 26 29 31 38 39 40 41 44 45 |30 |
746656.000000us| 0 2 3 4 5 6 7 8 10 11 12 13 14 15 16 17 18 19 20 21 22 23 24 25 27 28 29 30 31 32 33 36 37 39 40 42 43 44 45 |34 |
111.000000us| 7 |27 |
0.000000us| |17 |
622629.000000us| 1 3 5 6 7 9 10 11 12 13 14 15 16 17 18 19 20 21 23 24 25 26 27 28 29 30 32 33 35 36 38 39 40 41 43 44 45 |8 |
601817.000000us| 0 1 3 4 6 7 8 9 12 13 15 17 18 19 20 21 23 24 25 26 27 28 29 31 33 34 35 37 39 40 41 44 45 |30 |
585553.000000us| 0 2 3 4 5 6 7 9 10 11 13 15 16 18 20 21 22 23 26 27 30 31 33 34 35 36 37 38 40 41 43 |25 |
636062.000000us| 0 1 4 8 9 10 11 18 19 20 21 25 31 32 35 37 40 41 42 |33 |
675568.000000us| 0 2 3 5 8 10 11 13 15 16 18 21 23 24 25 28 30 31 32 33 34 35 37 38 40 42 43 44 45 |1 |
653413.000000us| 1 2 4 5 6 7 8 9 10 11 12 13 14 15 16 18 19 21 22 23 24 26 27 28 29 30 31 32 33 34 35 36 38 39 40 41 42 43 44 45 |37 |
742066.000000us| 0 1 4 11 12 13 17 18 23 25 26 28 30 32 33 35 36 38 40 42 |8 |
311241.000000us| 0 3 7 19 37 40 |8 |
0.000000us| |17 |
671313.000000us| 0 1 2 3 4 5 6 7 8 9 10 11 12 13 14 15 19 20 21 22 24 25 26 27 28 30 32 33 35 36 38 39 40 41 42 43 |45 |
552796.000000us| 0 1 2 3 4 5 6 7 10 11 13 14 15 16 17 18 19 20 21 24 25 26 28 30 32 33 34 35 36 38 39 43 44 45 |40 |
662801.000000us| 1 3 4 8 9 10 12 15 21 23 25 27 28 32 34 38 39 41 43 |31 |
763987.000000us| 0 1 2 3 4 5 6 7 8 9 10 11 12 13 15 16 17 18 19 20 21 22 23 24 25 26 27 28 29 30 31 32 33 34 36 37 38 39 40 41 42 43 44 45 |14 |
744088.000000us| 1 2 3 4 5 6 7 8 9 10 11 12 13 15 16 17 19 20 21 22 23 25 26 27 28 29 30 31 33 34 35 36 38 40 41 42 44 45 |0 |
594072.000000us| 0 1 2 4 5 7 9 11 13 17 19 20 21 22 23 24 26 27 28 29 31 32 33 35 36 39 43 45 |3 |
515840.000000us| 0 1 4 5 6 7 8 9 12 13 14 15 16 17 18 20 21 23 24 25 26 27 28 29 30 31 32 33 34 35 36 37 38 39 40 41 42 43 44 45 |2 |
924393.000000us| 2 4 5 9 12 13 16 17 18 20 21 22 23 24 25 26 27 31 32 33 35 37 39 43 |29 |
1023731.000000us| 2 5 7 9 25 26 31 34 35 43 |40 |
680261.000000us| 2 4 5 6 7 12 14 16 18 19 21 23 25 26 28 29 31 32 33 34 35 36 37 38 40 43 44 |10 |
730337.000000us| 1 2 4 7 8 9 10 12 16 17 18 25 29 31 33 34 37 39 42 |20 |
678198.000000us| 1 5 7 11 12 16 20 22 24 29 33 34 35 37 38 39 44 |41 |
663058.000000us| 0 1 2 3 4 5 6 7 8 9 11 18 19 21 22 23 24 25 26 28 30 31 32 33 34 35 36 37 38 40 41 42 43 44 45 |16 |
627359.000000us| 0 1 3 7 8 12 19 21 22 25 27 30 31 33 35 41 |45 |
608986.000000us| 1 4 6 8 16 18 19 21 25 28 30 33 34 36 37 38 39 41 |32 |
896892.000000us| 0 10 16 23 24 32 35 38 41 43 |36 |
813362.000000us| 0 2 3 6 7 9 12 13 14 16 17 19 20 22 24 25 26 27 28 30 31 32 33 35 36 37 39 40 41 42 44 45 |43 |
761822.000000us| 1 2 5 6 9 13 16 17 19 29 32 34 35 36 |25 |
761898.000000us| 0 1 2 3 4 5 6 7 8 9 10 11 12 13 14 15 16 17 18 19 20 21 22 23 24 25 26 27 28 29 30 31 32 33 34 35 36 37 38 40 41 42 43 44 45 |39 |
626626.000000us| 0 1 2 3 4 5 8 9 10 11 12 13 14 15 20 21 23 24 25 26 27 28 29 30 31 32 33 34 35 36 37 38 39 40 41 42 43 44 45 |22 |
896331.000000us| 0 1 4 8 9 10 11 12 13 18 23 25 32 35 38 39 |3 |
711604.000000us| 0 3 4 6 7 8 9 10 11 12 14 15 16 17 18 19 21 22 23 24 25 26 27 28 29 30 31 32 33 34 35 36 38 40 41 42 43 44 45 |20 |
562974.000000us| 0 1 7 8 9 11 13 14 15 17 18 19 20 21 23 24 25 27 28 29 30 31 32 33 34 35 37 38 39 40 42 43 44 45 |6 |
924553.000000us| 2 3 6 12 14 16 17 22 24 30 44 |29 |
737473.000000us| 6 14 15 18 22 24 29 30 32 36 37 40 41 44 |38 |
783120.000000us| 1 2 3 6 8 9 10 11 12 13 14 15 16 19 20 21 22 23 24 25 26 27 28 29 30 31 33 34 35 36 37 38 39 40 41 42 43 44 45 |0 |
773015.000000us| 0 4 7 8 13 15 19 22 23 24 27 28 30 33 36 38 39 43 44 |16 |
663030.000000us| 0 1 2 4 5 6 7 9 10 11 12 13 14 15 16 17 18 19 20 21 22 23 25 26 27 28 29 30 31 33 34 35 37 38 39 40 42 43 44 45 |8 |
934318.000000us| 0 4 7 9 10 12 14 31 33 34 36 41 42 44 45 |30 |
864539.000000us| 0 2 3 7 9 10 11 12 17 24 31 34 |35 |
579530.000000us| 1 3 5 6 7 8 9 10 11 14 15 16 17 21 22 23 24 25 26 28 29 31 32 33 34 35 36 38 39 42 44 45 |12 |
620495.000000us| 0 1 3 4 7 8 9 10 13 14 15 16 17 18 20 21 22 23 26 27 31 33 35 37 38 39 42 45 |28 |
340844.000000us| 2 17 21 31 33 38 42 |4 |
688613.000000us| 1 4 8 9 10 11 12 13 14 17 18 23 24 25 28 29 30 31 36 37 39 40 41 43 44 45 |15 |
713685.000000us| 0 1 2 3 4 5 6 8 9 10 12 14 15 16 17 18 19 20 22 23 24 25 26 27 28 29 31 32 33 34 36 37 39 40 41 42 43 44 45 |13 |
582029.000000us| 0 1 2 3 5 6 7 8 9 10 11 12 13 14 16 17 18 20 21 23 24 25 26 27 28 29 30 33 34 35 36 37 39 41 43 44 45 |4 |
645160.000000us| 1 3 6 9 11 14 18 24 26 30 32 36 37 38 40 42 43 |33 |
800457.000000us| 1 2 3 4 5 6 8 9 11 12 15 16 17 18 19 20 22 23 24 26 27 28 30 31 32 33 35 36 37 38 39 41 42 43 44 45 |14 |
764699.000000us| 0 1 2 3 4 5 6 7 8 9 10 11 12 13 14 15 16 17 18 19 20 21 22 23 24 26 27 28 29 30 31 32 33 35 36 37 38 39 40 41 42 43 44 45 |34 |
0.000000us| |35 |
593644.000000us| 0 1 2 4 5 7 9 10 11 14 18 19 20 22 23 24 25 26 28 29 31 32 33 35 37 38 39 40 41 42 43 44 45 |16 |
625234.000000us| 2 3 4 5 6 8 9 10 11 12 13 14 17 18 19 21 23 25 26 27 28 30 33 34 36 37 38 39 40 41 42 43 |24 |
635710.000000us| 0 1 4 6 7 8 9 10 13 17 19 21 22 23 24 25 26 27 29 31 34 36 37 38 39 41 42 45 |28 |
0.000000us| |42 |
727608.000000us| 0 1 2 3 4 5 6 8 9 10 11 12 13 14 15 16 17 18 19 21 22 23 24 25 26 27 28 29 30 31 33 34 35 36 37 38 39 41 42 43 44 45 |32 |
618191.000000us| 1 2 3 4 6 9 10 11 12 15 16 17 18 19 21 22 23 24 25 26 27 28 30 31 32 33 34 35 36 37 39 40 41 42 43 45 |13 |
699890.000000us| 1 3 5 6 7 8 10 11 12 14 18 22 24 25 27 31 33 34 36 37 39 40 41 45 |9 |
750592.000000us| 3 4 6 7 8 10 11 12 13 14 15 16 17 18 19 20 21 22 23 24 27 28 29 31 32 34 35 36 37 38 39 40 41 42 43 44 45 |1 |
445.000000us| 5 22 |3 |
713500.000000us| 0 2 3 4 5 6 7 8 9 10 11 13 14 15 16 17 18 19 20 21 22 23 24 25 26 27 28 29 30 31 32 34 35 36 37 38 40 41 42 43 45 |1 |
537815.000000us| 1 2 5 9 18 20 21 24 26 28 29 33 36 37 39 40 45 |15 |
672517.000000us| 0 1 2 3 5 6 10 12 18 22 24 29 34 35 36 39 42 43 44 45 |33 |
684721.000000us| 1 2 3 4 6 7 8 9 10 11 13 15 16 17 18 19 21 22 23 24 25 26 27 29 30 32 33 34 36 39 40 42 44 45 |31 |
171189.000000us| 4 13 14 26 36 |10 |
551213.000000us| 0 1 2 9 10 15 19 20 21 24 26 27 32 33 34 40 41 44 |38 |
655747.000000us| 3 7 11 13 14 15 20 24 26 27 30 36 37 41 42 43 45 |23 |
1056878.000000us| 1 5 10 15 16 18 20 29 35 38 |6 |
8845.000000us| 3 13 15 45 |9 |
0.000000us| |20 |
904821.000000us| 0 5 9 11 12 14 20 27 37 40 45 |36 |
637230.000000us| 0 2 3 4 5 6 7 9 10 11 12 13 14 15 16 17 18 19 20 21 23 24 25 26 27 28 30 31 32 34 35 37 39 40 41 42 43 44 45 |38 |
994424.000000us| 4 7 9 16 17 19 26 36 42 43 |10 |
773154.000000us| 5 6 9 11 12 13 14 15 18 20 23 26 28 29 31 33 34 36 37 38 39 42 43 |24 |
802654.000000us| 6 7 12 14 15 16 21 22 28 37 38 45 |3 |
643690.000000us| 0 1 2 3 6 9 12 15 17 20 22 23 24 27 31 34 40 42 45 |33 |
757930.000000us| 0 1 2 3 4 5 6 7 8 9 10 11 12 13 14 15 16 17 18 19 20 21 22 23 24 26 27 30 31 32 33 34 35 36 37 38 39 40 41 43 44 45 |25 |
749726.000000us| 4 6 8 12 13 16 17 18 21 24 28 31 37 38 43 44 45 |41 |
480828.000000us| 1 2 3 4 5 7 9 10 11 12 14 15 16 18 19 20 23 24 25 26 27 28 30 31 32 33 36 37 38 39 40 41 42 44 |6 |
568225.000000us| 1 2 5 10 11 14 18 19 20 23 27 34 35 37 41 44 |4 |
562056.000000us| 1 3 5 8 10 11 14 17 19 20 24 28 30 32 33 41 42 44 |45 |
707215.000000us| 2 3 8 9 10 15 21 22 23 25 26 32 37 39 44 |35 |
861225.000000us| 6 8 13 14 18 19 20 23 24 33 34 39 40 42 |3 |
917660.000000us| 0 8 10 12 13 17 18 22 23 29 31 36 37 38 41 |27 |
520248.000000us| 0 1 2 3 5 7 9 10 12 15 16 17 18 20 22 23 24 25 26 27 28 29 30 31 33 34 35 36 38 40 42 43 |8 |
613434.000000us| 1 3 4 16 22 24 32 38 39 40 42 44 |19 |
764251.000000us| 2 5 6 10 12 13 16 18 21 23 27 28 29 32 34 35 37 38 40 43 |9 |
671309.000000us| 0 4 5 9 11 12 16 17 18 25 26 27 33 34 35 38 41 42 43 44 45 |28 |
675956.000000us| 0 3 6 7 10 12 15 19 20 21 24 25 27 29 30 31 33 35 39 43 45 |5 |
685575.000000us| 0 1 2 4 5 6 7 8 9 10 11 12 13 14 15 17 18 19 20 21 22 24 25 26 27 28 29 30 31 32 33 34 37 40 41 43 45 |35 |
604849.000000us| 2 3 4 6 10 14 15 16 20 22 23 24 25 26 27 28 30 32 33 34 37 38 41 44 45 |43 |
33366.000000us| 5 7 22 |18 |
607279.000000us| 0 2 3 4 5 6 9 10 11 13 14 15 16 17 18 19 20 21 23 24 25 26 27 29 30 32 33 34 35 36 37 39 40 42 43 44 45 |41 |
6275.000000us| 12 33 41 |22 |
641984.000000us| 0 3 4 5 6 7 9 10 11 12 13 14 15 18 20 21 22 24 26 27 28 29 30 34 35 36 37 40 42 43 44 |25 |
495664.000000us| 0 1 4 5 6 9 10 12 14 15 16 17 18 19 22 23 24 28 29 30 31 33 34 35 38 39 40 41 42 44 45 |37 |
789687.000000us| 0 3 5 7 9 11 13 14 18 20 21 27 30 31 32 33 37 44 |23 |
631177.000000us| 0 3 6 7 10 11 16 17 19 20 29 30 39 40 |5 |
288.000000us| 38 42 |12 |
500595.000000us| 1 2 4 5 6 7 10 12 13 14 15 16 17 18 20 21 25 26 27 28 29 30 35 37 38 39 40 42 43 44 45 |31 |
544934.000000us| 1 2 5 6 9 11 12 13 16 17 18 19 20 24 26 27 28 31 32 36 38 40 42 44 45 |15 |
788281.000000us| 0 1 2 3 5 7 8 11 13 14 15 17 19 20 22 23 24 26 27 28 29 30 32 35 36 37 38 39 40 41 42 43 44 45 |16 |
1501128.000000us| 7 8 12 14 15 17 18 19 30 37 38 43 44 |22 |
764326.000000us| 0 1 2 3 4 5 6 7 8 9 10 11 13 14 15 16 17 18 19 20 21 22 23 24 25 26 27 28 29 30 31 32 33 34 35 36 37 38 39 40 41 42 43 44 45 |12 |
645751.000000us| 0 1 2 4 8 9 11 12 13 14 15 16 17 19 20 22 24 26 28 29 30 32 33 35 37 38 40 42 44 45 |23 |
714248.000000us| 0 8 9 10 11 12 13 19 20 21 23 24 25 27 28 29 30 31 34 37 38 40 44 |15 |
784128.000000us| 0 1 2 3 4 5 6 7 8 9 10 11 12 13 14 15 16 17 18 19 20 21 22 23 24 25 26 27 28 30 32 33 34 35 36 37 38 39 40 41 42 43 44 45 |31 |
600074.000000us| 0 1 2 3 4 5 6 8 11 13 14 15 16 19 20 21 22 23 24 25 26 28 30 31 32 34 35 36 37 39 41 43 45 |9 |
569578.000000us| 2 6 7 8 9 11 13 24 31 32 33 34 37 40 41 45 |35 |
753147.000000us| 9 13 14 15 19 23 34 37 43 |42 |
596695.000000us| 0 1 2 3 4 7 9 12 16 17 19 20 22 23 24 25 28 29 30 31 32 35 36 37 38 40 42 45 |21 |
496440.000000us| 0 1 2 5 9 10 12 13 15 16 18 19 20 22 23 24 29 30 32 33 36 37 38 39 40 41 42 45 |35 |
769269.000000us| 0 1 2 3 4 5 8 9 10 11 12 13 14 15 16 17 18 19 20 21 22 23 24 25 26 27 28 30 31 33 35 36 37 39 40 41 42 43 44 45 |38 |
650564.000000us| 0 1 2 3 4 5 6 8 9 11 12 13 14 15 16 17 18 19 20 21 24 25 27 29 30 33 34 37 39 42 43 44 |32 |
19496.000000us| 1 23 25 42 |39 |
693438.000000us| 0 2 3 6 7 8 9 10 13 15 18 19 20 22 23 25 26 27 28 29 30 31 33 34 35 36 37 38 40 41 42 44 |45 |
484977.000000us| 1 2 4 5 6 10 12 14 15 16 17 18 19 20 21 24 25 27 28 31 35 37 38 39 40 42 43 44 |9 |
585216.000000us| 1 2 4 5 7 10 12 13 15 17 21 22 23 27 28 29 33 34 36 38 40 41 42 44 |25 |
700882.000000us| 0 1 2 5 6 7 11 12 15 16 17 18 19 20 21 22 24 25 26 27 28 29 30 31 32 33 34 35 36 39 40 41 42 43 44 45 |4 |
748055.000000us| 0 1 2 3 4 6 7 8 9 10 11 13 14 15 16 17 18 20 21 22 23 25 26 27 28 29 30 32 33 34 35 37 38 39 41 42 43 44 45 |31 |
0.000000us| |24 |
4072.000000us| 6 24 26 |25 |
557413.000000us| 0 1 2 3 4 5 6 7 10 13 14 16 17 18 19 20 21 23 24 26 27 31 32 33 34 35 36 37 38 39 40 42 43 44 45 |28 |
733731.000000us| 1 2 3 4 8 12 13 14 16 17 18 20 21 22 23 24 26 27 28 30 31 34 35 36 37 38 41 42 43 44 45 |0 |
641137.000000us| 0 1 8 9 12 16 18 19 20 25 30 34 43 44 |29 |
6557.000000us| 23 34 37 |30 |
711156.000000us| 2 3 4 5 7 13 14 15 24 26 27 28 29 34 37 40 42 43 |32 |
643778.000000us| 1 6 8 9 12 17 21 33 34 35 37 38 41 |0 |
714815.000000us| 0 1 2 3 4 5 6 8 9 10 12 13 15 16 17 18 19 20 21 22 23 24 25 26 27 28 29 30 31 32 33 34 35 36 37 38 39 40 42 43 44 45 |14 |
0.000000us| |7 |
718961.000000us| 1 2 3 4 5 6 8 9 10 11 12 13 14 16 17 18 19 20 21 22 26 28 29 30 31 33 34 42 44 |23 |
642091.000000us| 0 1 2 3 5 13 16 22 23 28 32 36 37 39 |7 |
722038.000000us| 1 2 3 4 6 7 8 9 10 11 12 14 15 16 17 18 19 21 22 23 25 27 28 29 32 34 35 36 37 40 41 42 43 44 45 |5 |
676217.000000us| 0 1 2 3 4 6 9 10 13 14 16 18 19 20 21 22 24 26 27 28 29 30 31 34 36 38 43 44 |45 |
562801.000000us| 0 1 2 3 6 7 9 10 11 12 13 14 15 16 17 20 21 23 24 26 27 28 29 30 31 32 34 35 37 38 39 40 42 43 44 45 |36 |
690678.000000us| 0 8 11 12 25 28 29 33 35 36 42 44 45 |13 |
610.000000us| 11 19 |7 |
664874.000000us| 1 2 9 11 12 13 16 17 19 21 22 23 26 29 30 34 35 38 39 40 41 42 43 45 |25 |
576822.000000us| 0 2 4 5 6 7 8 9 11 12 13 15 16 18 19 20 23 26 27 29 30 32 33 37 38 39 41 42 43 44 45 |34 |
601804.000000us| 7 18 20 24 26 28 30 33 34 35 36 37 41 42 45 |23 |
633598.000000us| 2 3 5 17 19 20 28 31 35 36 40 45 |14 |
764745.000000us| 0 1 2 3 4 5 6 7 8 9 10 11 12 13 14 15 16 17 19 20 21 22 23 24 26 27 28 29 30 31 32 33 34 35 36 37 38 39 40 41 42 43 44 45 |18 |
752188.000000us| 0 1 2 3 4 5 6 7 8 9 10 11 12 13 14 15 16 17 18 19 20 21 22 23 24 25 26 27 28 29 30 31 32 33 34 35 36 37 39 40 41 42 43 44 45 |38 |
763571.000000us| 1 2 3 4 5 6 7 8 9 10 11 12 13 14 15 18 19 20 21 22 23 24 25 27 30 31 32 33 34 35 36 38 39 40 41 42 43 44 45 |29 |
701940.000000us| 0 1 2 3 5 6 7 8 9 10 11 12 13 14 15 16 17 18 19 20 21 22 23 24 25 27 29 30 31 32 33 34 35 36 37 38 39 44 45 |26 |
1171791.000000us| 3 6 9 11 23 24 28 35 42 43 |10 |
627212.000000us| 0 1 2 3 4 5 6 7 8 9 11 17 19 20 22 23 28 29 31 33 34 35 36 37 40 42 43 |30 |
680720.000000us| 5 6 7 10 13 15 17 18 19 20 25 27 29 30 31 36 38 39 41 |24 |
848090.000000us| 6 12 25 33 34 37 40 |28 |
693123.000000us| 0 1 2 3 4 5 6 7 8 9 10 12 13 14 15 16 17 18 20 21 22 23 24 25 26 27 28 29 30 31 32 33 34 35 36 37 39 40 41 42 43 44 45 |11 |
658693.000000us| 16 22 23 25 26 29 30 31 36 37 38 39 45 |0 |
783.000000us| 13 29 |21 |
724120.000000us| 0 2 3 4 6 7 8 9 10 11 12 14 16 17 19 20 22 25 26 27 28 29 30 31 33 34 35 36 37 38 39 40 41 42 43 45 |21 |
590318.000000us| 0 1 2 3 5 6 7 9 10 13 14 15 16 17 19 20 21 23 25 26 27 30 31 32 33 34 35 36 37 38 39 40 41 42 43 44 45 |29 |
473110.000000us| 8 15 24 28 34 36 45 |43 |
91786.000000us| 14 15 33 36 38 40 |20 |
8195.000000us| 6 27 33 |10 |
636760.000000us| 0 1 2 3 4 5 6 7 8 9 10 11 12 14 15 17 21 22 23 27 28 29 31 35 36 37 39 40 41 42 43 45 |38 |
1277127.000000us| 1 5 8 10 12 13 20 30 33 36 40 43 44 |4 |
678689.000000us| 0 5 7 9 10 11 15 20 21 22 23 25 27 30 32 33 35 40 42 45 |19 |
764655.000000us| 0 1 2 3 4 5 6 7 8 9 11 12 13 14 15 16 17 18 19 20 21 22 23 24 25 26 27 28 29 30 31 32 33 34 35 36 37 38 39 40 41 42 43 44 45 |10 |
630390.000000us| 0 1 2 3 4 5 6 7 8 9 11 12 13 14 15 17 18 19 21 23 25 26 27 28 30 31 32 33 34 35 36 37 38 39 40 41 42 43 44 45 |20 |
55.000000us| 42 |12 |
2029356.000000us| 8 11 13 16 18 32 35 36 37 42 |19 |
693217.000000us| 0 1 2 4 5 6 7 8 9 10 11 12 13 14 15 16 17 18 19 20 21 22 23 24 25 26 27 28 29 30 31 32 33 34 35 36 37 38 39 40 42 43 44 45 |41 |
213.000000us| 44 |14 |
561015.000000us| 1 3 4 5 6 11 15 17 24 26 28 29 32 36 37 40 41 45 |13 |
687334.000000us| 1 3 4 5 7 8 13 14 19 22 24 29 31 35 38 40 45 |2 |
728776.000000us| 1 2 5 6 7 9 10 13 15 19 22 25 26 30 31 33 34 43 45 |21 |
725643.000000us| 0 1 2 3 4 5 6 7 8 9 10 11 12 13 15 16 17 18 19 20 22 23 24 25 26 27 28 29 30 31 32 33 35 36 37 39 40 42 43 44 45 |34 |
294.000000us| 12 35 |2 |
501882.000000us| 0 1 5 6 9 11 12 13 14 15 16 17 18 20 21 24 25 26 29 30 32 34 35 39 40 41 42 43 44 |2 |
439.000000us| 21 34 |9 |
660596.000000us| 2 5 7 11 12 17 20 23 28 29 31 39 43 44 |3 |
695107.000000us| 2 5 7 8 9 10 11 12 13 14 15 16 19 20 21 22 24 26 27 28 29 33 36 37 38 41 43 44 45 |30 |
752087.000000us| 1 7 8 9 10 11 12 18 19 23 24 27 34 35 39 40 41 |30 |
764699.000000us| 0 1 2 3 4 5 6 7 8 9 11 12 13 14 15 16 17 18 19 20 21 22 23 24 25 26 27 28 29 30 31 32 33 34 35 36 37 38 39 40 41 42 43 44 45 |10 |
717438.000000us| 0 2 9 12 16 17 21 23 27 30 36 41 42 44 |1 |
764609.000000us| 0 1 2 3 4 7 8 9 10 11 12 13 14 15 16 17 18 19 20 21 22 23 24 25 26 27 28 29 30 31 32 33 34 35 36 37 38 39 40 41 42 43 44 45 |5 |
623860.000000us| 0 2 3 4 6 14 15 16 17 21 23 24 31 34 35 36 37 43 44 |25 |
711824.000000us| 0 1 2 3 4 5 6 7 8 9 10 11 12 13 14 15 16 17 18 19 20 21 22 24 25 26 27 28 29 30 31 32 33 34 35 36 37 38 39 40 41 42 43 45 |44 |
4052.000000us| 16 17 32 |6 |
522259.000000us| 1 3 4 5 6 8 9 10 12 13 14 15 16 17 18 19 20 22 23 25 27 28 31 34 35 36 37 42 43 44 45 |24 |
622614.000000us| 1 3 4 6 7 10 11 14 20 21 23 26 27 28 29 30 33 34 36 40 41 43 45 |2 |
701890.000000us| 0 1 2 4 5 6 7 8 9 10 12 13 15 16 17 18 19 20 21 22 26 27 28 29 30 31 32 33 34 35 36 38 39 40 41 42 44 45 |25 |
984619.000000us| 7 9 15 18 21 27 30 33 36 42 43 44 |1 |
561782.000000us| 4 8 10 11 12 16 18 19 21 26 35 36 38 40 |29 |
921356.000000us| 2 6 9 17 20 23 33 38 |24 |
751679.000000us| 0 1 2 3 4 5 6 7 8 9 11 12 14 16 17 18 19 20 22 23 24 25 26 27 28 29 30 31 32 33 34 35 36 37 38 39 40 42 43 44 45 |21 |
764353.000000us| 1 2 3 5 6 7 8 9 10 11 12 14 15 16 17 18 19 20 21 22 23 25 26 27 28 29 30 31 32 33 34 35 36 37 38 39 40 41 42 43 44 |13 |
888767.000000us| 0 7 12 13 18 19 24 26 30 34 36 43 |5 |
738849.000000us| 6 8 10 15 20 21 26 28 29 31 32 38 |40 |
1971637.000000us| 2 3 4 7 10 12 13 18 29 33 41 |25 |
687256.000000us| 2 5 7 14 18 22 26 28 29 30 36 37 41 44 |35 |
500841.000000us| 0 1 5 8 9 10 13 15 16 19 20 21 22 23 24 26 28 29 30 32 34 35 36 41 45 |27 |
697231.000000us| 0 2 4 5 6 7 8 9 10 11 12 13 14 16 18 19 20 21 22 23 24 25 27 28 30 31 32 33 34 35 37 38 39 40 41 42 43 44 45 |29 |
784586.000000us| 0 5 7 11 12 13 15 19 27 30 31 35 36 37 38 42 45 |10 |
874348.000000us| 8 9 12 20 23 34 37 40 |14 |
515370.000000us| 0 1 4 5 6 7 9 11 12 15 17 19 22 23 24 28 29 30 32 33 35 36 41 |31 |
797181.000000us| 0 2 5 7 9 12 13 15 16 17 23 27 29 30 32 34 36 37 38 39 40 |43 |
835127.000000us| 1 4 9 13 20 21 22 32 33 34 40 |24 |
603379.000000us| 0 5 14 16 18 20 21 23 26 31 32 33 34 39 41 42 43 45 |17 |
580819.000000us| 1 3 4 5 6 8 12 18 20 21 26 27 29 32 35 36 38 39 42 43 44 |45 |
556966.000000us| 0 1 4 5 7 8 9 10 12 13 14 15 16 17 18 19 23 25 29 30 31 33 34 35 36 37 44 45 |21 |
9181.000000us| 0 27 28 |13 |
828357.000000us| 1 2 3 4 6 7 12 13 14 16 17 18 20 21 22 23 24 25 27 28 33 34 35 37 39 40 42 43 44 |5 |
778232.000000us| 10 11 14 21 22 23 27 28 31 33 34 38 40 41 42 43 |44 |
25362.000000us| 5 10 23 25 |9 |
718096.000000us| 1 4 5 9 13 15 16 17 18 19 25 27 28 30 31 32 34 36 37 39 44 45 |41 |
954936.000000us| 1 5 8 14 24 26 32 35 43 |10 |
712172.000000us| 0 1 2 3 4 6 7 8 9 10 11 12 13 14 15 16 17 18 19 20 21 22 23 24 25 27 28 29 30 31 32 33 34 35 36 37 38 39 40 41 42 43 45 |26 |
575665.000000us| 1 3 4 5 6 10 17 18 19 20 22 23 24 26 35 36 39 42 43 |8 |
494540.000000us| 1 4 5 7 8 9 10 15 16 17 19 22 23 27 28 29 30 33 34 35 37 38 39 40 42 44 |43 |
15832.000000us| 10 13 26 27 |1 |
781329.000000us| 3 4 6 8 10 11 13 15 17 20 22 26 29 32 34 35 36 37 38 41 43 |18 |
790288.000000us| 0 2 3 4 7 8 9 11 12 13 14 16 17 19 20 21 22 25 28 30 31 32 36 37 38 44 |41 |
773335.000000us| 1 3 4 7 20 25 29 30 33 37 40 |18 |
937683.000000us| 3 7 8 12 13 19 25 30 35 41 44 |36 |
590111.000000us| 4 7 21 22 23 33 40 42 |1 |
632321.000000us| 1 2 5 6 9 12 15 23 24 25 26 27 28 31 32 34 38 39 44 45 |37 |
679702.000000us| 0 1 2 3 4 5 7 8 11 12 13 14 16 20 22 23 24 25 26 28 29 30 31 34 35 39 40 42 44 45 |18 |
577432.000000us| 0 1 2 3 8 9 10 11 14 15 18 20 22 23 25 28 29 32 33 34 35 36 37 38 40 41 43 |16 |
846059.000000us| 4 7 16 18 20 26 31 36 37 40 41 42 43 44 |0 |
810443.000000us| 2 3 10 14 16 17 26 30 37 43 |8 |
16243.000000us| 9 14 27 41 |8 |
611006.000000us| 2 4 5 6 7 9 10 11 12 13 14 15 16 17 18 21 22 23 25 26 27 29 30 32 33 35 36 37 38 40 42 44 45 |0 |
589299.000000us| 0 5 8 9 11 15 17 18 25 28 32 34 35 36 37 38 40 41 43 44 45 |22 |
721514.000000us| 0 1 2 3 5 6 7 8 9 10 12 13 15 16 17 18 19 20 21 22 23 24 26 28 30 31 32 35 36 38 39 41 43 44 45 |33 |
703975.000000us| 0 1 2 3 4 5 6 8 9 12 13 14 15 16 17 18 19 20 21 22 24 25 26 27 28 29 31 32 34 38 39 40 42 44 45 |41 |
704892.000000us| 0 1 2 3 4 5 7 8 9 10 12 13 14 15 16 17 18 19 20 21 22 23 24 25 26 29 30 31 33 34 36 37 38 40 41 42 43 |32 |
857066.000000us| 4 13 19 33 39 41 44 |14 |
879962.000000us| 6 10 11 12 20 21 33 34 43 44 45 |0 |
712935.000000us| 0 1 2 6 13 14 17 18 22 23 24 25 27 29 30 32 33 34 35 36 37 38 40 41 42 43 45 |4 |
45939.000000us| 17 25 32 36 |19 |
510245.000000us| 1 2 4 5 6 8 9 13 14 16 17 20 24 25 28 29 30 31 34 37 38 39 41 43 45 |18 |
663926.000000us| 5 6 7 11 18 21 22 28 31 36 40 43 45 |14 |
544448.000000us| 0 2 4 6 7 11 13 15 16 18 19 24 25 26 29 31 36 39 45 |43 |
510449.000000us| 1 7 13 21 23 33 45 |9 |
768504.000000us| 0 1 2 3 4 5 6 7 8 9 10 11 12 13 14 15 16 17 18 19 20 21 22 23 24 25 26 27 28 29 31 32 33 34 35 36 37 38 39 40 41 42 43 44 45 |30 |
744559.000000us| 0 6 7 11 13 14 17 19 20 25 27 28 29 32 35 36 37 41 44 |1 |
634158.000000us| 0 4 5 6 9 11 12 13 14 15 16 18 19 20 23 24 25 26 28 29 30 31 34 35 37 39 40 41 42 |45 |
691919.000000us| 0 1 2 3 4 5 6 7 9 10 11 17 19 20 21 22 23 24 25 28 29 31 32 34 35 37 38 39 40 43 44 45 |27 |
593138.000000us| 0 2 3 4 5 7 9 10 14 15 18 19 20 22 25 26 27 29 30 33 34 35 36 38 41 42 44 |24 |
768094.000000us| 0 1 2 3 5 6 7 8 9 10 11 12 13 14 15 16 17 18 19 20 21 22 23 24 25 26 27 28 29 30 31 32 33 34 35 36 37 38 40 41 42 43 44 45 |4 |
707003.000000us| 2 6 9 11 13 14 22 23 25 29 30 31 32 34 42 44 45 |3 |
63.000000us| 19 |1 |
591515.000000us| 0 3 5 7 8 9 16 18 21 23 24 25 26 28 29 30 31 34 36 38 39 40 41 42 |10 |
569536.000000us| 5 11 17 21 22 23 24 26 29 31 38 41 45 |43 |
1001124.000000us| 0 1 4 8 29 36 39 43 |28 |
540943.000000us| 0 1 2 5 9 11 15 16 18 23 25 27 32 36 40 45 |20 |
743873.000000us| 3 4 6 7 9 10 11 16 19 24 27 29 31 32 33 40 41 44 |14 |
768325.000000us| 0 1 2 3 4 5 6 7 8 9 10 11 13 14 15 17 18 19 20 21 22 23 24 25 26 27 28 29 30 31 32 33 34 35 36 37 38 39 40 41 42 43 44 45 |16 |
710512.000000us| 1 4 5 6 7 14 18 20 24 31 35 36 44 |43 |
783140.000000us| 0 1 2 3 4 5 6 7 8 9 10 11 12 13 14 15 16 18 19 20 21 22 23 25 26 27 28 29 30 31 32 33 34 36 37 38 39 40 41 42 43 44 45 |35 |
775434.000000us| 0 1 2 5 7 8 9 12 13 16 17 24 25 27 29 30 31 33 34 36 37 42 |15 |
672534.000000us| 0 1 4 6 8 10 11 13 15 16 18 19 20 21 22 23 27 28 29 30 31 32 34 35 36 37 38 39 40 41 42 43 44 45 |9 |
689852.000000us| 0 2 3 5 6 7 8 9 10 11 12 13 15 16 17 18 19 20 21 23 24 25 26 27 28 29 30 31 33 34 36 37 39 40 41 42 43 44 45 |14 |
731818.000000us| 1 2 3 4 6 7 8 10 11 12 13 14 17 18 19 21 22 23 25 26 27 28 29 30 31 32 33 34 36 37 38 39 40 42 43 44 45 |24 |
736184.000000us| 4 5 7 8 9 10 20 21 25 26 30 35 38 41 42 43 |39 |
723438.000000us| 0 2 4 6 8 12 13 14 15 20 21 24 28 30 31 34 36 37 40 44 45 |42 |
722791.000000us| 1 2 3 4 7 10 12 15 18 19 23 24 25 27 30 34 37 |9 |
741220.000000us| 2 4 6 7 8 9 10 11 12 13 16 17 18 19 21 25 26 27 30 31 32 36 37 40 41 43 44 |29 |
666850.000000us| 1 2 6 7 10 13 16 19 20 26 27 28 32 34 36 38 39 43 |11 |
427913.000000us| 2 7 24 34 35 44 |19 |
604955.000000us| 0 1 5 6 12 23 26 29 30 32 33 34 |7 |
558003.000000us| 5 6 7 8 9 10 14 15 17 18 20 21 22 23 24 27 28 29 34 35 43 45 |11 |
523571.000000us| 0 1 4 5 7 8 9 10 11 16 17 18 20 24 25 26 28 29 30 31 32 34 35 36 41 43 44 45 |13 |
725844.000000us| 2 3 7 10 13 15 16 17 18 23 25 32 34 36 39 41 |38 |
718374.000000us| 0 1 3 4 9 10 12 14 19 20 22 23 28 29 30 34 35 36 38 42 43 |16 |
645786.000000us| 2 3 6 8 13 16 17 19 20 23 24 26 28 30 35 36 38 39 44 |29 |
605342.000000us| 2 6 9 11 12 14 16 17 18 19 21 22 23 24 26 27 28 30 31 33 34 37 38 39 43 44 45 |5 |
593605.000000us| 0 1 2 3 4 5 6 7 8 9 11 12 13 14 17 18 20 21 22 23 25 26 27 29 30 34 35 36 40 45 |39 |
51.000000us| 11 |35 |
847034.000000us| 1 4 7 9 11 13 14 20 22 24 32 33 35 38 41 42 |15 |
760566.000000us| 1 3 5 9 10 15 17 23 25 30 36 |35 |
610305.000000us| 4 5 6 7 8 12 13 14 15 16 17 20 21 24 25 29 30 32 34 36 39 41 42 43 44 45 |19 |
626323.000000us| 2 3 7 8 10 11 12 14 15 16 18 19 27 29 30 32 37 39 40 42 45 |25 |
712030.000000us| 2 3 4 5 6 7 8 11 12 13 14 16 17 18 19 20 21 23 25 26 27 28 29 31 33 36 37 38 39 41 42 43 44 45 |24 |
706846.000000us| 1 2 3 4 5 6 7 8 11 13 14 15 16 17 18 19 20 21 22 23 24 25 26 27 28 29 31 33 34 37 38 39 40 41 42 45 |36 |
509580.000000us| 0 1 2 3 4 5 6 8 10 12 14 15 16 17 18 21 22 23 24 25 26 27 28 30 31 34 35 36 37 39 43 44 45 |29 |
569475.000000us| 3 4 5 8 10 15 16 17 20 23 27 29 30 31 32 33 37 41 42 43 45 |22 |
13560.000000us| 5 7 20 30 |26 |
652581.000000us| 0 1 2 3 8 10 13 14 15 21 23 25 30 32 34 36 37 38 42 45 |29 |
569.000000us| 24 32 |43 |
591293.000000us| 0 1 3 8 11 14 16 17 21 23 27 28 30 31 32 33 34 37 39 43 44 45 |25 |
654327.000000us| 0 1 2 3 6 7 8 9 11 12 13 14 15 16 17 18 19 20 21 23 26 28 29 30 31 33 36 37 38 39 40 42 44 45 |34 |
671543.000000us| 0 1 2 3 4 5 7 9 10 11 13 14 15 16 17 18 19 20 21 22 23 28 29 30 31 32 33 34 35 36 37 38 39 40 42 45 |26 |
737230.000000us| 1 2 3 4 5 6 7 8 9 10 11 12 13 15 16 17 19 20 21 22 23 25 26 27 28 29 30 31 32 33 34 35 36 37 38 39 40 41 43 44 45 |0 |
620830.000000us| 4 6 7 8 9 11 14 15 16 17 18 21 22 23 25 26 27 28 29 30 31 33 36 37 42 43 |34 |
550369.000000us| 1 10 16 18 21 26 28 31 32 35 39 40 41 43 44 |23 |
585471.000000us| 1 4 5 6 8 10 12 16 17 19 20 21 22 23 24 26 27 28 29 31 32 36 37 38 39 42 45 |41 |
96.000000us| 32 |39 |
641393.000000us| 0 1 2 3 4 6 7 8 9 10 11 12 13 14 15 16 17 22 23 24 26 27 29 31 32 33 34 35 36 39 41 42 43 44 45 |19 |
678709.000000us| 0 1 3 4 5 6 7 10 13 16 17 19 20 21 22 24 26 27 32 33 34 35 36 38 41 44 |18 |
737529.000000us| 0 2 3 4 10 11 14 16 18 19 20 23 24 25 27 29 30 31 32 33 34 36 37 38 39 40 42 43 |26 |
602207.000000us| 0 2 3 4 5 8 11 12 13 15 16 17 18 19 20 24 25 26 27 28 29 34 35 36 40 44 45 |23 |
668313.000000us| 6 10 11 17 22 24 25 28 29 30 34 44 |39 |
3727.000000us| 8 37 41 |23 |
560730.000000us| 0 1 2 3 5 7 9 10 11 13 16 17 18 20 23 25 26 28 29 30 31 32 33 34 35 36 38 41 42 43 44 |4 |
791281.000000us| 0 5 7 12 14 16 22 24 31 34 36 38 39 42 43 |20 |
527186.000000us| 0 4 6 11 14 16 17 18 19 20 23 24 25 26 28 31 35 36 42 44 |34 |
843263.000000us| 0 3 4 12 22 33 36 41 43 |35 |
694333.000000us| 0 1 2 3 4 5 6 7 8 9 10 11 12 13 14 15 16 17 19 21 22 23 24 27 29 30 31 32 33 34 36 40 41 44 45 |20 |
752380.000000us| 0 1 2 3 5 6 7 8 9 10 11 12 13 14 15 16 17 18 19 20 21 22 23 24 25 26 27 29 30 31 33 34 35 36 37 40 41 42 43 44 45 |38 |
6419.000000us| 24 28 36 |45 |
676373.000000us| 0 1 2 6 7 9 10 12 13 14 15 16 17 18 19 20 21 22 26 27 28 29 31 32 33 34 35 37 38 39 40 41 43 44 45 |42 |
641200.000000us| 1 2 3 4 5 8 9 10 11 13 14 16 17 21 22 23 24 26 27 28 29 30 31 32 33 36 37 38 39 40 42 43 44 45 |18 |
673234.000000us| 0 1 2 3 5 6 7 9 10 12 13 14 16 17 19 21 22 24 26 28 29 31 33 35 37 38 39 40 41 42 43 44 45 |4 |
583515.000000us| 0 4 5 6 7 11 16 20 25 27 29 32 36 37 38 44 45 |19 |
3764.000000us| 17 29 41 |39 |
81715.000000us| 15 17 29 38 40 |22 |
658134.000000us| 0 4 5 6 7 9 11 12 15 16 17 18 19 20 21 22 24 25 26 27 28 29 30 31 32 33 34 35 36 37 38 39 41 42 43 45 |44 |
4327834.000000us| 2 3 12 13 23 29 30 32 34 |18 |
634148.000000us| 0 1 3 5 6 8 11 13 14 17 18 19 22 24 25 27 28 30 31 34 38 41 43 |36 |
521875.000000us| 0 1 2 4 5 10 11 12 13 15 16 17 20 21 23 24 25 26 27 29 30 31 32 33 37 40 41 43 |18 |
0.000000us| |16 |
738166.000000us| 0 1 2 3 4 5 6 7 8 10 13 15 17 18 19 20 21 22 23 24 25 26 27 28 29 30 31 32 33 34 35 36 37 38 39 40 41 42 43 44 45 |11 |
703890.000000us| 0 1 2 3 4 5 6 7 8 9 10 13 14 15 17 18 20 21 22 23 24 25 27 28 29 31 32 33 34 35 36 37 38 39 40 41 42 43 44 45 |12 |
36.000000us| 1 |15 |
768481.000000us| 0 1 2 3 4 5 7 8 9 10 11 13 14 15 16 17 18 19 20 21 22 24 25 26 27 28 29 30 31 32 33 34 35 36 37 38 39 40 41 42 43 44 45 |23 |
83.000000us| 12 |11 |
14969.000000us| 5 15 19 26 |16 |
617659.000000us| 2 4 5 7 8 9 11 12 19 20 22 23 26 29 30 33 35 36 38 40 41 42 43 45 |39 |
752261.000000us| 0 1 2 3 4 5 6 7 8 9 10 11 12 13 14 15 16 17 18 19 20 21 22 23 24 25 26 27 28 29 30 31 32 33 34 35 36 37 39 40 41 42 43 44 45 |38 |
629432.000000us| 0 2 3 7 10 12 15 16 18 19 21 23 24 27 28 29 32 34 38 39 42 43 44 45 |22 |
2272331.000000us| 7 8 9 14 16 18 19 21 23 39 |41 |
684057.000000us| 0 4 12 14 15 22 31 35 37 38 44 |21 |
0.000000us| |2 |
576428.000000us| 1 2 4 5 7 9 10 11 12 14 15 16 17 18 19 20 23 24 25 26 27 28 29 31 32 34 37 38 39 41 42 43 44 45 |13 |
812475.000000us| 0 6 10 12 14 15 16 18 20 22 26 27 29 31 32 33 34 35 38 39 40 41 42 |44 |
564764.000000us| 1 2 3 4 5 6 7 9 11 12 13 14 17 19 23 24 25 29 32 34 36 37 40 42 43 |26 |
768162.000000us| 0 1 2 3 4 5 6 7 8 9 11 12 13 14 15 16 17 18 19 20 21 22 24 25 26 28 29 30 31 32 34 35 36 37 38 39 41 42 43 44 45 |27 |
8600.000000us| 6 17 20 45 |16 |
678764.000000us| 0 2 3 4 5 9 12 14 16 17 19 21 24 29 31 33 35 43 |11 |
738019.000000us| 0 1 2 3 4 5 6 7 8 9 10 11 12 13 14 15 16 17 18 19 20 21 22 23 24 25 26 27 28 29 30 31 32 33 34 35 36 37 38 39 40 41 43 44 45 |42 |
1309506.000000us| 4 5 6 18 20 38 42 |45 |
662372.000000us| 0 1 2 3 4 5 6 7 8 10 11 12 13 14 15 19 20 22 23 24 25 26 27 28 29 31 32 33 34 36 37 38 39 40 41 42 43 45 |9 |
687943.000000us| 0 1 3 4 7 8 9 10 11 12 13 14 16 18 19 20 21 22 23 24 25 26 27 28 29 30 31 32 33 34 35 37 39 42 44 |17 |
749447.000000us| 2 3 7 9 13 15 24 25 26 34 36 38 41 42 43 44 |23 |
772962.000000us| 1 3 25 31 35 37 39 41 43 |34 |
1029539.000000us| 9 14 15 22 23 24 33 43 45 |11 |
614425.000000us| 0 1 2 3 4 5 6 7 8 9 10 11 12 13 14 16 17 18 19 21 23 24 26 27 28 29 30 31 32 33 34 35 36 38 39 40 41 42 43 45 |20 |
594004.000000us| 0 1 2 6 7 9 10 11 13 14 15 16 18 19 21 22 24 25 26 27 28 37 38 43 45 |8 |
690444.000000us| 0 4 6 9 10 15 16 20 21 23 26 27 28 29 31 32 36 37 38 39 42 43 44 |11 |
553991.000000us| 1 2 3 5 7 10 11 13 14 17 18 20 21 24 26 27 29 30 31 32 33 34 36 37 39 40 41 42 43 45 |8 |
674298.000000us| 0 1 3 5 6 7 8 9 10 12 13 15 16 17 19 21 22 23 24 26 28 29 30 32 34 35 36 37 38 39 41 42 44 45 |27 |
763806.000000us| 20 24 28 32 33 35 44 45 |3 |
566468.000000us| 0 3 5 10 12 14 15 16 17 18 19 21 25 26 28 30 33 34 35 36 37 38 39 40 43 45 |9 |
2441377.000000us| 10 11 16 17 18 34 39 42 45 |19 |
768736.000000us| 0 1 2 3 4 5 6 7 8 11 12 15 16 17 18 19 20 21 22 23 27 28 29 30 32 33 34 36 37 38 39 40 41 42 43 44 45 |25 |
509038.000000us| 4 21 22 32 35 38 |10 |
51.000000us| 9 |17 |
716175.000000us| 0 1 2 3 4 6 7 10 13 14 17 20 24 25 26 27 30 31 33 36 38 39 40 43 44 45 |22 |
768034.000000us| 0 1 2 3 4 5 6 7 8 9 10 11 13 15 16 17 18 19 20 21 22 23 24 25 26 27 28 29 30 32 33 34 35 36 37 38 39 40 41 42 43 44 45 |31 |
389.000000us| 5 11 |25 |
672518.000000us| 3 6 11 16 19 20 22 27 29 37 38 41 44 |42 |
696946.000000us| 0 6 7 8 13 17 19 20 25 27 32 36 37 38 39 41 |44 |
688513.000000us| 2 4 5 6 7 8 10 13 21 22 23 26 28 29 31 32 35 36 45 |34 |
710372.000000us| 4 5 8 9 10 13 14 17 27 30 31 32 33 34 35 36 37 39 41 42 43 44 45 |12 |
648200.000000us| 4 6 9 11 12 15 16 17 19 20 22 25 27 28 29 30 31 35 36 40 41 42 44 |7 |
650340.000000us| 0 2 5 6 10 12 15 18 21 24 26 27 31 35 36 38 40 41 42 43 44 45 |7 |
570714.000000us| 1 2 3 4 11 13 15 18 19 20 24 25 26 28 34 36 37 38 39 41 45 |40 |
484376.000000us| 0 1 2 3 4 5 6 7 11 14 15 16 18 22 23 24 25 27 28 29 30 33 34 35 38 40 42 43 45 |37 |
610149.000000us| 0 2 4 7 17 20 21 22 26 29 30 31 33 34 36 38 39 40 42 45 |12 |
759864.000000us| 0 2 4 8 11 12 13 15 16 21 22 24 28 31 33 34 35 36 37 39 45 |14 |
2088609.000000us| 5 13 18 23 25 30 32 38 |27 |
563007.000000us| 0 1 2 4 6 7 8 9 11 13 14 15 19 21 22 23 24 25 26 27 29 30 33 34 35 37 39 44 45 |41 |
615821.000000us| 0 1 2 4 6 8 9 10 12 13 14 17 18 21 23 25 26 27 28 29 31 32 33 34 35 36 39 40 41 42 43 45 |24 |
982590.000000us| 0 1 11 26 28 38 39 45 |25 |
674079.000000us| 2 4 6 8 10 11 12 14 15 16 17 18 19 21 22 26 30 33 34 35 36 38 42 43 44 45 |40 |
114.000000us| 24 |14 |
285696.000000us| 8 17 33 36 38 39 40 |41 |
197864.000000us| 3 28 36 38 39 |44 |
655855.000000us| 1 2 4 5 6 9 11 16 17 18 19 20 21 22 23 24 25 27 28 29 30 32 34 35 37 38 39 40 42 43 44 45 |12 |
986264.000000us| 0 3 25 26 38 39 |44 |
1439286.000000us| 3 9 14 22 25 26 |18 |
619915.000000us| 1 2 3 4 5 6 7 9 10 11 16 17 19 20 23 27 29 30 31 32 34 38 39 40 41 42 44 45 |13 |
0.000000us| |4 |
106956.000000us| 2 8 22 33 37 44 |43 |
706188.000000us| 0 2 3 6 8 11 13 14 16 17 18 19 20 25 28 29 30 31 33 35 36 39 41 45 |26 |
675512.000000us| 0 2 3 4 5 7 8 9 11 13 16 19 20 21 23 25 26 27 29 30 31 34 35 36 37 38 39 40 42 43 44 45 |17 |
596112.000000us| 0 1 2 3 4 6 7 8 10 11 12 13 14 15 16 18 19 20 21 23 24 25 31 32 33 34 35 36 38 39 40 42 |22 |
22724.000000us| 12 13 23 33 |4 |
688885.000000us| 0 1 3 4 5 7 9 10 11 13 14 15 16 17 18 19 20 21 22 24 25 26 27 30 32 33 34 35 36 37 38 39 40 41 42 43 44 45 |2 |
886127.000000us| 0 3 4 6 9 10 11 12 15 17 18 21 22 27 28 29 31 40 41 |26 |
773373.000000us| 0 2 4 6 7 8 9 10 11 13 14 17 18 20 22 23 24 25 26 27 28 29 30 33 34 35 36 38 39 40 41 42 44 |31 |
769612.000000us| 0 1 2 3 4 5 6 8 9 11 12 13 14 15 16 17 18 19 20 21 22 23 24 25 26 27 28 29 30 31 32 33 34 35 37 38 39 40 41 42 43 44 45 |36 |
0.000000us| |3 |
486621.000000us| 1 5 8 9 10 11 13 15 17 18 19 20 21 23 24 28 30 32 33 35 36 37 39 40 42 44 |3 |
1086558.000000us| 8 10 11 15 20 22 24 30 35 |29 |
94.000000us| 16 |30 |
900577.000000us| 0 2 3 4 5 6 8 9 11 12 13 14 15 16 18 21 23 24 27 31 33 39 40 45 |30 |
689343.000000us| 4 10 13 14 21 28 29 34 35 39 40 |32 |
752113.000000us| 0 1 2 3 4 5 7 8 9 10 11 12 14 15 16 17 18 19 20 21 22 23 25 26 28 29 30 31 32 33 35 36 37 39 40 41 42 43 44 45 |34 |
704176.000000us| 0 1 2 3 4 5 9 10 11 12 13 14 15 17 18 20 21 22 23 24 25 26 27 28 29 30 31 32 33 34 36 37 38 40 41 42 43 44 |19 |
902.000000us| 0 29 |14 |
606361.000000us| 0 1 2 5 6 7 9 11 14 15 18 19 21 22 24 26 27 29 34 35 36 37 38 41 42 43 44 45 |16 |
2723047.000000us| 2 15 17 18 26 29 41 45 |4 |
700905.000000us| 0 1 2 3 4 5 6 7 8 9 10 11 12 13 14 15 16 18 19 20 21 24 25 26 28 29 31 32 33 34 35 36 37 38 39 40 41 42 43 44 45 |27 |
603660.000000us| 0 1 2 3 5 6 7 9 10 13 14 18 19 20 23 24 25 26 28 29 30 31 32 33 34 35 36 38 39 43 45 |21 |
0.000000us| |21 |
678765.000000us| 0 1 2 3 4 5 7 9 10 12 13 14 17 18 19 20 21 22 23 24 25 26 27 29 31 32 34 35 39 40 41 44 45 |8 |
593493.000000us| 0 2 3 4 5 6 11 12 14 15 16 17 18 19 20 21 23 24 25 26 27 29 32 33 34 35 36 37 38 39 40 42 43 |30 |
769893.000000us| 0 1 2 3 4 6 7 8 10 11 12 13 14 15 16 17 18 19 20 21 22 23 24 26 28 29 30 32 33 34 36 37 38 39 40 41 42 43 44 |31 |
236888.000000us| 8 10 22 26 41 45 |6 |
862254.000000us| 2 3 4 6 9 12 13 15 16 17 22 23 28 30 34 37 41 43 |10 |
496451.000000us| 0 1 5 6 7 8 9 10 11 12 13 15 17 18 19 23 26 28 29 30 32 33 34 35 36 38 39 42 43 44 45 |3 |
11597.000000us| 1 12 38 44 |22 |
299745.000000us| 0 4 19 31 36 |28 |
622725.000000us| 1 2 3 5 6 8 10 11 12 13 14 16 18 19 23 26 27 28 29 30 31 32 34 35 36 37 38 40 44 45 |43 |
731520.000000us| 1 4 12 14 19 22 24 27 33 37 41 42 |10 |
16029.000000us| 6 10 16 44 |43 |
657569.000000us| 0 3 4 9 14 15 16 18 22 26 30 31 34 40 42 44 |19 |
628315.000000us| 1 2 4 5 6 8 11 12 13 14 17 19 22 25 26 29 31 34 35 36 38 39 40 41 42 43 45 |20 |
719390.000000us| 2 4 7 8 10 11 12 13 15 16 18 19 20 21 22 23 24 25 26 27 28 29 30 33 34 36 37 38 40 42 43 45 |5 |
799940.000000us| 3 5 6 10 12 13 16 17 20 21 23 25 26 29 31 32 33 36 38 39 40 42 43 44 |28 |
843960.000000us| 0 2 3 5 7 9 13 14 16 20 22 23 24 27 28 30 32 33 34 36 38 41 44 |15 |
1047057.000000us| 3 4 7 13 16 18 19 27 32 43 44 |38 |
670996.000000us| 0 1 2 3 4 5 6 7 9 11 15 16 18 20 21 22 24 26 27 28 29 30 33 34 38 39 40 41 42 43 44 45 |10 |
808114.000000us| 0 7 12 14 19 21 23 24 25 29 32 36 37 38 41 44 |39 |
600218.000000us| 2 22 24 29 31 35 39 |8 |
699706.000000us| 1 2 4 5 7 8 9 10 11 13 15 16 17 18 19 20 21 22 23 25 26 27 28 32 33 34 35 36 37 38 39 40 41 43 44 45 |31 |
694547.000000us| 0 1 2 4 5 6 7 8 9 11 12 13 14 15 16 17 18 19 21 22 23 24 25 26 27 28 29 30 32 33 34 35 36 37 38 40 41 42 43 44 45 |20 |
731509.000000us| 0 1 2 3 5 6 7 8 9 10 13 14 15 16 17 18 19 20 21 22 23 24 25 26 27 28 29 30 31 32 33 34 35 36 37 38 39 40 41 42 43 44 |45 |
726214.000000us| 0 12 14 17 20 33 42 45 |19 |
755827.000000us| 0 1 2 3 4 5 6 7 8 9 10 11 12 13 14 15 16 19 20 22 23 24 25 26 27 28 29 30 31 32 33 34 35 36 37 38 39 40 41 42 43 44 45 |21 |
752281.000000us| 1 4 8 13 18 19 20 21 22 25 26 27 30 32 33 34 36 37 41 |15 |
725041.000000us| 0 2 3 4 6 7 8 9 10 11 12 13 14 15 16 17 18 19 21 22 23 25 26 27 28 29 31 32 33 34 35 36 37 38 39 40 42 43 44 45 |24 |
28832.000000us| 19 21 26 29 |33 |
784455.000000us| 0 1 2 3 4 6 7 8 9 10 11 13 14 15 16 17 18 19 20 21 22 23 24 25 26 28 30 31 32 33 34 35 36 37 38 39 40 41 42 43 44 45 |29 |
632297.000000us| 8 11 15 16 17 18 20 24 27 28 36 38 41 43 45 |3 |
730551.000000us| 3 4 5 8 13 16 20 21 22 25 26 28 29 34 35 38 39 40 41 45 |7 |
731858.000000us| 2 4 5 6 9 11 12 18 21 22 23 26 28 32 34 42 43 44 |35 |
666696.000000us| 0 3 5 6 7 10 13 17 18 20 21 24 27 29 30 32 33 34 35 38 40 41 42 45 |16 |
100.000000us| 6 |27 |
631737.000000us| 0 2 6 8 12 15 19 20 21 24 26 28 29 30 31 33 34 35 37 38 40 44 |13 |
1603596.000000us| 1 3 4 16 20 21 22 31 35 40 |18 |
714097.000000us| 3 4 6 7 22 28 30 31 32 35 45 |33 |
742295.000000us| 3 6 7 10 12 22 28 31 32 40 42 |30 |
700751.000000us| 1 10 14 18 19 25 26 28 29 31 34 37 |13 |
2020.000000us| 40 41 43 |21 |
726398.000000us| 0 1 2 3 5 7 8 9 10 11 12 14 17 18 19 21 22 23 24 25 26 27 28 29 30 31 32 33 34 35 37 39 40 41 42 43 44 45 |36 |
458050.000000us| 6 13 14 21 22 26 27 |31 |
643230.000000us| 0 1 2 3 4 5 6 7 8 9 11 12 13 15 17 18 19 20 22 23 24 25 26 27 28 30 31 33 40 42 43 44 45 |29 |
104285.000000us| 7 20 33 38 41 42 |29 |
727522.000000us| 0 1 2 3 6 7 8 9 10 11 12 13 14 15 16 17 18 19 20 21 22 24 25 26 27 28 29 30 31 32 33 34 35 36 37 39 40 41 43 44 45 |38 |
664739.000000us| 0 3 4 5 6 11 12 14 16 17 18 19 21 23 24 28 32 34 35 36 37 38 39 40 42 44 |9 |
700452.000000us| 0 1 2 4 5 6 7 8 9 13 16 17 18 20 23 24 25 26 27 29 30 31 32 33 34 35 36 39 45 |10 |
3987.000000us| 4 14 41 |1 |
743819.000000us| 0 1 2 3 4 5 6 7 8 9 10 11 12 13 14 15 16 17 18 19 20 21 22 23 24 25 26 27 28 29 30 31 32 33 34 35 36 37 38 39 40 41 42 44 45 |43 |
887193.000000us| 2 5 6 8 12 13 14 20 22 26 30 31 34 36 42 45 |25 |
59.000000us| 22 |42 |
717566.000000us| 0 2 3 4 5 6 7 8 9 10 11 12 13 14 15 16 18 19 20 21 22 23 24 26 27 28 29 30 31 32 33 34 35 36 37 38 39 40 41 42 43 45 |25 |
12800.000000us| 1 12 21 32 |20 |
766371.000000us| 0 2 3 4 5 6 8 9 10 11 12 13 14 15 16 17 19 20 22 23 24 25 26 27 28 29 30 31 33 34 35 36 37 39 40 41 42 43 44 45 |21 |
607008.000000us| 1 2 3 4 6 8 9 10 11 12 14 16 17 19 20 22 24 25 26 27 28 30 32 33 34 35 36 37 39 44 45 |0 |
675249.000000us| 6 7 10 13 15 16 17 18 21 22 26 27 28 30 31 32 34 36 38 45 |40 |
747043.000000us| 3 5 7 8 10 11 12 13 14 15 16 17 18 19 20 21 22 23 24 25 26 27 28 29 30 32 33 34 35 37 39 40 41 42 43 44 |36 |
714197.000000us| 2 4 7 10 11 12 15 30 35 37 38 39 45 |31 |
733542.000000us| 1 3 7 15 16 17 20 23 31 43 |5 |
768248.000000us| 1 2 3 4 5 6 7 8 9 10 11 12 13 14 15 16 17 19 20 21 22 23 24 25 26 27 28 29 30 31 32 33 34 35 36 38 39 40 41 42 43 44 45 |0 |
704907.000000us| 3 6 7 8 10 13 14 22 29 |44 |
686545.000000us| 0 2 5 6 7 8 9 10 11 13 15 20 25 28 30 31 33 35 36 37 38 41 |27 |
634596.000000us| 0 1 2 3 8 10 15 19 20 21 22 23 24 25 26 27 28 30 31 34 35 36 37 38 39 41 44 45 |32 |
878311.000000us| 0 4 5 7 8 9 10 11 12 13 16 18 21 24 25 27 28 30 33 34 37 38 40 42 43 44 |15 |
643944.000000us| 1 3 7 8 9 10 19 23 27 29 31 37 38 40 41 43 |15 |
75.000000us| 0 |3 |
574551.000000us| 0 3 4 5 7 9 12 13 14 15 17 18 19 20 21 24 25 26 32 33 34 35 37 38 40 41 42 45 |29 |
586184.000000us| 0 1 3 4 5 6 8 9 12 15 16 17 18 21 22 23 24 25 28 29 30 32 34 35 36 39 41 42 44 |10 |
81626.000000us| 1 18 20 29 |14 |
600460.000000us| 0 2 3 5 7 10 11 16 17 19 20 23 26 28 31 32 33 34 35 38 40 45 |29 |
768190.000000us| 0 1 2 3 4 5 6 7 8 9 11 12 13 14 15 16 17 18 19 20 21 22 23 26 27 28 29 30 31 32 33 34 35 36 37 38 40 41 42 43 44 45 |25 |
611351.000000us| 1 4 6 7 8 9 10 11 12 13 14 15 17 21 22 23 25 26 28 29 30 31 32 34 36 37 40 41 42 45 |20 |
590460.000000us| 1 2 5 6 7 8 10 11 12 13 14 15 18 19 20 21 22 23 24 27 28 29 30 32 33 34 37 40 44 |0 |
720190.000000us| 2 3 4 5 8 13 17 18 24 25 26 29 31 40 |36 |
591558.000000us| 1 2 8 11 16 21 24 25 32 33 36 37 38 42 43 44 45 |4 |
627632.000000us| 0 1 2 3 4 5 6 11 14 16 17 20 22 23 27 30 33 36 39 40 42 43 |35 |
726993.000000us| 0 1 2 3 4 5 6 7 8 9 10 11 12 13 14 15 16 17 18 19 21 22 23 25 26 27 28 29 30 31 32 33 35 36 37 38 39 40 41 42 43 44 45 |24 |
895229.000000us| 2 4 5 7 9 10 12 13 15 16 22 23 26 27 30 31 33 35 36 37 38 40 41 42 43 44 |39 |
579655.000000us| 0 5 12 15 23 27 |29 |
942663.000000us| 2 3 6 8 9 10 13 14 16 17 18 25 27 30 44 |5 |
12147.000000us| 4 6 35 43 |5 |
646326.000000us| 0 3 4 5 6 7 8 10 11 12 14 15 16 17 19 20 21 23 24 26 27 28 30 31 32 33 34 35 36 38 39 40 41 42 43 44 45 |13 |
684500.000000us| 0 2 5 6 8 9 10 11 13 16 17 18 20 22 23 24 25 26 27 28 29 32 33 35 38 41 42 43 44 45 |19 |
161740.000000us| 5 17 19 20 29 38 |27 |
769903.000000us| 0 1 2 3 4 5 6 7 8 9 10 11 12 13 14 15 17 18 19 20 21 22 23 25 26 27 28 29 30 31 32 33 34 35 36 37 38 39 41 42 43 44 45 |16 |
735287.000000us| 1 2 5 10 13 14 16 17 20 21 22 23 27 28 30 32 33 35 36 37 38 39 40 42 43 |15 |
741465.000000us| 0 1 2 3 5 9 10 11 12 13 14 15 16 17 18 19 20 21 22 23 25 26 27 28 29 30 32 34 35 36 37 38 39 41 42 43 44 |33 |
668385.000000us| 1 2 3 4 6 7 8 10 13 14 17 19 25 26 29 30 31 32 33 34 35 41 42 43 44 |11 |
736520.000000us| 0 1 2 3 4 5 6 7 8 9 10 11 12 13 14 15 16 17 18 19 20 21 22 23 24 25 26 27 28 29 30 31 32 33 34 35 36 37 38 39 40 41 43 44 45 |42 |
727169.000000us| 0 1 2 3 4 5 6 7 8 9 10 11 12 13 14 15 16 17 19 21 22 23 25 26 27 29 30 32 33 34 35 36 37 38 39 40 41 42 43 44 |20 |
878320.000000us| 0 5 9 15 16 30 33 40 41 |42 |
7147.000000us| 2 14 36 42 |22 |
590795.000000us| 0 1 4 7 9 10 11 12 16 17 19 23 25 26 28 29 30 31 32 33 34 35 37 38 40 43 44 45 |42 |
655340.000000us| 2 3 4 5 6 11 12 15 17 18 20 22 23 24 25 29 30 32 33 34 36 38 40 42 43 |31 |
719551.000000us| 0 1 2 5 6 7 8 9 10 11 12 13 15 16 17 19 20 21 22 23 24 25 26 27 28 30 31 32 33 34 35 36 37 38 39 40 41 42 43 44 45 |18 |
630478.000000us| 1 2 6 12 25 26 27 30 32 34 35 36 38 39 41 42 45 |14 |
705849.000000us| 0 1 2 3 4 5 6 7 8 10 11 12 13 14 15 16 17 18 19 20 21 22 23 24 25 26 27 28 29 30 31 32 33 34 35 36 37 39 40 41 42 43 45 |44 |
871549.000000us| 4 9 11 12 13 15 21 26 27 28 32 34 36 38 39 44 |35 |
609506.000000us| 1 3 4 6 7 8 9 10 12 13 16 18 19 20 21 24 25 28 29 31 32 33 36 38 40 41 42 43 |22 |
0.000000us| |42 |
731608.000000us| 0 1 2 3 4 5 6 7 8 9 10 12 13 14 15 16 17 18 19 20 21 22 23 24 25 26 27 28 29 30 31 32 33 34 35 36 37 38 39 40 41 42 43 44 45 |11 |
653553.000000us| 0 1 2 5 7 8 11 13 16 20 24 26 27 28 32 33 37 38 39 42 43 45 |22 |
623896.000000us| 1 3 6 8 9 10 11 13 15 16 18 20 21 22 23 24 26 27 28 30 31 32 33 34 36 38 39 41 42 43 44 45 |40 |
601321.000000us| 3 14 22 25 27 30 31 41 42 44 45 |34 |
541968.000000us| 0 1 8 9 10 14 15 20 22 24 25 26 28 29 31 32 34 37 38 40 41 45 |4 |
696845.000000us| 1 3 5 6 7 8 9 10 11 12 13 14 16 17 18 19 21 22 24 26 28 29 30 32 33 34 35 36 39 40 41 42 43 44 45 |15 |
681084.000000us| 0 1 2 4 5 6 7 9 10 12 13 14 15 16 17 18 19 20 21 22 23 24 25 26 27 29 30 31 32 33 34 35 37 38 39 40 41 42 43 44 45 |3 |
650035.000000us| 1 2 3 5 13 14 18 23 24 25 31 33 35 36 44 |26 |
691432.000000us| 1 2 8 9 11 12 13 14 18 22 25 26 28 29 32 34 40 41 42 43 44 45 |33 |
697356.000000us| 1 6 7 8 10 13 18 24 29 30 32 33 39 40 43 |0 |
630598.000000us| 0 1 3 6 7 8 11 13 14 15 18 19 22 23 24 26 27 29 30 32 34 35 36 37 38 40 41 43 44 45 |16 |
761243.000000us| 2 4 5 6 7 8 10 11 12 13 16 17 18 19 20 22 23 24 25 26 31 32 33 34 36 38 39 40 41 42 44 |29 |
888920.000000us| 0 1 2 3 4 5 6 8 9 11 12 13 14 15 16 17 18 19 20 21 22 23 24 26 27 28 29 30 31 32 33 34 37 38 39 40 41 42 43 44 45 |36 |
642689.000000us| 0 1 3 4 7 8 9 10 13 16 17 18 19 22 23 25 27 28 29 30 31 33 35 36 37 38 40 41 45 |12 |
615161.000000us| 2 3 5 6 8 9 13 18 21 24 25 26 27 29 30 33 34 35 37 40 41 42 43 44 45 |17 |
758474.000000us| 0 1 2 3 4 5 7 8 9 10 11 12 13 14 15 16 17 18 19 20 21 22 23 24 25 26 27 28 29 30 31 32 33 34 35 36 37 38 39 40 41 42 44 45 |43 |
3156.000000us| 27 32 43 |29 |
1297.000000us| 15 17 35 |1 |
628320.000000us| 0 1 3 4 8 9 11 12 13 15 16 19 22 26 27 28 31 32 33 34 35 36 37 41 44 |20 |
879.000000us| 19 21 |24 |
767896.000000us| 0 1 2 3 4 5 6 7 8 9 10 11 12 13 15 16 17 19 20 21 22 23 24 25 26 27 28 29 30 31 32 33 34 35 36 37 38 40 41 42 43 44 45 |39 |
498442.000000us| 0 1 2 4 9 14 15 17 19 20 21 23 26 28 29 30 35 38 39 40 45 |37 |
571723.000000us| 1 3 4 5 7 8 10 17 18 19 22 24 26 29 31 32 33 37 41 42 43 45 |9 |
628815.000000us| 0 2 3 4 5 7 8 11 12 16 18 19 23 24 26 27 31 32 33 34 35 37 38 41 43 44 45 |25 |
131.000000us| 41 |29 |
139.000000us| 17 |10 |
511087.000000us| 0 1 2 3 4 6 7 8 9 10 11 12 15 16 18 20 21 23 24 25 26 27 28 29 30 31 32 33 34 35 37 38 39 40 42 43 45 |41 |
584235.000000us| 0 3 5 6 7 12 15 18 19 20 24 29 33 35 37 39 44 45 |36 |
672798.000000us| 0 3 4 5 9 12 17 18 19 20 26 27 31 32 45 |24 |
0.000000us| |24 |
810201.000000us| 0 3 8 9 10 11 12 14 19 21 22 23 24 25 32 37 38 42 43 |36 |
51008.000000us| 1 3 6 8 24 |5 |
633179.000000us| 2 5 6 7 10 16 17 20 24 25 26 28 29 31 34 35 37 39 40 43 |12 |
761885.000000us| 0 1 2 3 5 6 7 8 9 10 11 14 15 16 17 18 19 20 22 24 25 26 27 29 30 31 32 34 35 36 37 39 41 42 43 44 45 |38 |
556631.000000us| 1 2 3 4 5 6 7 9 10 11 12 14 15 17 18 20 21 23 25 26 27 28 30 32 33 34 37 38 40 41 42 43 44 45 |0 |
694898.000000us| 4 5 6 8 9 11 12 13 15 17 18 19 20 21 22 23 24 25 26 29 30 31 32 34 35 37 38 39 41 42 44 |2 |
2446569.000000us| 5 8 9 10 13 15 18 20 22 23 30 |41 |
766113.000000us| 0 3 6 8 9 12 13 14 15 16 17 18 19 21 23 24 25 27 30 31 34 35 36 39 40 41 42 43 |29 |
735977.000000us| 0 1 3 4 5 6 7 8 9 10 11 12 13 14 15 16 17 18 19 20 21 22 23 25 26 27 28 29 30 31 32 33 34 36 37 38 39 40 41 42 43 44 45 |24 |
621242.000000us| 0 1 2 3 4 5 6 7 8 9 10 12 13 14 15 16 18 19 20 21 22 23 24 25 26 27 28 30 31 32 33 34 35 36 37 38 40 41 42 43 45 |39 |
757223.000000us| 3 5 6 11 18 22 28 31 34 40 42 45 |29 |
1799196.000000us| 5 7 8 10 12 13 18 24 |40 |
768615.000000us| 0 1 2 3 4 5 6 7 8 10 11 12 13 14 15 16 17 18 19 20 21 22 23 24 26 27 28 29 30 31 32 33 34 35 36 38 39 40 41 42 43 44 45 |25 |
727462.000000us| 0 1 2 3 5 6 7 8 9 10 11 12 13 14 15 17 18 19 21 22 23 24 25 26 27 28 29 30 31 32 33 34 35 36 38 39 40 41 42 43 44 45 |37 |
0.000000us| |28 |
607526.000000us| 0 1 2 3 4 5 6 7 8 9 10 11 13 14 16 17 18 19 21 22 24 25 26 27 31 32 33 34 35 36 37 38 40 42 45 |20 |
517094.000000us| 1 2 5 6 8 9 10 12 18 19 22 23 24 25 27 28 30 32 33 38 39 40 41 42 43 44 45 |3 |
666030.000000us| 1 2 3 4 6 7 8 9 10 11 12 13 14 15 16 17 18 19 20 21 23 25 28 29 30 31 33 34 35 36 40 41 42 44 45 |39 |
755066.000000us| 5 8 10 11 13 15 17 22 23 25 26 27 28 29 32 33 34 38 40 42 43 |20 |
565403.000000us| 0 1 3 4 7 8 9 11 12 13 14 15 17 20 21 25 26 29 30 31 35 36 37 38 39 41 42 |2 |
637735.000000us| 0 1 3 6 7 8 10 13 16 20 21 25 26 27 29 31 33 34 35 36 37 40 41 42 43 |28 |
558723.000000us| 5 7 9 13 15 16 17 24 31 32 39 40 42 45 |34 |
570857.000000us| 0 1 2 3 4 6 7 8 9 10 12 13 14 15 16 17 18 20 21 23 24 25 26 27 28 29 30 31 32 33 34 35 36 37 38 39 40 41 42 43 45 |5 |
655260.000000us| 0 1 2 3 6 7 8 10 11 12 13 14 15 16 18 20 22 23 24 25 26 27 29 30 31 32 33 34 35 36 37 40 41 42 44 45 |43 |
817375.000000us| 3 4 7 8 10 12 14 21 22 23 24 28 29 30 31 32 34 38 40 43 44 |11 |
596699.000000us| 0 1 3 6 7 14 17 20 21 24 27 29 30 32 33 35 36 39 40 43 |41 |
768663.000000us| 0 10 14 15 23 24 28 32 34 38 40 45 |7 |
956926.000000us| 1 7 10 13 19 34 37 44 45 |33 |
561875.000000us| 1 6 15 17 22 29 30 34 38 41 42 44 45 |0 |
900887.000000us| 3 4 21 24 27 39 42 43 |35 |
751332.000000us| 0 1 2 3 5 6 7 8 9 10 11 12 13 14 16 17 18 19 20 21 22 23 24 25 26 27 28 29 30 31 32 33 36 37 39 41 42 43 44 45 |15 |
68.000000us| 31 |26 |
38427.000000us| 0 11 23 27 |40 |
1086947.000000us| 3 4 7 16 19 30 32 41 |36 |
11112.000000us| 20 21 35 |18 |
581051.000000us| 0 3 5 6 8 9 10 11 16 18 19 22 23 26 27 29 31 33 34 36 37 40 42 44 45 |39 |
594365.000000us| 3 6 7 15 20 24 27 28 32 34 36 39 |2 |
521663.000000us| 1 2 3 4 5 6 8 9 10 11 12 13 14 15 17 18 19 23 24 26 27 28 29 30 31 32 33 34 35 37 38 39 40 44 45 |20 |
706.000000us| 0 11 |22 |
536073.000000us| 0 1 2 4 5 6 7 8 9 10 16 17 18 20 21 22 23 24 26 27 30 31 32 34 35 36 37 39 42 43 44 45 |41 |
654671.000000us| 2 11 12 15 20 25 26 27 28 30 31 33 36 37 39 40 43 44 45 |41 |
30477.000000us| 14 21 26 29 |10 |
753499.000000us| 2 5 7 9 10 11 13 15 18 19 24 25 27 29 31 32 36 39 45 |37 |
777964.000000us| 0 3 4 5 8 9 11 12 13 14 17 18 22 23 26 29 30 32 33 34 35 38 40 42 43 45 |44 |
853496.000000us| 6 8 15 19 21 22 30 38 |34 |
770353.000000us| 0 1 2 3 4 5 6 7 8 10 11 12 13 14 15 16 17 18 19 20 21 22 23 24 25 26 27 28 29 30 31 32 33 34 35 36 37 38 39 40 41 42 43 44 45 |9 |
772752.000000us| 0 1 2 3 4 5 6 7 8 9 10 11 12 13 14 15 16 17 18 19 20 21 22 23 24 25 26 27 28 29 30 31 32 33 34 35 37 38 39 40 41 42 43 44 45 |36 |
670336.000000us| 3 4 5 6 7 8 9 11 12 13 15 16 19 21 22 23 24 25 27 28 29 32 33 35 36 38 39 41 42 43 44 45 |34 |
652313.000000us| 1 4 9 10 12 13 15 17 18 21 23 24 27 28 29 31 32 33 34 35 36 37 38 40 42 44 45 |43 |
711828.000000us| 1 2 4 7 8 10 12 13 14 16 17 18 19 21 22 23 25 26 27 28 29 30 31 32 34 35 38 39 40 41 42 43 44 |33 |
0.000000us| |36 |
769096.000000us| 0 1 2 3 5 6 7 8 9 10 11 13 14 15 16 17 18 19 20 21 22 23 24 25 26 27 28 30 31 32 33 34 35 36 37 39 40 41 42 43 44 45 |12 |
794266.000000us| 1 2 4 8 9 10 13 18 24 25 27 28 35 36 38 40 45 |22 |
0.000000us| |0 |
768116.000000us| 1 2 11 13 17 30 39 42 43 |9 |
770191.000000us| 0 1 2 3 4 5 6 8 9 10 11 12 13 14 15 16 17 18 19 20 21 22 23 24 25 26 27 28 29 30 31 32 33 34 35 36 37 38 39 40 41 42 43 44 45 |7 |
651853.000000us| 0 2 7 9 16 17 18 19 21 22 23 24 28 29 31 33 34 37 38 39 43 44 |35 |
8984.000000us| 13 20 25 45 |5 |
709296.000000us| 0 1 2 3 4 5 8 9 10 11 14 15 16 17 19 20 21 22 24 26 27 28 30 31 33 34 36 37 38 39 40 41 43 45 |35 |
819817.000000us| 0 2 9 12 13 16 21 22 26 31 32 34 38 39 41 44 45 |11 |
603711.000000us| 1 5 6 8 16 21 28 29 34 35 36 42 45 |10 |
846699.000000us| 0 2 3 11 14 19 27 34 |41 |
656470.000000us| 0 1 2 3 4 5 6 8 9 10 11 13 14 16 18 19 21 22 23 24 25 26 27 28 29 30 31 32 33 34 35 36 37 38 39 40 41 42 45 |7 |
665167.000000us| 2 5 8 10 12 14 15 18 22 28 29 35 37 41 45 |25 |
0.000000us| |27 |
769822.000000us| 0 1 2 3 4 6 7 8 9 10 11 12 13 14 15 16 17 18 19 20 21 22 23 24 25 26 27 28 29 30 31 32 33 34 35 36 37 38 39 40 41 42 43 44 45 |5 |
756252.000000us| 0 1 2 3 4 5 6 7 8 9 10 11 12 13 14 15 16 17 18 19 20 21 22 23 24 25 26 27 28 29 30 31 32 33 34 35 36 37 39 40 41 42 43 44 45 |38 |
688127.000000us| 2 4 5 7 8 9 10 12 14 15 16 17 18 19 20 21 22 23 25 26 27 28 29 30 31 35 36 37 38 40 41 42 43 45 |3 |
593368.000000us| 1 2 4 6 7 9 10 11 12 14 20 21 22 25 26 27 28 29 31 32 33 34 36 37 38 39 41 42 43 45 |8 |
687224.000000us| 0 3 4 5 6 7 8 9 12 13 14 16 17 18 19 20 22 23 24 25 26 27 28 29 31 34 35 36 37 39 40 41 42 43 44 45 |10 |
1076.000000us| 30 41 |22 |
839983.000000us| 3 16 18 19 23 26 27 29 33 45 |20 |
708385.000000us| 0 2 3 4 5 6 7 8 9 12 14 15 17 19 20 21 22 24 25 26 27 28 29 30 31 32 33 34 35 36 39 40 42 43 44 45 |18 |
766217.000000us| 0 1 3 5 6 9 10 12 13 16 17 18 19 22 25 26 28 30 31 32 33 41 45 |11 |
629765.000000us| 8 9 16 24 25 26 32 39 41 44 |19 |
711915.000000us| 0 2 3 4 5 6 7 8 9 10 12 13 14 15 17 18 19 20 21 22 23 24 25 26 27 28 29 30 31 32 33 34 35 36 37 38 39 40 41 42 43 45 |16 |
2401.000000us| 2 34 40 |32 |
480358.000000us| 0 1 3 4 5 6 7 9 10 11 14 15 16 17 19 22 23 24 27 33 34 35 37 38 39 42 43 45 |2 |
0.000000us| |44 |
807481.000000us| 0 5 10 12 18 20 31 38 39 40 42 |45 |
561449.000000us| 1 3 5 7 11 13 16 17 18 20 21 23 24 26 27 28 29 30 35 37 38 41 42 43 44 45 |12 |
190920.000000us| 3 4 9 11 25 40 |39 |
1221.000000us| 11 20 37 |39 |
546344.000000us| 1 2 3 4 5 6 7 8 9 10 13 14 16 17 20 21 30 31 34 35 37 39 42 43 45 |11 |
333.000000us| 26 43 |25 |
708235.000000us| 0 1 2 3 4 5 6 7 8 9 10 11 12 13 14 15 16 17 18 19 20 21 23 24 25 26 27 28 29 30 31 32 33 34 35 36 37 38 39 40 41 42 43 44 45 |22 |
634754.000000us| 0 4 5 6 8 9 10 13 15 16 17 18 19 21 22 23 24 25 26 27 28 29 30 32 33 34 35 36 39 41 42 43 44 |11 |
949291.000000us| 10 19 20 22 28 30 34 37 39 |29 |
693492.000000us| 0 1 2 3 4 5 6 7 8 12 14 17 18 19 21 22 26 27 29 30 31 32 33 34 35 36 37 38 39 40 41 43 44 45 |23 |
488040.000000us| 1 2 5 9 10 11 12 13 14 15 16 17 18 25 26 28 29 31 32 33 34 35 37 39 40 41 42 43 44 45 |36 |
0.000000us| |10 |
2247535.000000us| 0 7 9 18 26 29 32 |21 |
750528.000000us| 0 1 9 12 14 16 18 21 22 28 31 33 35 36 45 |37 |
563164.000000us| 1 2 3 5 6 8 9 10 11 12 13 14 19 24 25 27 28 29 30 38 41 42 44 45 |36 |
774239.000000us| 0 1 2 3 4 5 6 7 8 9 10 11 12 13 14 15 16 17 18 19 20 21 22 23 24 25 27 28 29 30 31 32 33 34 35 36 37 38 39 40 41 42 43 44 45 |26 |
829277.000000us| 3 6 7 8 9 10 12 14 16 18 20 27 28 29 36 37 38 39 40 42 |44 |
664166.000000us| 0 1 6 10 11 12 13 15 16 17 19 20 21 22 25 26 27 28 30 34 37 38 40 42 44 |39 |
526615.000000us| 1 3 4 5 6 8 9 12 14 16 20 22 23 26 28 29 34 35 36 37 39 40 41 45 |33 |
682794.000000us| 0 4 5 7 10 14 17 20 21 22 23 26 27 30 31 32 33 34 35 36 37 41 43 44 |12 |
712568.000000us| 0 1 2 3 4 6 7 8 9 10 11 12 13 16 17 20 22 24 25 26 28 30 31 35 36 38 39 40 42 44 45 |19 |
770294.000000us| 0 1 2 3 4 5 6 7 8 9 10 11 12 13 14 15 16 17 18 19 20 21 22 23 24 25 26 27 28 29 30 31 32 33 34 35 36 37 38 40 41 42 43 44 45 |39 |
111532.000000us| 7 27 34 35 42 |32 |
201476.000000us| 6 15 28 36 |18 |
747427.000000us| 0 1 2 3 4 5 6 8 9 10 11 12 13 14 15 16 17 18 19 20 21 22 23 25 26 27 28 29 30 31 32 33 34 35 36 38 39 40 41 42 44 45 |43 |
0.000000us| |33 |
544436.000000us| 1 3 5 9 11 13 19 20 21 25 33 36 38 41 45 |18 |
567797.000000us| 0 1 5 6 7 8 9 11 12 16 17 20 21 22 24 25 28 29 30 32 33 34 35 36 37 38 40 43 44 |23 |
0.000000us| |38 |
432881.000000us| 16 31 33 35 36 40 43 |29 |
631654.000000us| 4 5 8 12 16 21 26 27 28 29 33 36 40 41 43 45 |32 |
1424493.000000us| 5 8 9 10 12 18 21 25 28 34 39 |32 |
593541.000000us| 2 3 4 5 6 10 12 13 15 16 17 19 20 23 24 25 26 27 28 29 31 35 36 37 38 41 42 45 |9 |
931552.000000us| 12 23 25 26 36 40 41 |0 |
655972.000000us| 2 3 7 9 10 11 16 17 19 24 25 26 27 28 29 32 33 35 37 38 39 41 42 45 |34 |
36.000000us| 43 |8 |
668451.000000us| 0 2 4 5 7 8 9 11 12 15 17 20 21 22 23 25 29 30 31 33 35 36 37 38 39 40 41 43 44 45 |10 |
1328922.000000us| 1 7 14 16 18 23 24 39 44 45 |15 |
1752504.000000us| 1 3 8 11 17 18 29 31 36 40 |5 |
942113.000000us| 2 3 7 8 10 12 13 14 18 19 20 21 22 23 25 26 27 29 32 33 34 36 40 42 43 44 |17 |
656196.000000us| 0 1 4 5 6 7 8 9 10 11 12 13 14 16 17 19 20 21 22 24 25 26 27 28 29 30 31 32 33 34 36 37 39 41 42 43 45 |44 |
748258.000000us| 0 1 4 5 7 10 13 14 15 16 20 22 23 24 26 27 28 29 30 31 33 36 39 40 43 44 45 |42 |
625382.000000us| 1 2 3 4 5 10 14 15 16 19 24 38 41 |17 |
767135.000000us| 0 1 2 3 4 5 6 7 8 9 10 11 12 13 14 15 17 18 19 20 21 22 23 24 25 26 27 28 29 30 31 32 33 34 35 36 37 38 39 40 42 43 44 45 |41 |
736747.000000us| 0 4 5 7 8 9 10 11 12 13 15 20 27 28 31 32 36 37 40 41 42 43 45 |25 |
765370.000000us| 0 1 2 3 7 8 11 12 13 14 15 16 17 20 21 22 23 24 26 27 28 31 32 33 34 35 36 37 38 40 41 42 43 44 |10 |
756717.000000us| 0 1 2 3 4 5 6 7 8 9 10 11 12 13 14 15 16 17 18 19 20 21 22 23 24 25 26 27 29 30 31 32 33 34 35 36 37 39 40 41 42 43 44 45 |38 |
669752.000000us| 0 1 2 3 4 5 6 7 8 9 10 12 13 14 15 17 18 20 21 22 24 25 26 27 29 30 32 33 34 35 36 37 38 39 41 44 45 |40 |
0.000000us| |22 |
604099.000000us| 0 1 2 3 7 9 10 11 13 14 15 16 17 19 20 23 25 28 29 31 32 33 34 36 37 38 39 40 41 42 43 |4 |
548342.000000us| 0 2 4 5 6 7 12 14 15 16 17 20 22 23 24 25 27 29 30 31 33 34 36 37 38 39 40 41 42 43 44 45 |26 |
770532.000000us| 0 1 2 3 4 5 6 7 8 9 10 11 12 13 14 15 16 17 18 19 20 21 22 23 24 26 27 28 29 30 31 32 33 34 35 36 37 38 39 40 41 42 43 44 45 |25 |
757553.000000us| 0 1 2 3 4 7 8 9 10 11 12 13 15 16 17 19 20 21 22 23 24 26 27 28 29 30 32 33 34 35 36 39 40 41 42 43 44 45 |14 |
165785.000000us| 5 9 12 14 17 23 |27 |
818686.000000us| 3 6 10 17 18 20 24 25 27 30 31 |15 |
19043.000000us| 2 3 11 25 43 |41 |
54549.000000us| 18 24 34 43 |20 |
693516.000000us| 0 2 3 5 6 8 10 13 14 15 16 17 19 20 22 24 25 26 27 28 30 31 38 39 40 41 42 43 44 45 |23 |
631734.000000us| 2 5 8 11 12 13 14 18 20 21 23 26 29 30 33 34 36 37 39 41 42 43 44 45 |22 |
715759.000000us| 0 1 2 3 4 5 6 7 8 10 11 12 13 15 16 17 18 19 22 23 24 25 28 29 30 31 32 33 34 35 36 37 38 39 40 41 42 43 44 45 |27 |
614172.000000us| 0 2 3 8 10 11 12 14 15 16 17 18 20 21 23 24 25 26 27 28 29 30 31 32 35 36 37 39 44 45 |1 |
707793.000000us| 2 4 5 6 7 8 9 10 11 12 13 14 15 16 17 18 19 20 21 22 23 24 25 26 27 28 30 32 33 34 35 36 38 39 40 41 42 44 45 |1 |
571197.000000us| 0 1 2 7 13 16 18 20 21 24 25 27 33 37 42 43 45 |44 |
596885.000000us| 0 1 4 6 9 10 11 12 13 14 16 17 19 20 21 23 24 27 29 31 34 35 36 38 39 43 45 |37 |
577094.000000us| 0 1 3 5 6 9 10 11 12 13 14 16 17 18 19 20 21 24 25 27 28 29 30 41 42 43 45 |33 |
709787.000000us| 0 2 4 6 8 9 13 15 17 19 20 21 22 24 25 26 27 28 29 32 33 35 36 41 42 44 |1 |
973225.000000us| 2 4 6 7 11 18 19 33 35 40 43 44 |17 |
707618.000000us| 0 1 2 3 4 5 6 7 9 10 11 12 13 14 15 16 17 18 19 20 21 22 23 24 25 26 27 28 29 30 31 32 33 34 36 37 38 39 40 41 42 43 45 |8 |
639732.000000us| 2 4 5 7 8 9 10 14 17 19 20 21 22 23 24 29 34 35 37 38 40 42 43 45 |26 |
665118.000000us| 0 4 5 6 7 14 15 19 20 21 24 30 34 39 41 43 |37 |
1122593.000000us| 7 8 18 32 41 45 |19 |
759328.000000us| 0 1 2 5 8 9 11 13 14 17 18 20 24 27 33 34 35 36 |37 |
738701.000000us| 0 1 2 3 4 5 6 7 8 9 10 12 13 14 15 16 17 18 19 20 21 22 23 24 25 26 27 28 29 30 31 32 33 34 35 36 38 39 40 41 42 43 44 45 |11 |
859735.000000us| 0 1 24 27 29 34 36 42 43 |11 |
468212.000000us| 0 1 5 7 9 11 12 13 15 16 19 20 21 23 27 28 29 32 36 37 40 42 43 44 45 |33 |
488.000000us| 2 20 37 |5 |
707928.000000us| 0 2 3 6 7 8 11 12 14 15 17 18 20 21 22 25 26 27 29 31 32 34 38 39 40 41 43 |10 |
436.000000us| 3 12 |45 |
784430.000000us| 0 7 12 13 22 25 27 31 32 39 40 |24 |
550598.000000us| 4 13 16 18 21 25 26 30 32 34 35 42 |20 |
771003.000000us| 0 2 3 4 5 6 7 8 9 10 11 12 13 14 15 16 17 18 19 20 21 22 23 24 25 26 27 28 29 30 31 32 33 34 35 36 37 38 39 40 41 42 43 44 45 |1 |
907450.000000us| 3 5 6 10 12 13 14 16 17 19 21 22 24 25 26 33 34 36 37 38 39 40 42 43 44 |18 |
510538.000000us| 0 1 2 3 5 9 12 13 17 18 19 20 21 23 26 30 34 37 42 43 44 45 |15 |
788442.000000us| 0 1 2 3 4 5 6 7 8 9 10 11 12 13 14 15 16 17 18 19 20 21 22 23 24 25 26 27 28 30 31 32 33 34 35 36 37 38 39 40 41 42 43 44 45 |29 |
709975.000000us| 0 2 5 6 7 8 9 10 14 17 21 23 25 27 29 30 32 33 35 36 37 39 |34 |
645261.000000us| 2 3 5 14 20 21 22 27 29 30 31 41 43 |34 |
770399.000000us| 0 1 2 3 5 6 7 8 9 10 11 12 14 15 17 18 19 20 21 22 24 25 26 27 28 29 30 31 32 33 34 35 36 37 38 40 41 42 43 44 45 |39 |
752004.000000us| 2 3 4 5 7 8 9 10 11 12 13 14 17 19 20 21 22 24 25 26 27 29 30 32 33 35 37 38 41 42 44 45 |1 |
642710.000000us| 0 1 2 3 4 5 6 7 8 9 10 11 12 13 14 15 16 17 18 19 21 23 24 25 27 28 29 30 31 32 33 34 35 36 37 39 40 41 42 43 44 45 |22 |
640587.000000us| 2 3 5 8 9 10 11 13 15 16 18 21 24 25 26 28 29 30 32 39 43 44 |1 |
775168.000000us| 0 3 6 10 12 13 16 19 20 21 25 26 27 28 29 30 32 34 36 37 38 39 40 41 43 44 |5 |
648611.000000us| 1 3 4 5 6 9 10 11 12 13 14 16 17 18 19 21 22 23 24 27 29 30 32 33 34 35 36 37 38 39 41 42 43 45 |0 |
1001925.000000us| 3 4 5 10 11 12 13 15 33 38 39 41 43 |35 |
696210.000000us| 0 1 2 3 4 6 8 11 13 18 21 22 25 26 28 29 33 35 38 40 42 45 |37 |
699684.000000us| 0 1 2 3 4 5 6 7 8 9 10 11 14 15 16 17 18 19 20 21 22 23 24 25 27 28 29 32 34 36 37 38 39 40 42 43 45 |13 |
748316.000000us| 3 9 10 13 14 18 20 21 22 24 25 26 27 28 30 33 34 35 36 39 40 |37 |
686658.000000us| 0 1 2 3 4 5 6 7 8 10 11 12 13 14 15 16 17 18 19 20 21 24 25 27 28 29 30 32 33 34 35 36 37 39 41 42 43 44 45 |40 |
693847.000000us| 0 1 2 3 5 6 7 9 10 11 12 13 14 15 17 18 19 20 21 22 23 24 25 27 28 30 31 32 33 35 36 37 38 40 42 43 44 45 |29 |
125652.000000us| 4 13 15 17 31 |41 |
587304.000000us| 0 1 2 3 4 9 12 14 15 16 19 20 22 23 24 30 31 35 37 42 43 |26 |
941074.000000us| 8 13 14 20 21 22 26 28 40 43 44 |27 |
654923.000000us| 2 3 4 7 10 11 15 17 21 28 35 36 |14 |
1381459.000000us| 11 16 17 18 25 39 43 |20 |
580067.000000us| 1 5 7 9 11 15 24 25 27 29 33 39 43 |36 |
647957.000000us| 1 2 3 6 7 8 9 10 12 13 14 16 17 18 22 23 24 25 26 27 28 29 30 31 33 34 36 37 38 39 40 41 42 43 44 45 |4 |
638116.000000us| 0 2 3 5 6 9 15 18 20 21 28 32 33 34 37 39 42 44 |7 |
13204.000000us| 25 32 40 42 |20 |
551149.000000us| 0 3 4 5 6 8 9 13 15 16 18 19 20 21 23 24 26 27 28 29 30 31 32 33 34 36 37 38 39 40 42 43 44 45 |2 |
794625.000000us| 3 4 5 6 12 14 15 18 23 25 27 32 33 34 |42 |
617524.000000us| 0 1 4 8 9 10 11 12 13 19 20 23 24 25 26 28 29 31 33 34 35 36 37 38 41 42 |30 |
744579.000000us| 0 1 2 3 4 5 7 8 9 10 11 13 15 16 18 20 21 22 23 24 25 26 27 28 29 31 32 33 34 35 36 37 38 39 40 41 42 43 44 45 |19 |
602659.000000us| 1 5 8 9 14 17 20 28 34 38 42 43 45 |11 |
769837.000000us| 0 1 2 3 4 5 6 7 8 9 10 11 12 13 14 15 16 17 18 19 20 21 22 23 24 25 26 27 28 29 30 32 33 34 36 37 38 39 40 41 42 43 44 45 |31 |
550163.000000us| 0 4 5 7 16 19 20 21 25 26 27 29 33 34 41 42 |3 |
804028.000000us| 0 1 3 4 10 12 13 14 17 20 24 25 30 31 32 34 35 40 |37 |
813711.000000us| 1 2 7 8 9 10 11 12 14 21 23 24 25 27 28 29 31 32 33 39 40 |30 |
668615.000000us| 2 6 8 10 14 17 28 29 31 33 34 35 38 44 45 |25 |
727051.000000us| 2 3 5 6 9 10 12 13 16 17 19 21 22 25 27 29 30 36 39 41 44 |20 |
1010.000000us| 24 28 |25 |
819207.000000us| 0 4 18 22 23 25 32 35 36 |20 |
949481.000000us| 6 7 8 9 10 11 12 13 17 20 21 25 26 27 33 35 36 38 45 |1 |
3210998.000000us| 5 18 26 27 33 34 35 |22 |
705119.000000us| 0 2 3 6 7 8 9 10 13 14 15 16 17 19 22 23 25 26 28 29 30 31 32 33 35 36 38 39 40 42 45 |34 |
2074.000000us| 7 11 45 |15 |
901069.000000us| 5 11 19 20 26 29 33 37 43 |32 |
804332.000000us| 0 2 3 6 7 8 9 10 11 12 13 14 15 16 17 18 19 20 21 22 23 24 25 27 28 29 30 31 32 33 36 37 38 39 40 42 44 45 |43 |
920896.000000us| 0 2 3 9 12 18 19 20 21 22 23 24 25 27 40 42 43 44 |37 |
770404.000000us| 0 1 2 3 4 5 6 7 8 9 10 11 12 13 14 15 16 17 18 19 20 21 22 23 24 25 26 27 28 29 30 31 32 33 34 35 36 37 38 39 40 41 42 43 44 |45 |
813926.000000us| 1 6 7 8 12 13 16 18 20 22 25 26 30 31 32 34 36 37 39 40 41 42 |3 |
770092.000000us| 0 1 2 3 4 5 6 7 8 9 10 11 12 13 14 15 16 17 18 19 20 21 22 23 24 25 26 27 28 29 30 31 32 33 34 35 36 37 38 39 40 41 42 43 44 |45 |
637443.000000us| 3 7 8 12 14 15 17 18 21 22 23 26 28 29 34 36 37 41 43 44 45 |1 |
699548.000000us| 2 7 8 10 13 14 15 16 17 19 20 23 26 27 28 30 32 34 39 41 44 45 |5 |
5423.000000us| 12 22 37 |16 |
689510.000000us| 1 4 6 7 10 11 17 22 23 29 32 39 42 45 |34 |
712765.000000us| 0 1 3 4 5 6 9 10 11 16 17 18 19 20 21 22 24 26 27 28 29 30 31 33 35 37 39 40 41 42 43 44 45 |2 |
705498.000000us| 2 3 5 6 7 8 9 10 12 13 16 17 18 19 20 22 23 24 26 29 30 33 36 39 40 41 43 44 45 |35 |
695288.000000us| 0 9 11 13 17 21 25 26 28 41 |34 |
8437.000000us| 23 31 36 |24 |
716490.000000us| 3 6 10 13 15 19 27 28 29 31 32 35 42 43 |17 |
772980.000000us| 0 1 2 3 4 6 7 8 9 10 11 12 13 14 15 16 17 18 19 20 21 22 23 24 25 27 28 29 30 31 32 33 35 36 37 38 39 40 41 42 43 44 45 |34 |
669045.000000us| 0 1 2 3 4 6 8 9 10 11 12 13 14 15 16 17 19 20 23 24 25 26 27 30 31 32 33 35 36 37 38 39 40 41 42 43 44 45 |5 |
710117.000000us| 0 1 2 3 4 5 6 7 9 10 12 13 14 15 16 17 18 19 20 21 22 23 24 25 26 27 28 29 30 31 32 34 35 36 37 40 41 42 43 44 45 |38 |
539771.000000us| 1 2 7 8 9 10 11 15 17 19 22 23 24 27 28 32 36 38 40 45 |16 |
665520.000000us| 4 6 9 11 13 14 17 19 24 25 27 29 37 41 44 45 |16 |
795525.000000us| 10 16 23 34 35 36 40 41 |15 |
692744.000000us| 0 1 2 3 4 5 6 8 10 11 13 14 15 17 18 19 21 22 23 25 26 27 28 29 30 33 34 35 39 40 41 42 43 45 |31 |
601022.000000us| 1 2 3 4 7 9 10 13 14 15 16 19 20 24 25 27 28 29 30 31 32 33 36 37 38 39 40 42 |18 |
0.000000us| |3 |
604002.000000us| 3 10 15 21 23 25 26 27 35 40 41 43 |33 |
25579.000000us| 8 25 30 38 |41 |
681024.000000us| 0 2 4 12 24 27 |45 |
707165.000000us| 0 3 5 7 14 18 22 27 29 32 34 35 36 41 42 |37 |
769920.000000us| 0 1 2 3 4 5 6 7 8 9 10 11 12 13 14 15 16 17 18 19 20 21 22 23 25 26 27 28 29 30 31 32 33 34 35 36 37 38 39 40 41 42 43 44 45 |24 |
813493.000000us| 4 13 14 16 18 23 30 32 34 38 44 45 |41 |
662894.000000us| 1 3 4 5 13 16 19 20 24 26 32 37 40 41 |18 |
587706.000000us| 2 6 8 9 15 17 18 20 21 22 25 26 31 33 35 37 |24 |
698271.000000us| 0 1 2 3 4 5 7 8 9 10 11 12 13 14 15 16 18 19 20 21 22 23 24 26 27 28 29 30 31 32 33 34 37 38 39 40 41 42 45 |25 |
598580.000000us| 0 2 5 8 14 20 24 25 29 30 32 45 |7 |
797266.000000us| 0 1 9 10 11 12 15 17 18 21 24 32 33 35 44 |6 |
720780.000000us| 0 4 9 12 20 38 44 45 |11 |
564744.000000us| 0 1 2 4 5 6 7 8 9 10 12 13 14 15 16 17 18 19 20 21 24 25 26 28 30 31 34 35 36 38 40 41 42 44 45 |23 |
16244.000000us| 18 28 37 |5 |
720383.000000us| 0 3 4 5 6 8 9 10 12 14 16 17 18 19 20 21 22 23 24 25 26 27 28 29 31 32 33 34 35 36 37 38 40 41 42 43 44 |39 |
0.000000us| |36 |
816310.000000us| 2 3 5 6 10 11 12 13 16 18 19 22 23 24 25 28 30 31 32 33 35 37 39 44 |9 |
757788.000000us| 1 2 4 13 16 18 19 21 22 23 24 28 29 31 32 33 36 39 41 44 |27 |
77822.000000us| 12 20 30 32 41 |45 |
663606.000000us| 0 2 6 8 9 10 18 19 20 21 24 26 29 31 33 34 35 44 |1 |
14924.000000us| 7 16 20 28 |21 |
