4697.000000us| 15 17 21 26 27 28 |30 |
13479.000000us| 0 4 5 6 9 12 28 30 33 |17 |
23478.000000us| 0 1 3 8 10 11 12 15 17 19 21 23 24 25 27 28 30 |31 |
2181.000000us| 12 34 |4 |
32891.000000us| 0 1 2 3 4 5 6 7 8 9 10 11 13 15 16 17 18 19 20 21 22 23 24 25 26 27 28 30 31 32 33 34 |14 |
33954.000000us| 0 1 2 3 4 5 6 7 8 9 10 11 12 14 15 16 17 18 19 20 21 22 23 24 25 26 27 28 29 30 31 32 33 34 |13 |
15348.000000us| 1 2 5 8 11 14 20 21 23 32 |7 |
31676.000000us| 0 2 3 4 6 7 8 9 10 11 12 13 14 15 16 18 19 21 22 23 24 25 26 27 29 31 32 33 34 |28 |
1818.000000us| 19 |21 |
19906.000000us| 0 7 11 12 14 18 20 21 24 25 27 28 30 31 34 |17 |
22219.000000us| 1 2 4 7 11 12 14 15 16 19 22 24 25 29 31 32 33 |18 |
6213.000000us| 4 12 18 20 25 26 |21 |
2066.000000us| 3 18 |28 |
28165.000000us| 0 1 2 3 6 9 11 12 13 14 15 16 17 20 21 22 23 25 26 27 29 30 31 32 33 34 |7 |
25549.000000us| 0 1 2 3 5 7 10 12 13 14 15 17 19 22 24 26 27 28 30 31 32 34 |4 |
21086.000000us| 0 2 3 7 10 12 13 19 20 21 26 27 29 34 |18 |
1691.000000us| 28 |19 |
31421.000000us| 1 2 3 4 5 6 8 11 12 13 14 15 16 17 18 19 20 21 22 23 24 25 27 28 29 30 32 33 34 |0 |
22559.000000us| 0 5 7 8 9 11 15 18 21 22 24 25 28 30 31 32 34 |12 |
3504.000000us| 10 28 29 34 |12 |
21633.000000us| 0 5 6 7 9 12 13 17 18 20 22 24 26 29 34 |2 |
21699.000000us| 5 9 11 12 14 16 17 18 20 21 22 24 26 27 29 30 31 |1 |
34099.000000us| 0 1 2 3 4 5 6 7 8 9 10 11 12 13 14 15 16 17 18 19 21 22 23 24 25 26 27 28 29 30 31 32 33 34 |20 |
1711.000000us| 17 |13 |
22349.000000us| 0 2 3 4 6 9 10 15 18 19 21 24 26 29 30 32 34 |16 |
22676.000000us| 0 1 2 4 7 9 10 11 12 19 20 25 26 31 32 34 |33 |
21893.000000us| 5 8 9 10 13 15 17 20 24 26 27 28 29 30 31 32 33 34 |25 |
24105.000000us| 0 1 2 4 5 6 7 10 12 14 16 19 20 22 23 24 28 29 31 32 33 34 |26 |
29061.000000us| 1 4 5 6 7 9 10 11 12 13 14 15 16 17 18 19 20 22 23 24 26 28 29 32 34 |30 |
22107.000000us| 0 1 3 4 6 7 11 12 14 18 20 21 22 26 28 30 33 34 |19 |
20542.000000us| 0 2 7 8 9 10 11 12 16 20 21 23 24 26 28 33 |32 |
24281.000000us| 0 1 2 3 4 5 8 9 10 14 16 18 22 24 25 27 28 29 30 31 32 34 |21 |
31890.000000us| 0 1 2 3 4 5 6 7 9 10 11 12 13 14 15 16 17 18 19 20 22 23 24 25 26 28 29 30 31 32 33 34 |27 |
17349.000000us| 1 3 4 5 6 13 22 26 28 29 31 32 33 34 |27 |
17033.000000us| 2 4 6 13 14 15 20 21 22 24 25 31 |17 |
29631.000000us| 1 2 3 4 6 7 8 9 10 11 12 18 19 20 21 22 23 24 25 26 28 29 30 31 32 34 |15 |
27238.000000us| 0 1 4 5 6 7 9 11 12 14 15 19 20 21 22 23 24 26 27 28 29 30 33 34 |25 |
30525.000000us| 0 2 3 5 6 7 8 9 11 12 13 14 16 17 19 22 23 24 25 26 27 28 29 30 32 33 34 |1 |
15701.000000us| 3 13 14 15 18 24 25 26 27 29 30 |32 |
17198.000000us| 0 3 9 14 20 22 24 27 28 29 30 32 |16 |
2678.000000us| 0 2 32 |34 |
16862.000000us| 5 8 9 17 19 20 21 24 25 30 33 |16 |
19652.000000us| 0 2 3 5 6 16 17 19 21 24 25 29 32 |26 |
2087.000000us| 5 25 |26 |
2050.000000us| 23 31 |15 |
28519.000000us| 0 1 2 3 5 6 9 10 11 12 13 14 15 16 17 18 20 22 23 24 25 26 28 29 30 31 |32 |
19412.000000us| 0 1 5 8 12 17 22 24 25 26 28 29 31 33 |10 |
32739.000000us| 0 1 2 3 4 5 6 7 8 9 10 11 12 13 14 15 16 17 18 19 20 21 22 23 24 27 28 30 31 32 33 34 |29 |
24073.000000us| 0 1 2 3 8 11 15 17 19 20 22 23 24 28 29 30 31 34 |6 |
17632.000000us| 0 4 7 9 10 12 21 22 23 26 30 32 |5 |
19988.000000us| 3 5 6 7 8 10 12 14 16 20 21 27 28 29 33 34 |0 |
3042.000000us| 9 14 26 28 |32 |
33632.000000us| 0 1 2 3 4 5 6 7 8 9 10 11 13 14 15 16 17 18 19 20 21 22 23 24 25 26 27 28 29 30 31 32 34 |33 |
20234.000000us| 0 4 8 11 12 14 16 18 22 23 25 27 29 30 31 |32 |
31385.000000us| 0 1 6 8 9 10 11 12 13 14 15 16 17 18 19 20 21 22 23 24 25 27 28 29 30 31 32 33 34 |5 |
10334.000000us| 2 5 9 16 21 26 27 30 |13 |
25843.000000us| 0 1 5 6 7 9 10 11 12 15 16 17 18 20 22 25 26 27 28 30 31 32 33 |14 |
24821.000000us| 0 4 5 6 7 9 12 14 15 18 19 20 22 23 24 27 28 29 32 33 34 |17 |
18030.000000us| 0 5 10 11 14 16 20 25 26 27 28 30 32 34 |19 |
24115.000000us| 0 5 7 8 12 13 14 17 18 19 22 24 25 27 29 30 31 |3 |
23826.000000us| 0 1 2 4 5 9 11 12 14 16 18 22 25 26 27 28 29 30 32 33 34 |13 |
21268.000000us| 1 2 3 4 5 6 7 12 13 15 20 23 26 27 29 31 |30 |
22485.000000us| 0 1 5 6 7 11 15 16 18 19 21 24 29 30 32 33 |28 |
25369.000000us| 0 2 3 4 8 12 13 15 16 17 18 22 23 24 27 28 29 30 31 32 33 34 |9 |
5424.000000us| 7 13 17 23 27 |10 |
10494.000000us| 11 14 15 26 28 33 34 |32 |
19768.000000us| 0 1 3 4 5 11 13 15 16 18 20 25 29 33 34 |24 |
2972.000000us| 4 5 15 29 |23 |
23124.000000us| 0 1 3 6 10 11 12 13 16 17 20 22 24 25 26 27 31 32 34 |4 |
20009.000000us| 6 7 9 13 15 17 23 24 26 32 33 34 |2 |
19920.000000us| 0 4 7 10 13 17 18 23 24 25 30 33 |9 |
21283.000000us| 0 2 4 7 8 11 17 19 25 28 29 30 31 32 34 |6 |
2209.000000us| 14 18 |17 |
28830.000000us| 0 1 3 4 6 7 9 11 13 14 15 16 17 18 19 22 23 24 25 28 29 32 33 34 |27 |
2939.000000us| 14 29 34 |27 |
34131.000000us| 0 1 2 3 4 5 6 7 8 9 10 11 12 13 14 15 16 17 18 19 20 21 22 23 24 25 26 27 28 30 31 32 33 34 |29 |
17890.000000us| 3 6 7 11 16 17 19 20 21 24 30 31 |10 |
1686.000000us| 15 |21 |
53873.000000us| 0 3 6 7 8 9 10 12 13 15 16 17 19 20 21 22 23 25 26 28 29 30 33 |4 |
46842.000000us| 0 1 2 3 5 6 7 8 9 10 14 15 16 17 19 21 23 24 25 26 27 28 30 31 32 33 34 |12 |
37683.000000us| 0 1 3 4 6 7 8 9 10 11 12 13 14 17 19 20 21 22 23 24 25 26 27 28 29 30 32 34 |33 |
22178.000000us| 1 3 4 5 6 7 8 9 10 12 14 16 17 23 25 26 32 |29 |
32204.000000us| 0 1 2 3 4 5 7 9 10 11 12 13 14 15 16 17 18 19 20 21 22 23 25 26 27 28 29 30 31 32 33 34 |6 |
20331.000000us| 0 1 3 5 6 8 10 14 15 20 24 25 27 28 29 31 32 |16 |
34238.000000us| 0 1 2 3 4 5 6 7 8 9 10 11 12 14 15 17 18 19 20 21 22 23 24 25 26 27 29 30 31 32 34 |13 |
24993.000000us| 0 1 2 5 8 9 10 13 15 18 20 21 22 27 28 29 30 31 |11 |
21058.000000us| 1 2 3 5 6 11 12 13 17 22 23 25 26 30 |32 |
32739.000000us| 0 2 3 4 5 7 8 9 11 12 13 14 15 16 17 18 19 20 21 23 24 25 26 28 29 30 31 33 34 |6 |
14814.000000us| 0 5 9 10 13 16 28 29 31 32 |14 |
23713.000000us| 0 1 2 3 4 10 13 15 16 17 18 19 20 22 24 26 28 30 31 32 |33 |
16398.000000us| 2 3 6 7 8 14 18 24 31 33 |26 |
18030.000000us| 0 5 8 12 16 18 19 23 28 29 31 |7 |
28014.000000us| 0 1 3 4 5 6 7 9 10 11 12 13 15 16 18 19 20 21 22 24 27 28 29 30 31 33 |14 |
27273.000000us| 1 2 3 4 6 9 10 12 14 15 16 17 18 19 20 21 22 24 26 27 28 29 30 31 33 34 |25 |
28976.000000us| 0 1 3 4 5 6 7 9 11 12 13 15 17 18 19 20 24 25 27 28 29 30 31 32 33 34 |2 |
30197.000000us| 0 1 2 3 4 5 7 8 11 12 13 14 15 16 17 18 19 20 21 23 25 27 29 30 31 32 34 |6 |
2528.000000us| 1 5 26 |25 |
18423.000000us| 5 6 9 11 13 18 20 22 23 27 29 30 31 |32 |
18998.000000us| 2 5 6 8 12 15 17 18 21 26 27 28 29 31 |24 |
24875.000000us| 1 4 5 7 8 9 10 11 14 15 17 18 20 22 28 29 31 32 33 34 |12 |
26450.000000us| 0 3 5 6 7 8 12 13 14 15 17 20 21 22 24 25 26 27 29 34 |10 |
14335.000000us| 1 3 7 19 22 25 31 32 |5 |
15833.000000us| 0 1 4 6 9 11 12 16 27 28 31 |34 |
16351.000000us| 1 9 11 14 16 18 21 25 26 27 28 29 |7 |
32674.000000us| 0 1 2 3 4 5 6 7 8 9 10 11 12 13 14 15 16 17 18 19 20 21 22 23 24 26 27 28 29 31 32 33 34 |25 |
29140.000000us| 0 1 2 3 4 5 7 8 9 10 11 13 14 15 16 19 20 21 22 24 25 26 28 30 32 33 |18 |
16025.000000us| 0 5 6 7 8 9 10 18 22 |16 |
21451.000000us| 2 3 7 11 12 13 16 18 19 24 25 26 28 33 |9 |
10697.000000us| 0 1 3 14 17 23 28 30 |2 |
20717.000000us| 0 1 3 5 7 9 16 17 19 21 28 30 31 |25 |
22188.000000us| 1 2 3 4 7 8 14 15 16 17 18 19 25 27 28 30 31 |23 |
33468.000000us| 0 1 2 3 4 5 6 7 8 9 10 12 13 14 15 16 17 18 20 21 22 23 24 25 26 27 28 29 30 31 32 33 34 |19 |
26099.000000us| 1 2 3 4 5 9 11 12 13 14 15 17 18 20 21 22 24 26 28 30 32 34 |25 |
9723.000000us| 1 2 20 23 26 27 28 31 |29 |
19878.000000us| 3 5 7 10 12 14 15 17 18 20 24 29 30 31 |33 |
20291.000000us| 0 1 2 4 5 10 19 20 21 23 24 26 27 28 29 30 34 |12 |
20995.000000us| 8 9 12 13 18 19 23 24 30 31 32 33 34 |22 |
22190.000000us| 1 3 4 9 10 12 13 14 15 17 19 21 22 24 25 28 30 |34 |
28006.000000us| 0 2 3 4 6 7 9 10 11 12 13 15 16 18 19 20 23 24 25 26 27 28 29 30 32 33 |17 |
22960.000000us| 2 4 5 6 8 13 14 16 20 21 22 23 24 25 27 28 29 31 32 34 |26 |
19576.000000us| 0 2 4 7 12 15 17 24 25 28 29 32 33 |20 |
25634.000000us| 0 1 2 3 4 5 6 8 10 12 13 14 15 16 17 18 21 23 24 26 28 30 33 |31 |
21672.000000us| 0 2 3 11 14 15 18 20 22 23 24 25 27 29 30 32 34 |19 |
27967.000000us| 0 3 4 5 6 7 8 10 11 12 14 16 17 19 20 21 24 25 26 27 29 30 32 33 34 |22 |
28964.000000us| 0 2 3 4 5 6 7 8 9 10 11 12 13 14 15 16 19 21 22 23 26 28 29 30 31 34 |27 |
19656.000000us| 7 11 13 14 21 22 23 25 26 31 32 34 |24 |
31125.000000us| 0 2 3 5 6 7 8 9 10 11 12 13 14 15 16 18 19 21 22 23 25 26 27 28 29 30 31 32 34 |17 |
33437.000000us| 0 1 2 3 4 5 6 7 8 9 10 11 12 13 14 15 16 17 18 19 21 22 23 24 25 26 28 29 30 31 32 33 34 |20 |
21359.000000us| 1 8 10 11 12 17 19 20 21 23 25 26 27 28 32 34 |6 |
22483.000000us| 2 8 9 10 12 16 18 19 23 24 25 27 28 29 30 31 32 34 |13 |
26761.000000us| 1 2 3 4 5 6 7 9 10 11 12 14 15 16 17 18 20 22 25 28 29 30 31 32 34 |0 |
29264.000000us| 0 1 2 3 4 5 6 7 8 9 10 11 12 13 14 16 18 21 22 23 25 26 29 30 31 32 33 |24 |
31870.000000us| 0 1 2 3 4 5 6 7 9 10 11 12 13 14 15 16 17 18 19 20 22 23 24 25 26 27 28 29 30 31 32 33 34 |8 |
31498.000000us| 0 1 2 4 5 6 7 8 10 11 12 13 14 15 16 17 18 19 20 22 23 24 25 26 28 29 30 31 32 33 34 |21 |
21290.000000us| 3 6 10 12 13 14 15 16 17 18 19 25 28 30 33 34 |21 |
33748.000000us| 0 1 2 3 4 5 6 7 8 9 10 11 12 13 14 15 16 17 18 20 21 22 23 24 25 26 27 28 29 30 31 32 34 |19 |
9450.000000us| 1 3 7 21 22 26 33 |10 |
17831.000000us| 1 6 9 12 13 14 23 25 27 28 29 32 |11 |
29511.000000us| 0 2 3 4 5 6 7 8 9 10 11 13 14 15 17 18 22 23 24 25 26 27 28 29 31 34 |19 |
5972.000000us| 5 14 20 26 27 |16 |
25745.000000us| 0 1 5 6 7 8 10 11 13 14 17 20 21 22 23 27 29 30 31 |2 |
27737.000000us| 0 1 2 5 7 8 9 10 11 13 14 15 17 18 19 21 24 26 28 29 33 34 |4 |
9587.000000us| 1 9 11 14 17 20 33 |30 |
26183.000000us| 0 2 3 8 10 11 12 13 16 18 19 20 21 23 24 26 27 30 31 32 34 |22 |
33621.000000us| 0 1 2 3 4 5 6 7 9 10 11 12 13 14 15 16 17 18 19 20 21 22 23 24 25 26 27 28 29 30 31 32 33 34 |8 |
7159.000000us| 2 4 10 15 19 26 |21 |
32851.000000us| 0 1 2 3 4 5 6 8 9 10 11 12 14 15 16 17 18 19 20 21 22 23 24 25 26 27 28 29 30 31 32 33 34 |7 |
25096.000000us| 2 3 5 9 10 12 13 14 15 18 19 20 21 22 23 27 28 29 30 32 33 34 |8 |
34140.000000us| 0 1 2 3 4 5 6 7 8 9 10 11 12 13 14 15 16 17 19 20 21 22 23 24 25 26 27 28 29 30 31 32 33 34 |18 |
25604.000000us| 3 4 7 8 9 10 11 13 18 20 22 24 25 26 27 29 30 31 32 33 34 |12 |
26350.000000us| 0 1 2 3 5 6 7 9 10 12 13 14 15 17 18 20 21 22 23 26 28 29 30 33 |8 |
22140.000000us| 1 3 7 11 13 14 19 21 25 27 29 30 34 |2 |
35098.000000us| 1 2 3 4 5 6 7 8 9 10 11 12 13 14 15 16 17 18 19 20 21 22 23 24 25 26 27 28 29 30 31 32 33 34 |0 |
26746.000000us| 0 1 2 3 4 5 6 7 8 10 13 16 17 19 20 23 24 26 27 28 29 30 |21 |
30690.000000us| 1 3 4 5 6 7 9 10 11 12 13 15 16 17 19 20 21 22 23 24 25 26 27 28 30 32 33 34 |29 |
33444.000000us| 0 1 2 3 4 6 7 8 9 10 11 12 14 15 16 17 18 19 20 21 22 24 25 26 27 28 29 30 31 32 33 34 |5 |
18311.000000us| 1 4 5 8 11 13 15 16 23 25 27 32 |33 |
18313.000000us| 3 11 13 14 18 19 20 22 27 31 33 |32 |
21776.000000us| 2 4 5 8 11 13 16 18 23 24 25 27 28 32 34 |0 |
4857.000000us| 11 13 26 27 |19 |
12934.000000us| 0 2 9 14 20 25 30 32 |18 |
34323.000000us| 0 1 2 3 4 5 6 7 8 10 11 12 13 14 15 16 17 18 19 20 21 22 23 24 25 26 27 28 29 30 31 32 33 34 |9 |
2689.000000us| 24 33 |4 |
3788.000000us| 3 4 11 22 26 |19 |
25575.000000us| 1 3 4 7 9 10 11 12 15 17 18 19 22 23 25 28 29 31 34 |16 |
12419.000000us| 1 4 7 22 24 25 27 31 |14 |
4781.000000us| 4 14 29 30 32 |9 |
30412.000000us| 1 2 3 4 5 6 7 8 9 10 11 12 14 15 16 17 18 19 20 21 22 25 26 28 29 30 31 32 34 |27 |
25407.000000us| 0 3 4 5 6 7 8 11 12 13 15 16 17 19 22 26 28 30 31 |23 |
23993.000000us| 1 2 3 5 6 7 8 11 14 15 18 22 24 26 27 28 29 30 32 34 |12 |
21333.000000us| 0 4 9 12 13 14 16 19 20 21 24 25 28 32 |17 |
25374.000000us| 1 2 3 5 7 8 9 10 11 14 15 16 17 21 24 26 27 28 31 32 34 |0 |
30163.000000us| 1 2 3 4 5 6 7 8 9 10 11 12 13 16 17 18 19 21 22 23 24 25 26 27 31 32 |0 |
31594.000000us| 0 1 2 3 4 5 6 7 9 10 11 12 13 17 18 19 20 21 22 23 24 25 26 27 28 29 30 31 32 34 |8 |
20462.000000us| 3 7 9 10 16 18 19 20 21 22 25 27 31 32 33 34 |13 |
26981.000000us| 2 7 8 10 11 12 13 15 16 17 18 19 20 21 23 24 26 27 29 30 31 32 |4 |
26916.000000us| 0 4 6 8 11 12 13 15 17 18 20 21 22 23 24 25 26 27 28 30 31 34 |2 |
16229.000000us| 6 9 14 17 18 21 22 25 26 29 33 |28 |
31856.000000us| 0 1 2 3 4 5 6 7 8 11 12 13 14 15 16 17 18 19 20 21 22 23 24 27 30 31 32 33 34 |26 |
5493.000000us| 2 13 14 34 |9 |
33190.000000us| 0 1 2 3 4 5 6 7 8 11 12 13 14 15 16 18 19 20 21 22 23 24 25 26 27 28 29 30 31 32 33 |9 |
14007.000000us| 8 13 16 17 20 22 28 30 |14 |
8519.000000us| 7 10 12 15 16 27 |13 |
24054.000000us| 0 1 2 5 7 9 10 11 14 18 20 21 23 24 26 29 31 32 33 34 |19 |
33380.000000us| 0 1 2 3 4 5 6 7 8 9 10 11 12 14 15 16 17 18 19 20 21 22 24 25 26 27 28 29 30 31 32 33 34 |13 |
25321.000000us| 0 1 4 5 7 9 10 12 13 14 18 19 22 23 24 26 27 28 31 32 |34 |
34523.000000us| 0 1 2 3 4 5 6 7 8 9 10 11 12 13 14 15 16 17 18 19 20 21 22 23 25 26 27 28 29 30 31 32 33 34 |24 |
15147.000000us| 1 3 8 18 20 22 26 28 31 32 |15 |
20782.000000us| 1 4 8 9 10 11 12 18 19 23 33 34 |30 |
20951.000000us| 0 1 2 3 7 8 13 14 22 24 26 30 31 |25 |
16289.000000us| 2 4 5 7 10 12 18 20 22 27 29 |24 |
29949.000000us| 1 2 3 4 5 8 9 10 11 12 14 15 16 17 18 19 20 21 22 23 25 26 27 29 30 31 32 34 |0 |
33514.000000us| 0 1 2 3 4 5 6 7 8 9 10 11 12 13 14 15 16 17 18 19 20 21 23 24 25 26 27 28 29 30 32 34 |31 |
19451.000000us| 3 4 6 12 15 17 18 20 21 27 28 29 30 32 34 |13 |
23203.000000us| 1 2 3 4 5 6 7 12 13 14 15 16 17 18 23 25 30 32 |22 |
27556.000000us| 0 2 3 4 5 6 7 10 11 15 16 17 18 19 21 22 23 24 25 26 28 29 30 32 33 34 |1 |
27020.000000us| 0 1 3 6 9 11 12 13 14 15 16 17 20 21 22 23 24 25 26 27 29 30 33 34 |32 |
34996.000000us| 0 1 2 3 4 5 6 7 8 9 11 12 13 14 15 16 17 18 19 20 21 22 23 24 25 26 27 28 29 30 31 32 33 34 |10 |
23997.000000us| 0 1 2 5 7 9 10 12 13 14 16 19 20 22 23 25 26 34 |6 |
33825.000000us| 0 1 2 3 4 6 7 8 9 10 11 12 13 14 15 16 17 18 19 20 21 22 23 24 25 26 27 29 30 31 32 34 |33 |
34674.000000us| 0 1 2 3 4 5 6 7 8 9 10 11 12 13 14 15 16 17 18 19 20 21 22 23 25 26 27 28 29 30 31 32 33 34 |24 |
18783.000000us| 1 2 4 5 7 13 15 22 23 26 28 29 31 32 |8 |
30865.000000us| 0 1 3 5 6 7 8 9 10 11 13 14 15 16 17 18 20 21 22 23 26 27 28 29 30 31 33 34 |2 |
4165.000000us| 0 1 8 23 31 |3 |
22954.000000us| 1 3 4 9 10 12 13 14 15 16 20 23 26 27 28 30 31 33 34 |7 |
34641.000000us| 0 2 3 4 5 6 7 8 11 15 16 17 18 19 20 21 22 23 25 26 27 28 29 31 32 33 34 |13 |
22016.000000us| 0 8 12 14 16 18 19 20 23 32 33 |24 |
14449.000000us| 1 2 8 12 14 16 17 31 |30 |
28834.000000us| 3 4 7 9 11 13 14 15 16 17 18 19 27 29 30 32 33 |26 |
38042.000000us| 1 2 3 4 6 7 8 9 10 11 12 13 14 15 16 17 18 19 20 22 23 24 25 26 27 28 29 30 31 32 33 34 |5 |
8535.000000us| 4 9 18 23 29 31 34 |14 |
26461.000000us| 0 2 5 6 7 8 10 11 12 13 16 17 20 21 26 30 32 33 |28 |
20733.000000us| 3 8 9 13 14 15 17 20 21 22 24 28 33 |27 |
19074.000000us| 0 3 14 19 20 24 25 28 29 31 34 |4 |
24187.000000us| 0 4 6 7 9 10 13 15 18 19 20 22 23 24 25 26 27 33 |2 |
35008.000000us| 0 1 2 3 4 5 6 7 8 9 10 11 12 13 14 15 16 17 18 19 20 21 22 23 24 25 26 27 28 29 30 32 33 34 |31 |
33456.000000us| 0 1 2 3 4 5 6 7 8 9 10 11 13 14 15 16 17 18 19 20 21 22 23 25 26 27 28 29 31 32 33 34 |30 |
9216.000000us| 1 5 9 11 16 17 24 29 |32 |
34862.000000us| 0 1 3 4 5 6 7 8 9 10 11 12 13 14 15 16 17 18 19 20 21 22 23 24 25 26 27 28 29 30 31 32 33 34 |2 |
2289.000000us| 25 |21 |
7221.000000us| 1 8 14 15 30 |34 |
17152.000000us| 2 4 9 10 11 12 14 17 20 27 31 32 |7 |
27391.000000us| 0 1 2 4 6 7 9 10 11 12 14 15 17 19 20 21 24 25 26 27 30 31 32 33 34 |29 |
32101.000000us| 0 1 2 4 5 7 8 9 10 12 13 14 15 16 17 18 20 21 22 23 24 26 27 28 29 30 31 32 34 |3 |
18194.000000us| 1 4 6 8 9 10 16 17 20 21 22 30 33 |2 |
27637.000000us| 0 1 2 3 5 6 7 10 11 12 13 14 15 16 17 18 20 21 24 26 27 28 30 31 32 33 |25 |
28844.000000us| 0 1 2 4 5 6 7 8 9 11 13 14 16 20 21 22 23 24 25 27 28 30 33 |29 |
1732.000000us| 0 |10 |
32933.000000us| 0 1 2 3 5 6 7 8 9 10 11 12 13 14 16 17 18 19 20 21 22 23 24 25 27 28 29 30 31 32 33 34 |15 |
10467.000000us| 1 8 15 18 21 32 34 |3 |
31057.000000us| 0 3 4 5 6 7 8 10 11 12 14 15 16 17 18 19 20 21 22 23 24 26 27 28 29 30 31 32 33 |34 |
22518.000000us| 0 2 3 4 6 9 10 12 14 16 19 20 23 24 25 26 29 30 |7 |
23412.000000us| 0 3 6 9 11 13 17 18 21 22 23 24 25 26 28 29 32 |16 |
25955.000000us| 0 1 3 4 5 6 7 10 13 14 16 17 18 20 22 23 24 26 27 31 32 34 |29 |
24398.000000us| 0 1 2 3 4 5 9 10 11 12 17 19 21 22 26 28 29 34 |27 |
30984.000000us| 0 1 2 3 4 5 6 8 9 10 11 12 13 15 16 17 18 19 20 21 23 24 25 26 28 29 30 31 33 34 |27 |
19399.000000us| 1 2 6 9 10 12 13 15 22 24 28 29 30 32 34 |3 |
17433.000000us| 4 5 10 12 13 17 18 20 23 28 32 |29 |
30135.000000us| 0 1 2 3 4 5 6 7 8 9 10 11 12 13 14 15 18 19 20 21 22 23 27 28 29 30 31 33 |34 |
16444.000000us| 1 3 4 6 15 18 19 26 27 28 29 33 |12 |
4517.000000us| 19 21 28 34 |7 |
8738.000000us| 3 4 6 10 16 17 18 24 33 |11 |
2329.000000us| 26 |30 |
0.000000us| |14 |
23164.000000us| 5 6 7 8 11 16 19 22 23 24 25 26 27 31 32 33 34 |20 |
2657.000000us| 8 20 26 |2 |
0.000000us| |4 |
21675.000000us| 0 3 5 6 8 9 10 12 14 16 17 20 26 27 28 29 30 |1 |
31308.000000us| 1 2 3 4 5 6 7 8 9 11 14 15 16 17 18 19 20 21 22 23 24 26 27 28 29 30 31 32 34 |0 |
29582.000000us| 0 3 5 7 8 10 12 13 14 16 18 19 20 21 22 23 24 25 26 29 30 31 32 33 34 |27 |
10959.000000us| 1 4 6 7 8 30 31 |20 |
2447.000000us| 3 12 32 |8 |
32625.000000us| 0 1 2 3 4 5 6 7 8 9 10 11 13 15 16 17 19 20 21 22 24 25 26 27 28 29 30 31 32 33 34 |14 |
10563.000000us| 0 2 5 7 15 30 |13 |
7688.000000us| 2 8 14 21 23 29 31 |32 |
4562.000000us| 11 13 16 19 |22 |
7564.000000us| 0 4 5 12 25 32 |16 |
33615.000000us| 0 1 3 4 5 6 7 8 9 11 12 13 14 15 16 17 18 19 20 21 22 23 25 26 27 28 29 30 31 |10 |
27867.000000us| 0 1 2 3 7 8 11 12 13 14 15 16 18 19 20 22 23 24 29 30 31 33 34 |21 |
20851.000000us| 0 2 3 4 5 11 16 18 24 25 27 30 32 33 34 |8 |
20217.000000us| 2 6 8 11 12 14 17 19 20 21 22 30 33 |31 |
5630.000000us| 5 9 10 21 22 24 28 |3 |
34288.000000us| 0 1 2 3 5 6 7 8 9 10 11 12 13 14 15 16 17 18 19 20 21 22 23 24 25 26 27 28 29 30 31 32 33 34 |4 |
27058.000000us| 2 3 4 5 6 7 9 10 13 14 15 16 20 21 23 25 27 28 30 31 32 33 34 |19 |
30243.000000us| 0 1 2 3 4 5 6 7 8 9 10 11 12 13 14 15 16 17 19 23 24 25 26 27 28 29 30 31 |32 |
33638.000000us| 0 1 2 4 6 7 8 9 10 11 12 13 14 16 17 18 19 20 21 22 23 24 25 26 27 28 29 30 32 33 34 |5 |
30458.000000us| 1 2 3 4 5 6 7 8 9 10 12 14 16 17 18 20 21 22 23 24 25 26 27 29 30 31 32 33 34 |15 |
2306.000000us| 20 |17 |
21745.000000us| 3 9 13 15 16 18 19 20 21 22 25 27 28 30 33 34 |0 |
31852.000000us| 0 1 2 3 4 5 6 7 8 9 11 13 14 15 16 17 18 19 21 22 23 24 25 26 27 28 29 30 32 |31 |
12937.000000us| 0 3 6 14 15 20 30 32 |10 |
7156.000000us| 4 18 21 23 26 27 34 |3 |
18042.000000us| 0 1 3 5 8 12 15 16 24 27 29 33 |34 |
17967.000000us| 0 2 9 10 11 12 15 20 24 25 26 28 33 |13 |
33732.000000us| 0 1 2 3 4 5 6 7 8 9 10 11 12 13 14 15 16 17 18 19 20 21 23 24 25 26 27 29 30 31 32 33 34 |22 |
19708.000000us| 1 3 4 8 15 16 17 18 20 22 24 26 28 34 |19 |
17366.000000us| 1 4 14 20 26 29 32 33 34 |19 |
23109.000000us| 1 4 6 7 8 10 11 13 14 15 16 18 28 30 31 32 |22 |
1709.000000us| 8 |17 |
0.000000us| |7 |
15534.000000us| 0 3 4 12 20 26 33 34 |16 |
26996.000000us| 0 1 3 5 6 7 9 11 12 13 14 15 16 17 18 21 23 25 26 27 28 29 32 |2 |
2802.000000us| 8 11 34 |6 |
21484.000000us| 1 5 7 12 15 16 17 20 22 23 24 25 26 27 31 32 34 |8 |
7618.000000us| 2 4 8 12 16 31 32 |3 |
25080.000000us| 1 2 3 5 6 7 8 9 10 14 15 16 19 23 25 26 27 28 30 32 34 |20 |
22619.000000us| 0 1 4 5 7 8 10 12 13 14 15 19 21 22 25 |3 |
27611.000000us| 0 1 2 3 4 5 6 7 9 10 11 13 16 17 18 21 22 24 26 27 28 30 31 33 34 |23 |
14496.000000us| 11 12 15 16 19 23 24 27 31 33 |26 |
27931.000000us| 0 1 4 5 6 7 12 13 15 18 19 20 21 22 24 25 26 27 28 29 30 31 33 34 |10 |
23601.000000us| 0 2 4 9 10 11 12 13 15 16 18 19 20 24 26 27 32 34 |30 |
33067.000000us| 1 2 3 4 5 6 7 8 9 10 11 12 13 14 15 16 17 18 19 20 21 22 23 24 25 26 27 28 29 30 32 33 |0 |
19404.000000us| 3 5 8 9 12 15 16 18 22 25 26 27 28 29 31 |17 |
24020.000000us| 0 2 4 6 7 13 16 18 19 24 25 27 28 29 30 32 33 34 |14 |
23812.000000us| 1 3 4 5 6 8 14 15 17 19 21 22 23 24 25 26 31 32 34 |12 |
18680.000000us| 1 2 6 9 14 17 19 21 23 25 27 31 |0 |
20000.000000us| 3 4 5 6 12 13 14 15 16 22 23 25 28 29 31 34 |27 |
27106.000000us| 0 2 5 7 8 9 11 12 15 18 19 20 21 24 25 26 28 29 30 31 33 |13 |
28249.000000us| 1 2 3 4 7 9 10 12 13 14 15 16 17 19 20 22 23 24 26 27 29 31 32 33 34 |18 |
28148.000000us| 0 1 2 3 4 5 6 7 10 11 12 14 16 18 19 20 21 22 24 25 26 27 28 31 32 33 34 |8 |
24011.000000us| 1 3 5 7 8 9 10 12 13 16 22 24 27 28 29 31 32 34 |11 |
23640.000000us| 0 2 3 5 6 8 9 11 13 15 16 17 21 25 27 32 33 |20 |
13560.000000us| 1 4 5 15 21 23 24 27 29 31 |2 |
28660.000000us| 1 2 4 5 7 8 9 10 12 13 15 18 19 20 21 22 23 24 25 27 28 29 30 31 |34 |
31165.000000us| 0 1 2 3 4 6 7 8 10 11 12 13 15 16 17 19 20 21 23 24 25 26 27 28 29 30 32 33 34 |9 |
29661.000000us| 0 2 3 4 5 6 7 8 9 10 11 12 14 16 17 20 22 23 24 25 26 27 30 31 32 33 34 |13 |
3024.000000us| 0 27 34 |23 |
21240.000000us| 2 3 5 7 11 12 14 18 20 22 24 25 27 29 30 31 34 |26 |
2678.000000us| 22 34 |31 |
13356.000000us| 2 8 11 19 21 22 30 33 |20 |
30340.000000us| 0 1 5 6 7 8 9 10 12 13 14 15 16 19 21 22 23 24 25 26 27 28 29 32 33 34 |31 |
19021.000000us| 4 6 8 9 18 19 21 22 24 25 26 28 30 32 |12 |
22313.000000us| 1 2 4 11 13 14 16 18 22 23 24 27 28 29 31 33 |30 |
33906.000000us| 0 1 2 4 5 6 7 8 9 10 11 12 14 15 16 17 18 19 20 21 22 23 24 25 26 27 28 29 30 31 32 33 34 |3 |
33702.000000us| 0 1 2 3 4 5 6 7 8 9 10 11 12 13 14 15 16 17 18 19 20 21 22 23 24 25 26 27 28 30 32 33 34 |29 |
22894.000000us| 0 1 2 5 8 9 10 12 13 15 19 20 23 24 29 32 |3 |
26675.000000us| 0 1 2 3 5 6 7 8 9 10 11 12 13 18 23 24 25 26 27 31 32 33 34 |29 |
18325.000000us| 1 2 5 7 11 12 16 17 22 26 27 30 |8 |
2813.000000us| 4 11 23 27 |2 |
2499.000000us| 5 6 17 |20 |
25498.000000us| 4 5 6 7 8 9 10 13 19 21 24 25 26 27 29 30 32 33 34 |16 |
16503.000000us| 0 5 7 12 16 20 21 25 28 29 34 |15 |
10635.000000us| 1 10 12 13 17 18 29 |16 |
31901.000000us| 0 1 2 3 5 6 7 8 9 10 11 12 13 14 15 16 17 18 19 20 21 22 23 25 27 28 29 30 31 32 33 34 |24 |
16858.000000us| 3 4 9 11 12 16 20 21 26 31 33 34 |28 |
23181.000000us| 0 1 6 7 8 10 11 12 14 15 16 17 18 21 22 24 27 28 32 |2 |
21891.000000us| 0 6 7 11 12 17 19 22 24 27 28 32 33 34 |8 |
8536.000000us| 0 9 13 18 25 33 |17 |
34655.000000us| 0 1 2 3 4 5 6 7 8 9 10 11 12 13 14 15 16 18 19 20 21 22 23 24 25 26 27 28 29 30 31 32 33 34 |17 |
28607.000000us| 1 2 4 7 8 9 11 12 13 15 18 19 20 21 23 24 25 27 28 29 32 33 34 |31 |
3488.000000us| 3 11 14 20 |21 |
33824.000000us| 0 1 2 3 4 5 6 7 8 9 10 11 12 13 14 16 17 18 19 20 21 22 23 24 25 27 28 29 30 31 32 33 34 |26 |
33759.000000us| 0 1 2 3 4 6 7 8 9 10 11 12 13 14 15 16 17 18 19 20 21 24 25 26 27 28 29 30 31 32 33 34 |23 |
2962.000000us| 3 10 17 20 |29 |
26420.000000us| 0 1 6 7 8 12 13 14 15 16 18 19 20 22 23 24 25 31 32 33 34 |27 |
2936.000000us| 19 26 30 |32 |
26261.000000us| 2 3 6 7 9 10 13 14 16 19 20 21 26 27 29 31 32 33 |22 |
4997.000000us| 1 8 13 30 |28 |
25028.000000us| 0 3 4 5 6 8 10 14 16 17 18 20 21 22 25 27 28 29 30 33 34 |31 |
11212.000000us| 3 6 7 12 24 28 31 |19 |
25246.000000us| 0 2 3 4 7 12 17 18 19 20 22 23 24 27 29 32 33 34 |13 |
35470.000000us| 0 1 2 3 4 5 6 7 8 9 10 11 12 13 14 15 16 17 18 19 20 22 23 24 25 26 27 28 29 30 31 32 33 34 |21 |
13949.000000us| 0 2 12 15 17 26 28 34 |9 |
21345.000000us| 2 3 6 9 10 13 14 17 19 21 23 28 30 32 |18 |
32052.000000us| 1 2 3 4 5 6 7 8 9 10 11 13 14 15 16 17 18 19 20 23 24 25 26 27 28 29 30 31 32 34 |12 |
24866.000000us| 5 6 8 9 10 11 15 18 20 21 22 23 24 26 27 28 29 30 32 33 34 |1 |
2443.000000us| 16 |4 |
2180.000000us| 6 31 |24 |
22482.000000us| 2 3 4 5 6 10 12 13 14 17 18 20 21 22 24 28 30 31 |19 |
16517.000000us| 0 4 11 12 13 19 21 22 30 |15 |
22093.000000us| 1 2 4 5 6 11 12 13 16 21 22 23 27 28 29 30 31 32 |24 |
25596.000000us| 1 3 6 7 8 9 12 13 14 15 16 18 20 21 26 27 28 29 33 34 |25 |
1857.000000us| 4 |2 |
25741.000000us| 0 1 2 4 7 8 9 12 15 17 18 20 22 26 27 28 29 30 32 33 34 |3 |
17610.000000us| 2 3 4 6 10 14 20 22 25 26 27 29 30 34 |0 |
24915.000000us| 3 5 7 12 13 14 15 19 20 21 23 24 25 26 27 28 |33 |
34263.000000us| 0 1 2 3 5 6 7 8 9 10 11 12 13 15 16 17 18 19 20 21 22 23 24 25 26 27 28 29 30 31 32 33 34 |14 |
17424.000000us| 0 1 2 3 5 7 10 11 12 29 34 |15 |
15881.000000us| 0 7 9 10 15 21 28 34 |3 |
32111.000000us| 0 2 3 4 5 6 7 8 9 10 12 13 14 15 16 17 18 19 20 21 22 24 26 27 28 29 31 32 33 34 |11 |
5354.000000us| 7 13 26 29 |32 |
34689.000000us| 0 1 2 4 5 8 9 10 11 12 13 14 15 16 17 18 20 21 22 23 24 25 26 27 28 29 30 32 33 34 |7 |
17126.000000us| 5 14 16 18 25 26 31 32 34 |33 |
25990.000000us| 0 4 7 8 10 11 12 13 15 17 20 23 25 27 28 29 30 31 |16 |
2222.000000us| 4 30 |7 |
33433.000000us| 0 1 2 3 4 5 6 7 8 9 10 11 12 14 16 17 18 19 20 23 24 25 26 27 28 29 30 31 33 34 |13 |
33239.000000us| 0 1 2 3 4 5 6 7 8 9 10 11 12 13 14 15 16 17 18 19 20 21 23 24 25 27 28 29 31 32 33 34 |26 |
24700.000000us| 0 1 2 3 8 10 11 13 14 15 18 21 22 24 25 28 31 32 33 34 |4 |
2113.000000us| 6 34 |11 |
34558.000000us| 0 1 2 3 4 5 6 7 8 9 10 11 12 13 14 15 16 17 18 19 20 21 22 23 24 25 26 27 28 29 30 31 32 34 |33 |
27337.000000us| 1 2 3 4 5 7 8 9 10 12 14 15 16 17 21 22 24 26 27 28 29 30 32 33 |0 |
16530.000000us| 3 13 14 19 26 31 32 34 |33 |
31767.000000us| 0 2 4 5 7 8 9 11 12 13 15 16 18 19 20 21 22 23 24 25 26 27 29 31 32 33 |34 |
24644.000000us| 0 1 2 4 6 9 10 11 13 14 16 17 22 24 25 26 28 29 30 32 |15 |
21796.000000us| 4 5 6 7 11 12 14 15 19 20 21 23 24 26 31 |13 |
1734.000000us| 0 |8 |
29096.000000us| 0 1 3 4 6 7 8 9 10 12 14 15 17 18 19 20 21 23 24 25 26 28 29 31 32 34 |2 |
24417.000000us| 2 4 5 12 13 15 17 19 21 23 24 25 26 28 31 33 34 |10 |
30397.000000us| 0 1 3 4 5 7 8 9 10 12 13 14 15 17 18 19 20 22 23 24 25 27 30 31 32 33 34 |16 |
31192.000000us| 0 2 3 4 5 7 8 9 10 11 12 13 14 15 16 17 20 21 22 23 24 25 26 27 28 30 31 32 |33 |
33125.000000us| 0 1 2 3 4 5 7 8 9 10 11 12 13 14 15 16 17 18 19 20 21 22 23 24 26 27 29 30 31 32 33 34 |25 |
4020.000000us| 0 7 17 22 |8 |
30750.000000us| 0 1 2 4 5 6 7 8 9 10 11 12 13 14 15 16 18 20 22 23 24 25 28 29 30 31 32 34 |21 |
11523.000000us| 1 3 9 10 15 21 27 30 32 |28 |
30418.000000us| 0 1 2 4 5 8 9 10 11 12 13 14 15 16 18 19 20 21 22 23 24 28 29 30 32 33 34 |7 |
25276.000000us| 0 1 5 7 8 11 13 14 17 20 21 22 24 26 27 29 31 33 34 |15 |
2695.000000us| 17 34 |15 |
27421.000000us| 0 1 2 6 8 9 10 11 13 14 15 18 20 21 22 23 28 29 30 31 32 33 34 |12 |
16473.000000us| 0 4 8 11 20 21 22 27 28 29 34 |26 |
3149.000000us| 1 11 15 30 |12 |
16415.000000us| 5 6 9 11 12 14 22 28 29 34 |13 |
16062.000000us| 2 3 9 15 16 17 21 28 33 34 |19 |
20586.000000us| 3 6 7 11 13 16 17 18 20 23 25 26 27 32 |2 |
28495.000000us| 0 2 8 9 10 11 13 14 16 17 18 19 20 21 23 24 25 26 27 28 29 31 32 33 34 |15 |
25198.000000us| 0 1 3 6 7 8 11 13 14 15 17 18 26 27 28 32 33 |25 |
34412.000000us| 0 1 2 3 4 5 6 7 8 9 10 11 12 13 14 15 16 17 18 20 21 22 23 24 25 27 28 29 30 31 32 33 34 |19 |
30148.000000us| 0 1 6 7 8 9 10 11 12 14 15 16 17 18 19 21 22 23 25 26 27 28 29 30 32 33 |31 |
33529.000000us| 0 1 2 3 4 5 6 7 8 9 10 11 12 13 14 16 17 18 19 21 23 24 25 26 27 28 29 30 32 33 34 |31 |
20376.000000us| 3 7 8 9 12 13 15 16 17 20 22 27 30 31 |2 |
24949.000000us| 2 6 8 9 10 11 12 13 15 16 17 20 21 23 24 25 26 31 32 34 |19 |
18836.000000us| 0 2 4 10 14 15 23 25 27 34 |18 |
32802.000000us| 1 2 3 4 5 6 7 8 9 10 11 12 14 15 16 17 18 19 21 22 23 24 25 26 27 28 29 30 31 33 34 |32 |
26188.000000us| 0 1 2 3 5 6 9 12 15 16 17 18 19 21 22 23 27 29 31 32 34 |7 |
38635.000000us| 0 1 3 4 6 7 8 9 11 12 13 14 15 16 17 18 21 22 23 24 25 26 27 28 29 30 31 32 34 |10 |
37583.000000us| 0 1 2 3 6 8 9 10 11 12 13 14 15 16 17 18 19 20 21 22 23 25 26 27 28 29 30 31 32 33 34 |7 |
36278.000000us| 0 1 2 3 4 5 6 7 8 9 10 11 12 13 14 15 17 18 19 20 21 22 23 25 28 29 30 32 33 34 |26 |
22908.000000us| 0 3 4 6 7 11 14 15 17 18 19 24 26 28 30 32 |2 |
25202.000000us| 0 2 5 6 7 10 13 14 20 21 22 23 25 26 27 29 30 31 32 33 |34 |
26286.000000us| 0 1 2 3 4 7 11 12 13 14 15 19 20 21 23 26 28 29 30 31 32 |16 |
21490.000000us| 3 4 7 9 11 13 14 18 19 26 32 34 |12 |
26948.000000us| 0 1 2 3 4 5 8 9 11 13 16 17 18 21 25 27 28 29 30 31 32 33 |10 |
23179.000000us| 2 4 5 8 9 12 15 19 21 22 23 25 26 27 29 31 32 33 34 |17 |
34090.000000us| 0 1 2 3 4 5 6 7 8 11 12 13 14 15 16 17 18 19 20 21 22 23 24 25 26 27 28 29 30 31 32 33 34 |9 |
23876.000000us| 0 1 2 4 5 10 11 12 15 16 18 19 20 23 28 32 33 34 |30 |
18400.000000us| 0 1 2 6 13 14 15 18 23 28 31 33 |20 |
5211.000000us| 3 18 19 26 27 |28 |
19623.000000us| 2 3 5 8 10 14 15 20 24 25 27 28 29 31 32 34 |0 |
33898.000000us| 0 1 2 3 4 5 6 7 9 10 11 12 13 14 15 16 17 18 19 20 21 22 23 24 25 26 27 28 29 30 31 32 33 34 |8 |
2260.000000us| 19 29 |3 |
19779.000000us| 9 10 12 13 18 19 21 23 25 26 29 32 |20 |
35719.000000us| 0 1 2 3 4 5 6 7 8 9 10 11 12 13 14 15 16 17 18 19 20 21 22 23 24 25 26 27 28 29 30 32 33 34 |31 |
24401.000000us| 1 2 4 10 11 14 15 16 17 19 20 21 26 27 28 29 31 |7 |
2292.000000us| 29 |10 |
4236.000000us| 3 14 15 18 22 |12 |
33901.000000us| 0 1 2 3 5 6 7 8 9 10 11 12 13 15 16 17 18 19 20 21 22 23 24 25 26 27 28 29 30 31 32 33 34 |4 |
25327.000000us| 0 3 6 8 9 10 11 12 13 20 21 22 23 24 25 28 29 30 33 34 |14 |
32713.000000us| 0 1 2 3 4 5 6 7 8 9 10 11 13 14 15 18 20 21 22 23 24 25 26 27 28 29 30 31 32 33 34 |17 |
18012.000000us| 1 4 5 12 16 17 23 25 29 31 32 |33 |
4.000000us| |24 |
29693.000000us| 0 2 3 4 5 6 7 8 9 10 12 13 14 15 16 17 18 20 21 23 27 28 30 32 33 34 |11 |
25771.000000us| 0 1 3 4 5 7 8 9 10 11 12 14 16 17 21 23 24 25 26 32 34 |22 |
31870.000000us| 1 2 3 4 5 6 8 9 10 11 12 13 15 16 17 18 19 20 21 22 23 24 25 27 28 29 30 32 33 34 |14 |
2427.000000us| 13 |20 |
17163.000000us| 0 5 14 17 20 23 24 25 30 32 |18 |
25707.000000us| 0 1 3 4 5 6 8 9 10 12 13 15 16 17 18 19 20 21 28 31 32 33 |11 |
19430.000000us| 2 3 4 5 7 9 10 11 12 24 26 28 30 |1 |
2999.000000us| 15 25 27 |10 |
31554.000000us| 1 2 3 4 5 6 7 8 9 10 11 12 13 14 16 19 20 21 22 23 24 25 26 27 28 30 31 32 33 34 |18 |
26277.000000us| 0 1 2 3 6 7 8 9 10 11 12 14 17 21 23 24 26 29 30 31 33 34 |4 |
27671.000000us| 2 4 5 6 8 9 11 14 15 16 17 18 19 20 23 24 25 26 27 31 32 33 34 |29 |
25176.000000us| 1 3 6 8 9 10 11 16 17 18 20 22 25 26 27 28 29 32 33 34 |19 |
24780.000000us| 0 1 2 5 6 7 8 10 12 13 15 17 18 22 23 24 25 29 30 |3 |
20799.000000us| 1 4 7 10 13 15 17 23 24 25 29 34 |19 |
10734.000000us| 2 4 7 9 17 26 32 33 |18 |
25479.000000us| 0 1 2 3 4 5 6 7 8 9 15 17 18 21 22 25 26 27 28 30 32 |33 |
32577.000000us| 0 1 2 4 6 7 9 10 11 12 13 14 15 17 18 19 20 21 22 23 24 25 26 27 28 29 30 31 32 33 |34 |
4203.000000us| 0 2 12 21 33 |15 |
27764.000000us| 0 2 5 6 7 8 9 10 11 14 15 16 19 20 21 22 23 24 26 27 28 33 34 |3 |
32600.000000us| 0 1 2 3 4 5 6 7 8 9 10 11 12 13 14 15 17 20 21 22 23 24 25 26 27 28 30 31 32 33 34 |16 |
33105.000000us| 0 2 3 5 6 7 8 9 10 11 12 13 14 15 16 17 19 20 21 22 23 25 26 27 28 29 30 31 32 33 34 |24 |
12052.000000us| 1 4 8 12 21 22 23 31 |20 |
7477.000000us| 3 12 13 15 16 32 |2 |
22750.000000us| 1 2 4 5 12 13 15 16 17 18 19 23 24 28 30 32 |8 |
13543.000000us| 0 4 5 10 19 20 31 33 |32 |
29751.000000us| 1 2 3 4 5 6 7 10 11 12 14 15 18 19 20 21 22 23 24 25 26 27 28 29 30 31 32 33 34 |8 |
28450.000000us| 0 1 2 3 4 5 6 7 8 9 10 11 13 16 17 20 21 22 23 27 28 30 31 32 34 |29 |
15614.000000us| 4 6 7 9 15 22 25 27 32 33 |8 |
0.000000us| |10 |
31884.000000us| 0 2 3 4 5 6 7 8 9 10 11 14 15 16 17 18 19 21 22 23 24 25 26 28 29 30 31 32 33 34 |1 |
18552.000000us| 3 12 14 17 19 23 25 26 27 28 30 31 34 |20 |
31902.000000us| 0 1 2 3 4 5 6 7 8 9 10 11 12 14 15 16 17 18 19 20 22 23 24 27 28 29 30 31 32 33 34 |26 |
7229.000000us| 0 9 23 25 26 30 32 |1 |
16209.000000us| 0 2 3 5 10 13 23 29 32 34 |17 |
26773.000000us| 0 1 2 4 5 6 9 11 12 14 16 19 20 21 22 23 24 25 28 30 31 32 33 |8 |
18564.000000us| 3 5 6 7 9 10 15 20 21 27 28 30 33 34 |23 |
33256.000000us| 0 1 2 3 4 5 6 7 8 9 10 11 12 13 14 15 18 19 20 21 23 24 25 26 27 28 29 30 31 32 33 34 |17 |
23543.000000us| 2 4 5 8 10 14 16 17 18 20 23 24 25 27 28 29 30 33 |15 |
21260.000000us| 0 3 5 9 11 12 15 16 19 21 26 29 32 33 |23 |
30249.000000us| 1 3 4 5 6 7 8 9 10 11 13 14 15 16 18 19 20 21 23 26 27 28 29 30 31 34 |22 |
31887.000000us| 0 1 2 3 4 5 6 7 8 9 10 11 12 13 14 15 18 19 20 21 22 23 24 26 27 28 30 31 32 34 |17 |
18947.000000us| 1 3 5 9 11 14 17 18 29 31 34 |23 |
24330.000000us| 1 3 4 5 7 8 9 10 14 16 17 19 20 23 25 26 31 33 34 |32 |
29244.000000us| 0 1 4 5 8 9 10 12 13 14 15 17 18 20 21 24 25 26 27 28 30 31 32 33 34 |2 |
4320.000000us| 4 16 17 22 34 |8 |
26752.000000us| 0 1 2 3 4 5 6 7 9 11 12 16 17 18 19 21 23 24 27 28 30 32 33 |26 |
1813.000000us| 26 |9 |
1819.000000us| 22 |30 |
19650.000000us| 0 3 8 9 10 11 14 18 24 25 26 30 32 |15 |
3954.000000us| 18 19 23 26 |33 |
33559.000000us| 0 1 2 4 5 6 7 8 9 10 11 12 13 14 15 16 17 18 19 20 21 22 24 25 27 28 29 30 31 32 33 34 |26 |
26302.000000us| 0 6 7 10 11 14 16 17 18 19 21 22 23 24 25 26 29 30 31 33 34 |15 |
21983.000000us| 0 1 3 5 7 9 10 14 16 17 19 20 21 22 25 30 32 33 |6 |
27932.000000us| 2 4 5 6 8 9 12 13 14 16 17 18 19 20 21 23 24 25 26 27 30 31 32 33 34 |11 |
19035.000000us| 1 4 5 6 9 15 16 18 23 25 26 27 30 34 |12 |
18093.000000us| 0 1 3 13 15 17 22 26 29 31 32 33 34 |25 |
21209.000000us| 0 1 3 8 9 10 11 12 14 15 18 20 25 26 28 32 33 |16 |
31402.000000us| 0 1 5 6 7 9 11 12 13 14 15 16 17 19 20 21 22 23 24 25 26 27 29 30 31 32 33 34 |3 |
31084.000000us| 0 2 3 5 6 8 10 11 12 13 14 16 17 18 19 20 21 22 23 24 25 26 27 28 29 31 32 33 34 |9 |
32134.000000us| 0 1 2 3 4 5 6 8 9 10 11 12 13 14 15 16 18 19 20 22 23 24 26 27 28 29 30 31 32 33 34 |21 |
2267.000000us| 23 |32 |
22414.000000us| 0 1 2 4 6 8 10 11 16 19 21 22 25 30 32 |26 |
32890.000000us| 0 1 2 3 4 5 7 9 10 11 12 13 14 15 16 18 19 20 21 22 23 24 25 26 27 28 29 30 31 32 33 34 |8 |
29994.000000us| 1 2 3 4 6 7 8 9 11 12 13 15 16 18 19 20 22 23 24 25 26 28 32 33 34 |17 |
19832.000000us| 3 6 9 10 14 15 17 18 21 23 26 28 32 33 |22 |
4140.000000us| 2 3 26 27 30 31 |18 |
20844.000000us| 1 2 5 7 9 11 15 16 20 21 25 26 29 31 33 34 |14 |
30823.000000us| 0 1 3 4 6 7 9 11 12 13 14 15 16 17 20 21 22 23 24 25 26 27 29 31 32 33 34 |30 |
27598.000000us| 0 5 6 7 8 9 11 12 13 16 19 23 24 25 27 29 30 31 32 33 |20 |
23289.000000us| 1 3 6 7 8 9 11 12 13 14 16 20 22 27 29 30 |15 |
24794.000000us| 0 1 4 5 6 7 8 9 11 12 16 18 25 29 30 31 32 34 |26 |
8060.000000us| 9 12 13 25 28 33 |29 |
6010.000000us| 12 20 21 22 34 |33 |
4458.000000us| 1 4 16 20 29 |33 |
33137.000000us| 0 1 2 3 4 5 6 7 9 11 12 13 14 15 16 17 18 19 20 22 23 24 25 26 27 28 29 30 31 32 33 34 |21 |
18726.000000us| 3 4 6 7 8 11 17 22 24 25 28 29 |16 |
33415.000000us| 1 2 4 5 6 7 9 10 11 12 13 14 15 16 17 18 19 20 21 22 23 24 25 26 27 28 29 30 31 32 33 34 |8 |
25418.000000us| 0 4 6 7 9 10 11 13 14 18 20 21 22 23 25 26 27 32 33 |16 |
25093.000000us| 1 2 3 5 7 8 9 10 11 14 15 19 20 21 22 23 25 27 28 30 31 |17 |
29704.000000us| 0 1 3 4 5 6 7 8 10 11 12 14 15 16 17 18 19 20 21 22 24 25 26 27 30 31 33 34 |29 |
9816.000000us| 4 12 14 16 18 20 32 |34 |
27170.000000us| 0 1 3 4 6 7 9 10 12 13 14 15 16 17 18 19 21 25 26 28 29 30 33 34 |31 |
29632.000000us| 0 3 4 5 6 8 9 10 11 13 14 15 18 19 21 22 23 24 25 26 27 28 29 30 31 32 34 |7 |
19939.000000us| 0 1 3 4 5 7 8 9 10 16 18 21 22 24 31 |26 |
26955.000000us| 0 1 4 6 9 10 11 12 13 14 16 17 18 21 22 23 24 25 27 28 29 30 31 33 |8 |
28764.000000us| 0 1 3 4 7 10 11 12 13 14 15 16 17 18 19 20 24 25 26 30 31 32 33 34 |2 |
28671.000000us| 0 2 3 4 5 6 9 11 13 14 15 16 17 20 21 22 24 26 27 28 29 32 33 34 |10 |
34825.000000us| 0 1 2 3 4 5 6 7 8 9 10 11 12 13 14 15 16 17 18 19 20 21 22 23 24 25 26 27 28 29 30 31 32 33 |34 |
26010.000000us| 1 3 4 6 10 11 12 13 14 19 20 23 24 26 27 28 29 30 31 32 34 |33 |
30917.000000us| 0 3 4 6 7 8 9 10 11 12 13 14 15 16 18 19 20 22 23 25 26 27 29 30 32 34 |17 |
3451.000000us| 2 10 11 15 16 |33 |
20820.000000us| 1 2 4 8 11 13 14 18 24 27 28 29 31 |32 |
2592.000000us| 0 23 25 |4 |
32417.000000us| 0 2 3 4 5 6 7 8 9 10 11 12 13 15 16 17 18 19 21 22 23 24 25 26 27 28 29 31 32 34 |14 |
24467.000000us| 0 1 3 6 7 9 11 14 15 17 18 20 22 24 25 26 27 30 32 33 |2 |
21652.000000us| 1 3 4 5 6 7 13 14 17 18 20 23 27 32 33 |0 |
18175.000000us| 4 5 6 7 11 14 21 22 23 25 26 28 |13 |
30001.000000us| 0 2 3 4 5 6 7 8 9 10 11 13 15 16 17 20 21 22 25 27 28 29 31 32 33 34 |26 |
28223.000000us| 0 2 3 6 8 9 10 11 12 13 14 15 16 17 19 20 22 23 24 26 28 29 31 33 |1 |
4033.000000us| 2 3 9 24 30 31 |23 |
23392.000000us| 1 2 3 5 6 9 10 13 14 15 17 19 22 23 25 27 28 31 34 |16 |
33052.000000us| 0 1 2 3 4 5 6 7 8 9 10 11 12 13 15 17 18 19 20 21 22 23 24 25 26 28 29 30 31 32 33 34 |14 |
27896.000000us| 0 1 2 3 5 6 8 10 11 12 14 15 17 19 20 21 22 24 25 26 27 28 29 30 31 32 33 |13 |
23790.000000us| 1 2 3 4 5 6 7 10 12 13 18 20 22 23 25 26 31 32 33 34 |28 |
23356.000000us| 1 4 5 6 9 11 12 13 16 17 20 21 24 25 27 29 30 32 34 |8 |
22581.000000us| 0 2 3 4 7 10 12 14 16 19 22 24 25 27 28 29 30 32 34 |31 |
25403.000000us| 5 6 7 8 9 11 13 14 15 17 21 24 25 26 27 28 29 31 33 |2 |
31952.000000us| 0 1 2 3 4 5 6 7 9 10 11 12 13 14 15 16 17 18 19 20 21 23 24 25 26 27 29 30 31 32 33 34 |22 |
26331.000000us| 0 1 2 3 6 7 10 11 12 13 14 17 19 20 21 23 24 25 26 28 29 31 33 34 |9 |
25516.000000us| 1 2 3 5 6 7 9 10 12 13 15 16 17 19 20 22 23 26 27 28 29 31 32 |14 |
2045.000000us| 5 24 |10 |
32367.000000us| 0 1 3 5 8 9 10 11 13 14 15 16 17 18 19 20 21 23 24 25 26 27 28 29 30 31 32 33 34 |22 |
31142.000000us| 0 1 2 3 4 6 7 9 10 11 12 13 14 15 18 19 21 22 23 24 25 26 27 28 29 30 31 33 34 |8 |
3723.000000us| 4 21 33 34 |13 |
3904.000000us| 11 14 16 17 24 |10 |
16070.000000us| 0 1 3 5 8 10 12 22 23 28 |18 |
17504.000000us| 5 8 10 12 14 19 20 25 29 32 34 |18 |
34826.000000us| 0 1 2 3 4 5 6 7 8 9 10 11 12 13 14 15 16 17 18 19 20 21 22 23 24 25 26 28 29 30 31 32 33 34 |27 |
20766.000000us| 2 6 7 13 17 18 21 22 26 27 29 30 31 32 34 |28 |
34596.000000us| 0 1 2 3 4 5 7 8 9 10 11 13 14 15 16 17 18 19 20 21 22 23 24 25 26 27 28 29 30 31 32 33 34 |12 |
34303.000000us| 0 1 2 3 4 5 6 7 8 9 11 13 14 15 16 17 18 19 20 21 22 23 24 25 26 28 29 30 31 32 33 34 |12 |
28954.000000us| 0 1 2 3 6 7 9 11 13 15 16 17 18 20 21 22 23 24 25 26 28 29 31 32 34 |8 |
25631.000000us| 6 7 8 10 11 12 15 16 17 19 20 21 23 25 26 27 30 33 34 |13 |
20841.000000us| 7 8 10 11 13 16 19 21 22 23 28 32 |14 |
17148.000000us| 0 5 9 15 17 22 23 25 29 32 33 |8 |
26134.000000us| 0 1 3 4 5 6 8 10 11 12 13 18 20 22 24 25 26 27 29 31 32 33 |23 |
4002.000000us| 7 12 34 |1 |
26695.000000us| 1 3 4 5 7 8 9 12 15 18 19 20 22 23 25 26 27 28 29 34 |11 |
2370.000000us| 19 34 |32 |
4959.000000us| 17 23 24 26 32 34 |8 |
28301.000000us| 0 1 2 3 5 6 7 8 12 14 15 17 18 19 20 21 22 23 24 26 27 29 30 31 32 34 |10 |
3121.000000us| 17 18 24 29 |13 |
22074.000000us| 0 1 3 6 8 12 16 17 18 20 21 22 27 30 31 32 33 34 |2 |
2459.000000us| 11 17 30 |8 |
2275.000000us| 21 |0 |
10120.000000us| 12 14 15 19 24 27 30 |3 |
2906.000000us| 2 8 22 31 |5 |
10331.000000us| 4 12 14 21 22 23 30 33 |8 |
5644.000000us| 10 18 21 23 24 25 33 |3 |
18675.000000us| 0 3 5 7 10 15 23 25 26 30 31 32 34 |33 |
30685.000000us| 0 1 2 4 5 7 8 11 12 13 14 15 16 19 21 22 23 24 25 28 29 30 31 32 34 |18 |
6304.000000us| 0 2 3 13 25 |6 |
27653.000000us| 0 1 3 5 6 7 9 10 11 12 14 15 17 18 19 21 22 23 24 26 28 30 31 33 34 |4 |
34552.000000us| 0 1 3 4 5 6 7 8 9 10 11 12 13 14 15 16 17 18 19 20 21 22 23 24 25 27 28 29 30 31 32 33 34 |26 |
21577.000000us| 0 1 2 3 4 5 8 9 11 12 16 17 20 25 33 |7 |
2279.000000us| 33 |21 |
22134.000000us| 0 2 3 4 5 7 9 11 18 21 22 23 24 27 29 |17 |
30715.000000us| 0 1 3 5 6 7 8 9 10 12 13 14 16 18 19 20 21 22 23 24 25 26 27 28 32 33 34 |31 |
32758.000000us| 0 1 2 4 5 6 7 8 9 12 13 14 15 17 18 20 21 22 23 24 26 27 28 29 30 31 32 33 34 |19 |
22881.000000us| 0 6 9 10 11 12 13 14 15 17 22 23 25 28 32 33 34 |4 |
21785.000000us| 0 2 7 10 11 12 13 14 15 17 20 23 28 30 |33 |
31708.000000us| 1 2 3 5 6 8 9 10 11 13 14 15 16 17 18 19 20 21 22 23 25 26 28 29 30 32 33 34 |24 |
23750.000000us| 3 4 5 6 7 12 14 15 16 18 19 20 23 27 28 30 31 32 33 |9 |
2788.000000us| 3 18 21 28 |26 |
27736.000000us| 0 1 2 3 6 8 9 10 11 13 14 15 16 18 19 21 23 26 28 31 32 33 34 |5 |
24449.000000us| 2 5 6 7 8 9 12 13 14 16 17 20 21 23 24 32 33 34 |27 |
32401.000000us| 0 1 2 3 4 5 6 7 8 9 10 12 13 14 15 17 18 19 20 21 22 23 24 25 26 27 28 29 30 33 34 |16 |
27101.000000us| 1 3 4 5 6 7 8 11 12 13 14 15 17 18 20 21 22 26 32 33 34 |0 |
28011.000000us| 0 3 5 6 7 8 12 13 15 18 19 20 22 23 24 25 26 27 31 33 34 |10 |
19705.000000us| 1 2 5 7 11 12 19 24 25 27 30 31 |14 |
16450.000000us| 1 8 13 16 17 21 22 26 29 32 |7 |
2.000000us| |9 |
10108.000000us| 2 10 14 18 26 27 29 33 |22 |
25830.000000us| 1 2 3 5 6 10 12 13 14 15 17 18 20 21 22 23 25 26 27 29 32 33 34 |28 |
34476.000000us| 0 1 2 3 4 5 6 7 8 9 10 11 12 13 14 15 16 17 18 19 20 21 22 23 24 25 26 27 28 29 30 31 34 |32 |
24880.000000us| 1 2 4 6 8 9 10 11 12 15 18 19 20 23 26 27 31 33 |25 |
28688.000000us| 2 3 4 5 6 8 10 11 12 13 15 16 18 19 20 22 24 26 27 30 31 32 33 34 |14 |
11088.000000us| 5 6 11 12 13 28 29 |31 |
26752.000000us| 2 3 4 5 8 9 10 12 13 14 16 19 20 21 22 23 24 26 28 31 33 34 |25 |
7550.000000us| 1 2 15 16 19 30 |29 |
33188.000000us| 0 1 2 3 4 5 6 8 9 10 11 12 13 14 15 16 17 18 19 20 21 22 23 25 26 27 28 29 30 31 32 34 |24 |
29842.000000us| 2 3 4 6 8 11 12 13 15 16 17 18 19 20 21 22 23 24 25 26 27 28 31 32 33 34 |5 |
26051.000000us| 0 1 2 6 8 10 11 15 16 17 19 23 25 26 27 28 29 32 34 |22 |
1834.000000us| 24 |18 |
34893.000000us| 0 1 2 4 5 6 7 8 9 10 11 12 13 14 15 16 17 19 20 21 22 23 24 25 26 27 28 29 30 31 32 33 34 |3 |
20093.000000us| 0 1 8 10 11 12 14 15 16 17 24 27 29 30 |26 |
31655.000000us| 0 1 3 4 5 7 8 9 10 11 12 13 14 16 17 19 21 22 24 25 26 27 29 30 31 32 33 34 |20 |
29037.000000us| 1 3 5 6 8 10 11 13 14 15 16 17 19 20 21 22 23 24 26 27 29 31 33 34 |28 |
23401.000000us| 1 2 3 6 7 9 10 11 12 19 20 21 23 25 28 33 34 |5 |
33899.000000us| 0 1 3 4 6 7 8 9 10 11 12 13 14 16 17 18 19 20 21 22 23 24 25 26 27 28 29 30 31 32 33 |15 |
22257.000000us| 1 3 4 8 13 14 16 17 18 20 21 22 28 29 32 |19 |
34776.000000us| 0 1 2 3 4 5 6 7 8 9 10 11 12 13 14 15 16 17 18 19 20 21 22 23 24 25 26 27 29 30 31 32 33 34 |28 |
29912.000000us| 0 1 2 3 7 8 10 12 13 14 15 17 18 20 21 22 23 24 25 26 27 28 29 30 32 33 34 |19 |
23318.000000us| 0 1 2 3 4 6 8 9 12 14 15 18 20 21 22 26 27 31 33 34 |19 |
20837.000000us| 0 3 4 7 9 13 17 19 20 21 23 33 |18 |
14187.000000us| 2 5 6 8 17 19 22 26 29 |31 |
30539.000000us| 0 1 2 4 5 6 7 8 10 12 13 14 15 17 18 19 20 21 22 23 24 25 26 27 29 31 32 33 |28 |
2603.000000us| 11 12 29 |5 |
31663.000000us| 0 2 3 4 5 6 8 9 11 12 13 14 15 16 17 18 19 20 21 22 23 24 25 26 27 28 31 32 33 |7 |
12069.000000us| 6 8 9 15 17 20 25 30 |34 |
3485.000000us| 4 7 22 31 |0 |
26354.000000us| 0 1 2 3 4 5 6 7 9 10 11 12 13 15 16 17 21 24 25 26 27 31 33 34 |20 |
21045.000000us| 0 1 3 10 11 14 16 17 18 20 23 27 28 32 34 |9 |
28656.000000us| 1 2 3 4 5 6 7 9 12 13 15 16 17 19 20 21 22 23 24 26 27 28 31 32 33 34 |8 |
11971.000000us| 3 4 5 6 9 15 16 18 20 |0 |
16257.000000us| 2 7 10 12 18 21 25 26 28 29 34 |27 |
32975.000000us| 0 1 4 5 7 8 9 10 11 13 14 15 16 20 21 22 23 24 25 26 28 29 30 31 33 34 |32 |
30165.000000us| 0 1 2 3 4 6 7 8 9 10 11 12 16 17 18 20 21 22 24 25 28 29 30 32 33 34 |13 |
34602.000000us| 0 1 2 3 4 5 6 7 8 9 10 11 12 13 14 15 16 17 18 19 20 21 22 23 24 25 27 28 30 31 32 33 34 |29 |
0.000000us| |12 |
35366.000000us| 0 1 2 3 4 5 7 8 9 10 11 12 13 14 15 16 17 18 19 20 21 22 23 24 25 26 27 28 29 30 31 32 33 34 |6 |
32844.000000us| 0 1 3 4 5 8 9 10 11 12 13 14 15 16 17 18 19 20 21 22 23 24 25 26 27 28 29 31 33 |32 |
3559.000000us| 3 4 5 29 33 |10 |
2309.000000us| 32 |28 |
20356.000000us| 1 2 3 7 14 18 19 21 24 25 27 30 33 |32 |
36092.000000us| 0 1 2 3 4 5 6 7 8 10 11 12 13 14 15 16 17 18 19 20 21 22 23 24 25 26 27 28 29 30 31 32 33 34 |9 |
1853.000000us| 1 |11 |
35530.000000us| 0 1 2 3 4 5 6 7 8 10 11 12 13 14 15 16 17 18 19 20 21 22 23 24 25 26 27 28 30 31 32 33 34 |9 |
13876.000000us| 2 3 4 12 14 18 19 20 |31 |
29838.000000us| 1 2 3 4 5 6 8 9 11 14 15 17 18 19 22 23 26 27 28 29 30 31 32 33 34 |16 |
29132.000000us| 3 4 5 6 7 8 10 13 14 15 17 18 19 20 21 24 25 26 27 28 29 30 31 33 34 |23 |
0.000000us| |12 |
2550.000000us| 0 22 32 |9 |
24521.000000us| 1 2 4 5 6 8 11 13 14 19 20 25 27 28 29 31 32 33 |7 |
28974.000000us| 0 1 2 3 4 7 9 11 13 14 15 16 17 19 20 22 23 25 26 27 28 29 32 34 |12 |
22032.000000us| 0 3 11 15 17 19 22 23 24 26 27 28 29 31 33 34 |13 |
20844.000000us| 0 1 2 4 6 13 14 16 22 23 24 25 26 27 28 32 |17 |
32809.000000us| 0 1 2 3 5 6 7 8 9 10 11 12 13 14 15 16 17 18 19 20 21 22 23 24 26 28 29 30 31 32 33 34 |4 |
33704.000000us| 0 1 2 3 4 5 7 8 9 10 11 12 13 14 15 16 17 18 19 20 21 22 23 24 25 27 28 29 30 31 32 33 34 |6 |
6843.000000us| 2 10 13 26 34 |15 |
19711.000000us| 1 5 8 10 11 13 19 23 26 31 33 |32 |
4322.000000us| 3 7 9 19 |32 |
8990.000000us| 0 2 11 15 23 26 34 |16 |
14364.000000us| 5 10 19 21 22 23 28 29 32 |17 |
17576.000000us| 1 4 7 15 17 20 24 28 29 33 34 |12 |
21711.000000us| 1 3 5 6 9 11 13 15 17 18 19 22 23 28 34 |31 |
0.000000us| |15 |
27463.000000us| 0 1 2 3 4 6 7 9 11 12 13 14 15 16 18 21 22 24 26 27 32 33 34 |25 |
19003.000000us| 0 3 5 8 10 15 17 18 25 27 28 30 34 |4 |
31755.000000us| 0 1 2 3 4 5 6 7 9 11 12 13 14 15 16 17 19 20 21 22 23 24 26 27 28 29 30 31 32 34 |8 |
32341.000000us| 0 1 2 4 5 6 7 8 9 10 11 12 13 14 15 17 18 19 20 21 22 24 25 26 27 28 29 30 31 33 |23 |
12806.000000us| 0 7 14 26 27 28 30 |16 |
19604.000000us| 0 3 8 9 10 12 15 18 19 21 22 31 33 |14 |
29814.000000us| 0 3 4 5 7 8 9 10 11 12 13 14 15 17 18 20 21 22 23 24 30 31 32 33 34 |29 |
34581.000000us| 0 1 2 3 4 5 6 7 8 9 10 11 12 13 14 15 16 17 18 19 20 21 22 24 25 26 27 28 29 30 31 32 33 34 |23 |
26972.000000us| 2 5 6 8 10 12 13 15 16 17 18 19 20 21 23 24 25 26 27 29 30 31 34 |1 |
9754.000000us| 0 7 18 23 30 32 33 |2 |
31385.000000us| 0 2 3 4 5 6 7 8 9 10 11 12 13 16 17 18 19 21 22 23 24 25 26 27 30 31 33 34 |29 |
13075.000000us| 5 6 7 9 12 16 26 27 |3 |
29870.000000us| 1 2 3 4 5 6 7 8 9 10 13 14 17 18 21 22 24 25 26 27 29 30 31 32 33 34 |12 |
31580.000000us| 0 1 2 3 4 5 6 7 8 10 11 12 13 14 15 16 17 18 19 20 21 22 23 26 28 29 31 32 33 34 |27 |
34520.000000us| 0 1 2 4 5 6 7 8 9 10 11 12 13 14 15 16 17 18 19 20 22 23 24 25 26 27 28 29 30 31 32 33 34 |21 |
18679.000000us| 1 4 6 14 16 18 20 21 24 26 29 34 |25 |
22305.000000us| 2 10 12 13 14 15 16 19 20 21 25 26 27 30 34 |0 |
31205.000000us| 1 2 3 4 6 7 8 9 11 12 13 14 15 17 20 21 22 23 24 26 27 28 29 31 32 33 34 |16 |
2277.000000us| 31 |0 |
25954.000000us| 0 1 2 3 5 6 9 11 12 13 14 15 16 17 21 26 28 30 32 33 34 |20 |
23019.000000us| 3 5 13 14 16 17 18 19 25 26 27 29 31 33 34 |8 |
1910.000000us| 7 |13 |
24819.000000us| 0 2 3 4 5 8 10 13 15 18 19 20 23 24 25 28 29 30 31 33 |34 |
22191.000000us| 5 6 8 9 12 13 14 16 17 19 21 22 23 25 30 31 32 |33 |
31586.000000us| 0 1 2 3 4 5 6 8 10 11 12 13 14 15 16 17 18 19 20 22 23 24 25 26 27 28 30 31 32 33 34 |7 |
15986.000000us| 1 4 5 7 10 13 21 31 32 33 |30 |
33419.000000us| 0 1 2 3 4 5 6 7 8 9 10 12 13 14 15 16 17 18 19 20 22 23 24 26 27 28 29 30 31 32 33 34 |21 |
25784.000000us| 2 3 4 5 6 8 10 17 18 21 23 24 25 26 27 29 30 31 32 34 |7 |
3468.000000us| 13 26 34 |25 |
31515.000000us| 0 3 4 5 7 8 9 10 11 12 13 14 15 17 19 20 21 22 23 24 26 27 28 30 31 32 33 |18 |
30700.000000us| 1 2 3 4 5 8 10 11 13 14 15 16 18 19 20 21 22 24 26 27 28 29 30 31 32 33 34 |0 |
1808.000000us| 13 |4 |
18305.000000us| 2 12 17 18 19 21 23 25 27 29 34 |32 |
29289.000000us| 0 2 3 5 9 11 12 13 15 16 17 18 19 20 21 22 23 24 25 26 27 28 29 30 32 34 |8 |
4955.000000us| 9 11 12 16 25 28 |21 |
34754.000000us| 0 1 2 3 4 5 6 7 8 9 10 11 12 13 14 15 16 17 18 19 20 21 22 23 24 25 26 27 28 29 31 32 33 34 |30 |
23259.000000us| 1 2 3 8 10 14 16 17 19 20 24 27 28 29 30 32 |5 |
29729.000000us| 0 1 2 3 6 7 8 9 10 11 12 13 14 18 19 20 21 23 25 26 27 28 29 30 33 34 |17 |
29915.000000us| 1 2 3 4 5 6 8 11 13 14 15 16 17 18 19 21 23 25 27 28 29 30 31 32 33 34 |22 |
19209.000000us| 0 1 2 3 4 7 8 14 16 22 26 28 32 34 |27 |
31870.000000us| 0 1 2 3 4 5 7 8 9 10 12 14 15 17 18 19 20 21 22 23 24 25 26 28 29 30 31 32 33 34 |13 |
8808.000000us| 0 3 4 6 10 25 28 |33 |
23464.000000us| 0 1 4 10 12 13 14 15 18 19 21 23 24 25 26 28 33 |34 |
32830.000000us| 0 1 2 3 5 6 7 8 9 10 12 13 14 15 16 17 18 19 20 22 23 24 26 27 28 29 30 31 32 33 34 |11 |
22735.000000us| 2 3 5 6 7 10 11 12 13 14 19 23 25 26 30 |27 |
3133.000000us| 6 11 14 30 |29 |
22608.000000us| 0 1 2 3 7 9 10 12 16 17 18 20 21 24 25 27 28 31 |32 |
26950.000000us| 0 1 2 3 4 5 7 8 10 11 14 16 17 20 23 24 25 26 28 29 30 31 33 34 |19 |
16477.000000us| 3 5 15 18 25 27 29 31 32 34 |13 |
9584.000000us| 1 8 15 17 23 24 28 29 |14 |
27567.000000us| 0 2 3 4 5 7 8 9 11 13 14 16 17 20 21 22 23 24 25 30 31 |26 |
21714.000000us| 0 3 6 7 8 10 15 16 19 21 22 23 29 33 |4 |
24336.000000us| 0 2 6 8 10 13 16 17 18 20 21 22 23 24 25 26 27 29 30 31 32 |33 |
18735.000000us| 3 9 12 13 14 15 17 24 26 29 34 |31 |
32640.000000us| 0 1 2 3 5 6 7 8 9 10 11 12 13 14 15 16 17 18 19 20 21 22 23 25 26 27 28 29 31 32 33 34 |4 |
18249.000000us| 1 2 4 6 14 15 17 22 25 29 33 34 |16 |
17522.000000us| 0 3 8 9 10 13 14 16 21 27 29 |4 |
33870.000000us| 0 1 2 4 6 7 8 9 10 11 12 13 14 15 16 17 18 19 21 22 23 24 25 26 27 28 29 30 32 33 34 |3 |
2635.000000us| 10 12 30 |13 |
28797.000000us| 0 2 3 4 5 6 7 8 9 10 11 12 13 14 16 18 21 22 23 24 25 26 27 29 31 |17 |
19259.000000us| 3 5 8 11 12 13 17 24 29 32 34 |31 |
20500.000000us| 0 1 3 7 11 15 16 20 21 22 25 27 31 32 33 34 |6 |
21195.000000us| 1 2 3 4 6 7 9 10 14 16 20 22 23 24 28 31 34 |0 |
23380.000000us| 0 3 9 11 13 14 15 16 17 22 23 24 27 29 31 32 34 |5 |
2073.000000us| 1 15 |33 |
33360.000000us| 1 2 3 4 7 8 9 10 11 13 14 15 17 18 19 20 21 22 23 24 25 26 27 28 29 30 31 32 33 |16 |
15856.000000us| 0 1 9 11 14 20 22 28 29 34 |21 |
0.000000us| |14 |
35115.000000us| 0 1 2 3 4 5 6 7 8 9 10 11 12 13 14 15 16 18 19 20 21 22 23 25 26 27 28 29 30 31 32 33 34 |24 |
31320.000000us| 0 1 2 3 4 5 6 7 8 10 11 12 13 14 15 16 19 20 21 24 25 26 29 30 31 32 34 |9 |
36176.000000us| 0 1 2 3 4 5 6 7 8 9 10 11 12 13 14 15 16 17 18 19 20 21 22 23 24 25 26 27 29 30 31 33 34 |32 |
0.000000us| |18 |
34622.000000us| 2 3 5 6 7 9 10 11 12 13 14 15 16 17 18 19 20 22 23 24 25 26 27 28 29 31 32 33 |21 |
11197.000000us| 2 5 15 17 25 26 28 30 |33 |
2195.000000us| 1 30 |0 |
35004.000000us| 0 2 3 4 5 6 7 8 9 10 11 12 13 14 15 16 17 19 20 21 22 23 24 25 27 28 29 30 31 32 33 34 |1 |
2675.000000us| 10 22 34 |1 |
1795.000000us| 7 |32 |
24680.000000us| 0 2 3 6 7 8 9 13 14 15 23 24 25 26 28 32 33 |34 |
11556.000000us| 0 1 3 4 15 17 21 23 27 |22 |
18054.000000us| 1 4 9 13 15 20 21 24 26 27 28 29 |7 |
34587.000000us| 0 1 2 3 4 5 6 7 8 9 10 11 12 13 14 15 16 17 18 19 21 22 23 24 25 26 27 28 29 30 31 32 33 34 |20 |
27367.000000us| 0 1 2 3 4 5 7 10 12 15 16 17 18 19 20 21 22 23 24 25 26 27 28 29 30 31 33 |11 |
13584.000000us| 2 3 6 10 12 14 20 32 33 |13 |
27019.000000us| 0 2 3 4 5 6 7 8 12 14 15 16 17 18 20 21 24 26 29 30 31 32 33 34 |11 |
26332.000000us| 0 1 3 5 6 8 9 11 12 15 16 17 19 22 23 24 25 26 30 31 32 33 34 |27 |
0.000000us| |5 |
32200.000000us| 0 1 2 3 4 5 6 7 8 9 11 12 14 16 17 18 19 20 21 22 24 25 26 27 28 29 30 31 32 33 34 |13 |
30770.000000us| 0 1 3 5 6 7 9 10 11 12 13 14 15 17 18 19 20 21 22 23 24 25 26 27 28 29 30 31 32 33 |34 |
0.000000us| |34 |
17822.000000us| 4 8 9 13 14 16 18 25 26 27 28 33 |7 |
16703.000000us| 3 4 5 13 17 22 25 27 28 31 33 |6 |
17764.000000us| 4 7 11 12 15 16 18 19 21 29 32 |1 |
3230.000000us| 10 14 16 22 |13 |
24604.000000us| 1 4 5 6 7 11 14 15 16 17 20 21 22 24 26 27 28 29 30 32 33 |31 |
33485.000000us| 0 1 2 4 5 6 9 11 12 13 14 15 16 17 18 19 20 21 22 23 24 25 26 27 28 29 30 31 32 33 34 |3 |
1828.000000us| 22 |34 |
17271.000000us| 2 7 8 10 15 17 19 22 28 29 33 |32 |
2607.000000us| 1 5 11 |18 |
20183.000000us| 0 2 3 4 10 14 17 18 20 25 26 27 31 32 34 |30 |
32673.000000us| 1 2 3 5 6 7 8 9 10 11 12 14 15 16 17 18 19 20 21 22 23 24 25 26 27 28 29 30 31 33 34 |32 |
20127.000000us| 5 7 9 12 14 19 20 21 22 25 26 28 29 |32 |
24611.000000us| 0 1 2 5 6 7 11 12 13 14 16 17 19 23 25 26 27 29 |10 |
30416.000000us| 0 1 2 3 7 8 9 10 11 12 13 14 16 17 18 19 21 22 26 27 28 29 30 32 33 34 |20 |
21984.000000us| 2 3 4 8 9 12 14 16 17 18 21 25 27 28 29 32 |20 |
21489.000000us| 1 4 8 10 13 17 20 22 24 25 26 27 28 30 31 32 |5 |
17131.000000us| 1 2 10 11 12 13 14 15 26 28 29 |16 |
25685.000000us| 0 1 6 7 11 12 13 14 15 19 21 24 26 29 30 31 32 33 34 |22 |
27872.000000us| 0 1 3 5 6 9 10 13 14 15 16 17 18 19 20 21 23 24 25 27 29 30 31 33 34 |8 |
0.000000us| |15 |
31486.000000us| 0 1 3 4 6 7 8 10 11 12 14 15 16 18 19 22 23 24 25 26 27 28 29 30 31 32 33 34 |2 |
27511.000000us| 2 6 8 9 10 11 12 13 14 15 18 21 22 26 27 28 31 33 34 |19 |
27615.000000us| 1 2 3 4 5 6 9 10 12 14 15 16 17 18 19 20 21 26 29 30 31 34 |32 |
30926.000000us| 0 2 3 4 6 7 8 9 10 12 13 14 16 18 20 22 23 24 25 26 27 29 30 31 32 34 |15 |
26178.000000us| 0 1 2 4 6 9 11 12 14 15 16 18 20 21 22 23 25 26 28 29 30 31 34 |10 |
5782.000000us| 2 3 12 16 23 26 30 |1 |
21508.000000us| 2 3 5 6 8 14 17 21 23 24 25 27 30 32 34 |4 |
24640.000000us| 1 2 5 7 8 9 10 11 13 14 19 21 22 23 24 26 28 |31 |
32387.000000us| 0 1 2 3 4 5 6 7 8 9 10 13 14 15 16 18 19 21 22 23 24 25 26 27 28 29 30 31 32 33 34 |20 |
10141.000000us| 8 16 18 24 26 31 32 34 |3 |
29212.000000us| 0 1 2 3 4 5 6 8 9 10 11 13 14 15 16 17 18 19 20 21 23 24 25 30 31 32 34 |7 |
18939.000000us| 2 3 4 5 15 18 19 22 23 25 29 30 31 32 |8 |
34512.000000us| 0 1 2 4 5 6 7 8 9 10 11 12 13 14 15 16 18 19 20 21 22 23 24 25 26 27 28 29 30 31 32 33 34 |3 |
29356.000000us| 0 1 2 3 4 5 7 9 10 11 13 14 15 16 18 19 20 21 22 24 25 26 27 28 29 30 33 |17 |
2899.000000us| 13 14 23 |6 |
26257.000000us| 1 2 3 5 6 7 8 10 11 12 13 15 16 17 19 23 24 27 30 31 33 34 |29 |
0.000000us| |18 |
31086.000000us| 0 1 5 6 7 8 9 10 11 12 13 16 17 18 20 21 22 23 24 25 27 28 29 30 31 32 33 |3 |
21430.000000us| 4 6 7 8 9 10 11 13 15 16 20 21 23 25 30 |31 |
26206.000000us| 2 5 7 8 10 11 12 14 15 16 18 19 20 22 23 25 26 27 28 29 31 33 34 |3 |
34663.000000us| 0 1 2 3 4 5 6 7 8 9 10 11 12 13 14 15 16 17 18 19 20 21 22 23 24 25 26 27 28 29 30 31 33 34 |32 |
28358.000000us| 1 3 4 5 6 9 10 11 14 15 16 17 19 20 22 23 24 25 26 27 28 30 32 34 |8 |
32828.000000us| 0 1 2 5 6 7 8 9 10 11 12 13 16 17 18 20 21 22 23 24 25 26 27 28 29 30 31 32 34 |4 |
21252.000000us| 0 1 4 5 15 16 17 18 20 25 26 27 29 30 31 32 |9 |
2284.000000us| 28 |5 |
2714.000000us| 3 10 19 |1 |
27769.000000us| 2 3 4 6 7 8 9 10 11 12 14 15 16 20 21 22 23 26 27 29 30 31 32 34 |19 |
29432.000000us| 1 3 4 6 7 8 9 10 11 12 17 18 19 21 22 23 25 26 27 28 30 32 34 |20 |
29488.000000us| 0 2 3 4 5 6 7 8 9 11 12 13 15 16 18 21 22 23 25 27 28 30 32 33 34 |24 |
24068.000000us| 1 2 3 7 8 9 11 12 14 15 17 19 24 25 26 27 29 30 34 |22 |
2466.000000us| 19 25 |0 |
21828.000000us| 4 5 8 10 11 12 13 16 19 20 21 22 24 27 29 |25 |
30770.000000us| 2 4 5 7 8 9 10 11 12 13 14 17 19 20 21 22 23 24 25 26 27 28 30 31 32 34 |16 |
24626.000000us| 2 5 6 7 8 9 10 11 12 17 18 20 21 22 24 26 28 29 33 |15 |
24580.000000us| 1 3 4 5 8 10 11 12 13 16 19 21 26 27 29 31 33 34 |28 |
28133.000000us| 1 2 4 5 6 8 9 11 12 13 15 17 18 19 23 24 25 27 29 30 32 33 34 |22 |
24541.000000us| 1 2 3 4 5 6 7 11 12 14 16 18 19 20 23 24 26 29 30 32 33 |17 |
17311.000000us| 2 4 7 8 9 12 18 20 25 27 29 31 34 |14 |
2162.000000us| 6 19 |20 |
28051.000000us| 0 1 2 3 4 6 7 8 9 10 11 12 14 15 16 17 18 19 20 21 29 31 32 33 34 |5 |
11012.000000us| 2 4 6 8 10 11 17 22 33 |28 |
16082.000000us| 1 6 7 12 19 21 22 24 26 29 |25 |
0.000000us| |21 |
7702.000000us| 4 5 8 15 23 27 31 |20 |
26729.000000us| 0 1 2 8 11 12 14 15 17 18 19 20 21 23 26 28 29 30 31 33 34 |27 |
4867.000000us| 8 16 24 26 28 29 |27 |
28442.000000us| 0 3 4 5 6 7 8 9 10 12 13 16 18 19 20 21 22 25 26 28 29 30 32 33 |14 |
7625.000000us| 1 7 11 12 18 21 |6 |
21372.000000us| 0 1 2 5 6 11 18 20 22 23 24 28 29 31 33 |21 |
26426.000000us| 2 3 4 7 9 11 13 14 15 16 18 19 24 25 26 28 29 31 32 34 |0 |
12452.000000us| 4 5 10 12 18 22 30 31 32 |0 |
27443.000000us| 0 1 3 4 5 6 7 11 12 13 16 17 19 21 22 23 24 27 29 30 31 32 34 |33 |
14476.000000us| 0 2 3 6 8 13 21 26 32 |22 |
22028.000000us| 0 1 4 5 8 9 10 13 14 15 17 24 25 26 30 |2 |
34488.000000us| 0 1 2 3 4 5 6 7 8 9 10 11 12 13 14 15 16 17 19 20 21 22 23 24 25 26 27 28 29 30 31 32 33 34 |18 |
30236.000000us| 0 1 2 3 4 5 6 7 8 9 10 11 13 15 16 17 18 20 21 22 24 25 26 28 30 33 34 |19 |
27104.000000us| 1 2 3 6 8 9 12 13 14 16 18 19 22 23 24 25 27 28 29 30 32 33 |34 |
24903.000000us| 0 1 2 3 4 8 11 12 13 15 17 20 23 25 27 28 29 30 32 |24 |
33120.000000us| 0 1 2 3 4 5 6 7 8 10 11 12 13 14 15 16 17 18 19 20 21 22 23 24 26 27 28 29 31 32 33 34 |25 |
32352.000000us| 0 1 3 4 5 6 7 8 9 10 11 12 13 14 17 18 19 20 21 23 25 26 27 28 29 30 31 32 33 34 |2 |
30107.000000us| 0 2 3 4 5 6 7 8 9 10 11 12 13 14 18 19 20 21 22 23 26 27 28 29 30 32 34 |31 |
29526.000000us| 2 3 4 5 7 8 9 11 12 13 14 15 16 17 18 20 21 24 26 27 31 32 33 34 |29 |
34146.000000us| 0 1 2 3 4 5 6 7 8 10 11 12 13 14 15 16 17 18 19 20 21 22 23 24 25 26 27 28 29 30 31 32 33 34 |9 |
20052.000000us| 0 1 5 9 11 13 15 17 25 26 28 29 31 32 33 |6 |
27270.000000us| 1 2 3 6 7 8 9 10 11 12 13 14 15 18 21 22 23 25 26 28 30 32 33 |5 |
35043.000000us| 0 1 2 3 4 6 7 8 9 10 11 12 13 14 15 16 17 18 19 20 21 22 23 24 25 26 27 28 29 30 31 32 33 34 |5 |
34703.000000us| 0 2 3 4 5 6 7 8 9 10 11 12 13 14 15 16 17 18 19 20 21 22 23 24 25 26 27 28 29 30 31 32 33 34 |1 |
30779.000000us| 0 1 3 5 6 7 8 9 12 13 14 16 18 19 20 21 22 23 24 25 26 28 29 30 32 33 34 |27 |
21596.000000us| 2 3 5 8 11 13 15 17 18 22 24 25 26 29 30 33 |19 |
10885.000000us| 3 11 12 14 15 17 23 31 32 |29 |
28457.000000us| 0 3 4 5 6 7 8 9 10 12 14 17 18 19 21 22 23 24 27 29 30 31 32 33 34 |20 |
20427.000000us| 0 3 7 9 12 13 14 15 16 18 23 29 34 |10 |
23173.000000us| 0 1 4 5 6 11 12 15 19 21 23 24 25 26 27 30 33 |31 |
30978.000000us| 1 4 5 7 8 9 10 11 12 13 14 15 16 17 18 19 20 21 23 24 25 26 27 28 29 30 31 34 |32 |
28878.000000us| 0 1 3 4 5 7 9 10 11 13 14 16 17 18 19 20 21 23 24 25 26 28 29 30 31 32 33 |34 |
21310.000000us| 0 1 2 4 6 8 12 15 16 17 19 29 30 33 34 |14 |
2998.000000us| 5 14 17 |19 |
8813.000000us| 2 3 14 22 23 26 32 33 |16 |
3211.000000us| 9 10 22 26 |14 |
29649.000000us| 0 1 2 4 5 6 7 8 9 10 11 12 13 14 15 16 20 23 25 27 28 29 30 31 32 34 |18 |
9786.000000us| 2 7 20 22 24 29 31 |1 |
28940.000000us| 2 3 4 7 8 9 10 11 12 13 14 16 17 20 21 22 23 25 26 27 29 30 33 34 |31 |
32233.000000us| 0 1 2 3 4 5 6 7 9 10 11 12 14 15 16 17 18 19 20 21 22 24 25 26 27 28 29 30 31 32 33 34 |23 |
0.000000us| |1 |
24093.000000us| 5 6 7 9 10 11 13 14 15 16 18 24 25 26 27 28 33 34 |20 |
28562.000000us| 1 2 3 4 5 6 9 10 11 12 14 15 16 17 19 22 23 25 26 27 28 29 30 31 33 34 |21 |
21508.000000us| 3 5 6 7 8 10 12 13 20 24 27 28 30 31 32 |1 |
27748.000000us| 0 1 4 5 6 8 10 12 13 14 15 16 17 18 19 21 22 23 25 28 29 30 31 33 |34 |
33763.000000us| 0 1 2 4 5 6 7 8 10 11 12 13 14 15 16 17 18 20 21 22 23 24 25 26 27 28 29 30 31 32 33 34 |19 |
23678.000000us| 0 2 6 8 11 15 17 20 23 24 25 26 29 31 32 33 34 |19 |
16712.000000us| 1 7 8 11 16 18 20 21 26 28 30 |34 |
28425.000000us| 0 2 3 5 6 7 8 9 10 12 13 16 17 20 21 22 24 25 26 29 30 31 32 33 |18 |
34496.000000us| 0 1 2 3 4 5 6 7 8 9 10 11 12 13 14 15 16 17 18 19 20 22 23 24 25 26 27 28 29 30 31 32 33 34 |21 |
34491.000000us| 0 1 2 4 5 6 7 8 9 10 11 12 13 14 16 17 18 19 20 21 22 23 24 25 26 27 28 29 30 31 32 33 34 |3 |
32041.000000us| 1 3 4 6 7 8 9 11 12 13 15 16 17 18 19 20 21 22 23 24 25 26 27 29 30 31 32 33 |2 |
15386.000000us| 0 6 9 14 21 24 25 29 30 31 |2 |
35480.000000us| 0 1 2 3 4 5 6 7 8 9 10 11 12 13 14 15 16 17 18 19 20 21 22 23 24 25 26 27 28 29 30 31 33 34 |32 |
32139.000000us| 0 1 2 3 4 5 6 7 9 10 11 12 13 14 15 16 17 19 20 21 22 23 24 25 26 27 28 29 30 31 33 34 |8 |
3839.000000us| 5 12 15 23 32 |7 |
25134.000000us| 0 1 3 6 7 9 10 13 15 18 19 22 25 27 28 31 32 34 |29 |
29996.000000us| 0 1 2 3 5 6 7 8 9 11 12 13 14 16 17 18 19 20 21 23 25 27 28 29 31 32 33 |15 |
30249.000000us| 0 1 2 3 4 6 8 9 11 12 13 14 17 18 19 20 21 22 23 24 26 27 28 31 32 33 34 |25 |
15919.000000us| 0 1 14 15 16 18 21 23 24 29 33 |22 |
16457.000000us| 0 1 2 3 5 9 12 15 18 20 28 |24 |
22053.000000us| 0 1 2 3 4 11 12 13 16 18 22 23 24 25 27 30 31 |5 |
17773.000000us| 0 3 4 16 19 21 23 26 28 29 33 34 |14 |
7346.000000us| 6 8 15 27 31 34 |16 |
20224.000000us| 0 1 4 5 6 7 9 14 20 21 23 24 25 31 32 33 |2 |
21619.000000us| 2 6 7 8 13 15 18 20 23 24 25 26 27 28 29 30 |1 |
22550.000000us| 0 2 6 12 14 16 17 19 20 23 24 25 31 33 34 |11 |
31848.000000us| 0 1 3 4 5 6 7 8 10 11 12 13 14 15 16 17 20 21 22 23 24 25 26 28 29 30 31 32 33 34 |19 |
28209.000000us| 0 1 2 3 5 6 7 9 12 13 14 17 18 20 21 24 25 26 27 28 29 31 32 33 34 |23 |
30108.000000us| 0 1 2 4 5 7 8 9 12 13 15 16 17 19 21 22 25 26 27 28 29 30 31 32 33 |23 |
26186.000000us| 0 1 2 3 4 5 6 9 11 14 16 18 19 20 21 23 24 26 28 30 32 34 |12 |
28096.000000us| 0 2 3 4 5 7 9 12 13 14 15 18 22 23 24 25 26 27 28 29 30 31 33 34 |20 |
20875.000000us| 0 2 3 6 7 8 14 17 18 20 24 28 29 32 34 |19 |
10875.000000us| 2 4 5 6 10 16 17 24 27 |1 |
24656.000000us| 4 5 7 8 12 13 15 18 19 20 22 24 25 26 28 29 30 32 |1 |
29444.000000us| 0 1 2 3 5 7 8 9 11 12 15 16 17 18 19 20 22 23 24 26 27 28 30 31 33 34 |6 |
34915.000000us| 0 1 2 3 4 5 7 8 9 10 11 12 13 14 15 16 17 18 19 20 21 22 23 24 25 26 27 28 29 30 31 32 33 34 |6 |
33929.000000us| 0 1 4 5 6 7 8 9 10 11 12 13 14 15 16 17 18 19 20 21 22 23 24 25 26 27 28 29 31 32 33 |30 |
26679.000000us| 0 2 4 7 9 10 12 13 14 15 16 17 20 21 22 24 26 30 31 32 33 |11 |
19375.000000us| 0 1 3 5 6 11 13 22 24 25 27 30 31 |33 |
34590.000000us| 0 1 2 3 4 5 6 7 8 9 10 11 12 13 14 15 16 17 19 20 21 24 25 26 27 28 29 30 31 32 34 |18 |
32405.000000us| 0 1 2 3 4 5 6 7 9 10 11 12 14 15 17 18 19 20 21 23 24 25 26 27 28 29 30 31 32 33 34 |16 |
13618.000000us| 4 8 15 17 18 19 24 25 29 |27 |
11934.000000us| 5 6 7 9 14 21 30 |26 |
10676.000000us| 2 3 8 17 21 24 31 34 |32 |
14017.000000us| 4 5 6 7 9 10 13 22 |18 |
2833.000000us| 6 16 30 33 |28 |
4942.000000us| 1 2 4 18 24 32 |22 |
31226.000000us| 0 1 2 3 4 6 7 10 11 12 13 14 15 16 17 18 20 21 22 23 24 25 26 27 28 29 30 31 32 34 |9 |
16563.000000us| 0 2 9 12 13 22 24 25 26 29 33 |16 |
22133.000000us| 0 2 8 10 11 12 14 15 16 19 21 22 25 26 27 28 32 |23 |
27289.000000us| 0 1 3 5 6 8 9 10 11 12 13 16 17 18 20 22 23 25 27 29 31 32 33 34 |21 |
21865.000000us| 0 1 2 4 6 10 13 14 15 18 19 21 25 26 29 31 32 |5 |
2334.000000us| 11 32 |21 |
24558.000000us| 1 4 5 6 7 9 10 14 16 17 18 19 20 21 22 23 24 28 29 30 31 |0 |
25031.000000us| 0 1 2 3 4 5 6 7 12 13 14 15 16 18 19 24 26 27 28 29 32 |10 |
3182.000000us| 12 20 34 |3 |
34054.000000us| 1 2 3 4 6 7 8 9 11 12 13 14 15 16 17 18 19 20 21 22 23 24 25 26 27 29 30 31 32 33 34 |10 |
17327.000000us| 2 4 9 10 11 14 19 23 25 26 27 32 |5 |
26908.000000us| 1 2 6 7 8 9 11 12 15 16 17 19 21 22 24 25 26 27 29 30 32 34 |10 |
12784.000000us| 3 8 17 19 21 22 26 33 |15 |
25082.000000us| 0 1 3 5 6 9 10 12 15 16 19 20 22 24 26 27 28 29 30 31 32 |13 |
23606.000000us| 0 2 4 5 7 10 12 15 16 19 22 23 25 26 27 28 30 31 33 |21 |
30804.000000us| 0 4 5 6 7 8 9 10 11 12 13 14 15 16 18 21 23 24 25 26 28 29 30 31 32 34 |22 |
28303.000000us| 0 2 3 4 6 7 11 12 13 14 15 16 18 19 22 24 25 26 28 29 30 32 33 34 |23 |
3440.000000us| 12 16 21 25 27 |32 |
29171.000000us| 0 2 3 4 5 6 7 8 9 11 13 14 15 18 20 21 23 24 25 27 30 31 33 34 |19 |
16033.000000us| 1 5 6 17 18 21 25 26 27 30 32 |10 |
21013.000000us| 0 2 8 10 11 12 13 16 22 23 24 26 28 31 33 |19 |
29848.000000us| 0 2 3 5 6 8 9 10 11 15 16 17 18 19 20 21 22 23 24 25 26 28 29 30 31 32 33 34 |27 |
25386.000000us| 0 2 5 6 9 11 13 15 16 17 18 21 22 23 24 25 26 27 29 30 31 32 |8 |
28371.000000us| 0 1 2 3 4 5 6 7 10 11 13 14 16 17 18 21 22 25 26 28 29 30 31 32 33 34 |24 |
2189.000000us| 24 28 |18 |
34368.000000us| 0 1 2 3 4 5 6 7 8 9 10 11 12 13 14 15 16 17 18 19 20 21 22 23 24 25 27 28 29 31 32 33 34 |30 |
4295.000000us| 2 3 5 23 24 31 |12 |
23076.000000us| 2 4 8 13 14 15 16 17 19 20 26 27 28 34 |7 |
26748.000000us| 0 2 3 4 5 6 7 8 9 12 14 15 17 21 23 25 26 27 28 30 32 34 |18 |
31611.000000us| 1 2 4 5 6 7 8 9 10 11 13 14 18 20 21 22 23 24 25 26 27 28 29 30 31 33 34 |17 |
28660.000000us| 0 1 2 3 4 5 6 7 8 9 10 11 13 15 16 18 20 22 23 24 27 28 29 30 33 |17 |
21156.000000us| 2 3 4 5 7 12 13 17 20 23 24 27 32 33 34 |30 |
8775.000000us| 6 17 19 25 27 30 |0 |
20869.000000us| 2 3 9 12 14 15 19 21 22 24 25 27 28 29 30 31 |8 |
29059.000000us| 1 3 5 7 8 10 11 12 13 14 16 18 19 20 21 22 23 24 25 27 28 30 31 33 34 |32 |
34344.000000us| 0 1 2 3 4 5 6 7 8 9 10 11 12 13 14 15 16 17 18 19 20 21 22 23 24 25 26 28 29 30 31 32 33 34 |27 |
2083.000000us| 1 21 |18 |
31562.000000us| 0 1 2 3 5 6 9 10 11 12 13 14 15 16 17 18 19 20 21 22 23 24 25 26 28 29 31 32 33 34 |30 |
26481.000000us| 0 2 3 4 5 7 8 9 10 13 16 17 19 23 24 25 26 29 32 33 34 |21 |
24302.000000us| 0 3 4 5 6 11 15 17 18 19 20 21 22 24 28 30 33 |29 |
2223.000000us| 8 17 |25 |
31278.000000us| 0 1 2 3 5 6 7 8 9 10 11 12 13 14 15 16 17 18 19 20 21 22 23 24 26 28 29 32 33 34 |27 |
29654.000000us| 0 1 2 3 4 5 6 8 10 11 12 13 15 16 18 19 20 21 22 23 24 25 26 28 29 30 31 34 |17 |
2140.000000us| 5 7 |18 |
17660.000000us| 4 11 15 17 18 19 20 22 29 30 32 33 34 |8 |
2860.000000us| 9 24 26 27 |14 |
21616.000000us| 2 4 5 6 8 12 14 17 18 19 24 27 31 33 |3 |
5134.000000us| 4 6 18 20 25 |19 |
13944.000000us| 3 9 18 22 27 29 30 32 33 34 |2 |
26169.000000us| 6 7 8 9 10 11 12 13 16 20 21 22 23 25 26 27 28 29 30 32 33 34 |3 |
10029.000000us| 8 9 16 18 21 24 28 34 |1 |
19241.000000us| 1 3 9 10 13 16 18 21 22 23 27 30 34 |7 |
31751.000000us| 0 1 2 3 5 6 7 8 9 10 11 12 13 14 16 17 19 20 21 22 23 24 25 26 27 29 30 31 32 33 |15 |
34608.000000us| 0 1 2 3 4 5 6 7 8 9 10 11 12 13 14 15 16 17 18 19 20 21 22 23 24 25 26 27 28 29 31 32 33 34 |30 |
22579.000000us| 0 1 6 7 8 10 12 13 14 23 28 29 30 32 33 34 |22 |
22086.000000us| 0 6 7 12 13 14 19 22 23 27 31 32 34 |24 |
33735.000000us| 0 1 2 3 6 7 8 9 10 11 12 13 14 15 16 17 18 19 20 21 22 23 24 25 26 27 28 29 30 31 33 34 |4 |
8846.000000us| 4 8 9 10 11 13 26 |23 |
33982.000000us| 0 1 2 3 4 5 7 8 9 10 11 12 13 14 15 16 17 19 20 21 22 23 24 25 26 27 28 29 30 31 32 33 34 |18 |
21250.000000us| 1 11 13 14 15 16 19 21 23 26 27 28 29 |6 |
0.000000us| |9 |
2145.000000us| 28 31 |23 |
5093.000000us| 0 6 17 23 26 28 |22 |
20047.000000us| 3 4 6 7 8 14 15 16 18 20 24 25 30 33 34 |23 |
1824.000000us| 15 |16 |
2444.000000us| 34 |13 |
1673.000000us| 3 |18 |
0.000000us| |6 |
16349.000000us| 0 4 5 15 19 21 22 24 25 27 |8 |
2648.000000us| 14 29 |30 |
12288.000000us| 4 5 10 17 24 25 29 34 |14 |
20720.000000us| 0 1 2 6 7 12 14 17 18 21 22 25 26 28 29 33 |15 |
29999.000000us| 1 2 3 4 7 8 10 11 12 13 14 15 16 18 19 20 21 25 26 27 28 29 30 31 32 34 |0 |
2050.000000us| 12 28 |16 |
28351.000000us| 0 1 3 4 6 7 9 10 11 13 15 16 17 19 20 22 23 24 26 27 29 31 33 34 |30 |
18736.000000us| 4 6 8 10 12 16 21 22 26 27 32 34 |0 |
8408.000000us| 0 1 2 6 8 11 21 |25 |
19452.000000us| 3 4 6 8 10 12 17 24 25 26 28 30 31 34 |0 |
0.000000us| |18 |
32118.000000us| 0 1 2 3 4 5 6 7 8 10 11 12 13 14 16 17 18 19 20 21 22 23 24 25 27 28 29 30 31 32 34 |9 |
22762.000000us| 0 1 6 7 9 11 13 17 19 20 27 31 33 34 |2 |
28578.000000us| 0 1 2 4 5 6 7 8 9 10 11 13 14 20 21 23 24 25 27 28 30 32 33 34 |18 |
24963.000000us| 1 2 8 9 11 12 14 15 17 18 20 21 23 24 26 28 30 31 32 34 |13 |
26788.000000us| 0 3 4 5 6 9 11 13 17 19 21 23 24 27 28 29 30 32 33 34 |7 |
13857.000000us| 2 5 13 15 20 21 23 24 |16 |
22758.000000us| 0 1 2 6 8 9 13 17 19 23 28 31 32 33 34 |15 |
5639.000000us| 3 9 11 14 26 30 |22 |
4501.000000us| 9 18 19 23 25 |6 |
17670.000000us| 0 4 6 8 12 14 16 18 24 27 28 |29 |
18693.000000us| 3 4 6 7 11 15 17 19 20 28 31 33 |9 |
28833.000000us| 0 2 3 5 6 7 8 9 10 13 15 16 17 19 20 21 22 23 26 27 29 31 32 34 |33 |
11833.000000us| 2 7 14 15 20 30 31 |28 |
29190.000000us| 2 3 4 5 6 7 8 9 10 11 12 13 14 15 17 18 19 20 23 25 26 27 28 30 33 34 |32 |
34667.000000us| 0 1 2 3 4 5 6 7 8 9 10 11 12 13 14 15 16 17 18 19 20 21 22 23 24 25 26 27 28 30 31 32 33 34 |29 |
30780.000000us| 1 3 4 5 6 7 8 9 11 12 13 14 15 17 19 20 21 22 23 24 28 29 31 32 33 34 |16 |
22092.000000us| 2 3 4 5 7 10 11 13 17 22 23 26 28 30 34 |8 |
30205.000000us| 1 2 3 4 5 6 7 8 9 11 15 16 17 19 20 21 22 23 24 25 26 27 28 29 32 33 34 |31 |
6546.000000us| 6 12 27 30 32 34 |3 |
22868.000000us| 5 6 9 12 13 14 16 17 18 19 23 26 30 31 34 |10 |
2536.000000us| 10 12 18 |28 |
36754.000000us| 0 1 2 3 4 5 6 7 8 9 10 11 12 13 14 15 16 17 18 19 20 21 22 23 24 25 26 27 28 30 31 32 33 34 |29 |
23306.000000us| 0 2 3 4 6 8 9 13 16 21 22 24 25 28 30 31 33 34 |5 |
2870.000000us| 2 25 26 29 |23 |
