2022-07-03 16:14:08 INFO input: my_data/1000/child.csv
2022-07-03 16:14:08 INFO variables: 20
2022-07-03 16:14:08 INFO instances: 1000
2022-07-03 16:14:08 INFO function: 
2022-07-03 16:14:08 INFO limit: 6
2022-07-03 16:14:08 INFO priors: 
2022-07-03 16:14:08 INFO output: tmp.mps
2022-07-03 16:14:08 INFO searching parent sets
2022-07-03 16:14:08 DEBUG processing with N = 1
2022-07-03 16:14:08 DEBUG building CTCounter engine
2022-07-03 16:14:08 DEBUG engine ready in 115ms
2022-07-03 16:14:08 DEBUG building MDLEngine...
2022-07-03 16:14:08 DEBUG MDLEngine getting entropies...
2022-07-03 16:15:46 DEBUG variables reordered for efficiency
2022-07-03 16:15:46 INFO maximal number of parents limited to 6
2022-07-03 16:15:46 DEBUG MDLEngine ready!
2022-07-03 16:15:46 DEBUG updating MPS...
2022-07-03 16:15:46 DEBUG sort done, MPS update size is 20
2022-07-03 16:15:46 DEBUG MPS updated
2022-07-03 16:15:46 INFO processed layer 0, size of next layer 20, time: 7.1241e-05s (0h0m0s)
2022-07-03 16:15:46 DEBUG memory required: 320B
2022-07-03 16:15:46 DEBUG updating MPS...
2022-07-03 16:15:46 DEBUG sort done, MPS update size is 164
2022-07-03 16:15:46 DEBUG MPS updated
2022-07-03 16:15:46 INFO processed layer 1, size of next layer 190, time: 0.000610577s (0h0m0s)
2022-07-03 16:15:46 DEBUG memory required: 2.969KB
2022-07-03 16:15:46 DEBUG updating MPS...
2022-07-03 16:15:46 DEBUG sort done, MPS update size is 163
2022-07-03 16:15:46 DEBUG MPS updated
2022-07-03 16:15:46 INFO processed layer 2, size of next layer 1140, time: 0.00623933s (0h0m0s)
2022-07-03 16:15:46 DEBUG memory required: 17.81KB
2022-07-03 16:15:46 DEBUG updating MPS...
2022-07-03 16:15:46 DEBUG sort done, MPS update size is 3
2022-07-03 16:15:46 DEBUG MPS updated
2022-07-03 16:15:46 INFO processed layer 3, size of next layer 4845, time: 0.0485127s (0h0m0s)
2022-07-03 16:15:46 DEBUG memory required: 75.7KB
2022-07-03 16:15:46 DEBUG updating MPS...
2022-07-03 16:15:46 DEBUG sort done, MPS update size is 0
2022-07-03 16:15:46 DEBUG MPS updated
2022-07-03 16:15:46 INFO processed layer 4, size of next layer 12514, time: 0.283245s (0h0m0s)
2022-07-03 16:15:46 DEBUG memory required: 195.5KB
2022-07-03 16:15:47 DEBUG updating MPS...
2022-07-03 16:15:47 DEBUG sort done, MPS update size is 0
2022-07-03 16:15:47 DEBUG MPS updated
2022-07-03 16:15:47 INFO processed layer 5, size of next layer 11172, time: 0.70287s (0h0m0s)
2022-07-03 16:15:47 DEBUG memory required: 174.6KB
2022-07-03 16:15:48 DEBUG updating MPS...
2022-07-03 16:15:48 DEBUG sort done, MPS update size is 0
2022-07-03 16:15:48 DEBUG MPS updated
2022-07-03 16:15:48 INFO processed layer 6, size of next layer 0, time: 0.430638s (0h0m0s)
2022-07-03 16:15:48 DEBUG memory required: 0B
2022-07-03 16:15:48 INFO writing MPS with 350 parent sets
2022-07-03 16:15:48 INFO searching done in 99.56s (0h1m39s)
