2022-07-03 16:30:45 INFO input: my_data/1000/insurance.csv
2022-07-03 16:30:45 INFO variables: 27
2022-07-03 16:30:45 INFO instances: 1000
2022-07-03 16:30:45 INFO function: 
2022-07-03 16:30:45 INFO limit: 6
2022-07-03 16:30:45 INFO priors: 
2022-07-03 16:30:45 INFO output: tmp.mps
2022-07-03 16:30:45 INFO searching parent sets
2022-07-03 16:30:45 DEBUG processing with N = 1
2022-07-03 16:30:45 DEBUG building CTCounter engine
2022-07-03 16:30:45 DEBUG engine ready in 40ms
2022-07-03 16:30:45 DEBUG building MDLEngine...
2022-07-03 16:30:45 DEBUG MDLEngine getting entropies...
